{
  ////////////////////////////////////////////////////////////////
  //
  //  豹冲-42404001
  //
  ////////////////////////////////////////////////////////////////
  "Panther_None_FollowBullet": {
    "$type": "ConfigGadget",
    "common": {
      "effectAttachShape": {
        "$type": "ConfigEffectAttachBox",
        "emitFrom": "Volume",
        "scaleX": 1.0,
        "scaleY": 1.0,
        "scaleZ": 1.0
      }
    },
    "combat": {
      "property": {
        "useCreatorProperty": true, // 是否继承创造者的数值
        "HP": 999999,
        "attack": 30.0,
        "defense": 999999,
        "isLockHP": true,
        "canTriggerBullet": false
      },
      "combatLock": {
        "denyLockOn": true
      },
      "beHit": {
        "hitBloodEffect": "",
        "muteAllHit": true,
        "muteAllHitEffect": true,
        "muteAllHitText": true
      },
      "animEvents": {}
    },
    // 生命周期管理
    "timer": {
      "lifeInfinite": false,
      "lifeTime": 4.0
    },
    // 子弹线性移动
    "move": {
      "$type": "ConfigFollowMove",
      "target": "TargetEntity",
      "followRotation": true,
      "offset": {
        "x": 0.0,
        "y": 0.0,
        "z": 0.0
      },
      "forward": {
        "x": 0.0,
        "y": 0.0,
        "z": 0.3
      }
    },
    // 子弹参数
    "gadget": {
      "$type": "ConfigBulletPattern",
      "collision": {
        "targetType": "Enemy",
        "triggerType": "TriggerNoRepeat",
        "ignoreScene": true
      },
      "triggerActions": [
        {
          "$type": "ConfigGadgetTriggerAbility",
          "abilityName": "Panther_None_FollowBullet"
        }
      ]
    },
    "abilities": [
      {
        "abilityName": "Panther_None_FollowBullet"
      }
    ]
  },
  ////////////////////////////////////////////////////////////////
  //
  //   SacredAttack02 风刃
  //
  ////////////////////////////////////////////////////////////////
  "Panther_Sacred_Attack02_GrassBlade": {
    "$type": "ConfigGadget",
    "common": {
      "effectAttachShape": {
        "$type": "ConfigEffectAttachBox",
        "emitFrom": "Volume",
        "scaleX": 1.0,
        "scaleY": 1.0,
        "scaleZ": 1.0
      }
    },
    "combat": {
      "property": {
        "useCreatorProperty": true, // 是否继承创造者的数值
        "isLockHP": true,
        "canTriggerBullet": false
      },
      "combatLock": {
        "denyLockOn": true
      },
      "beHit": {
        "hitBloodEffect": "",
        "muteAllHit": true,
        "muteAllHitEffect": true,
        "muteAllHitText": true
      }
    },
    // 子弹线性移动
    "move": {
      "$type": "ConfigLinerBulletMove",
      "speed": 30,
      "maxSpeed": 50,
      "acceleration": 10,
      "updateAngle": {
        "$type": "ConfigBulletMoveAngleByVelocity"
      },
      "canBornInWater": true,
      "velocityForce": {
        "excludeForces": ["WindZoneType"]
      }
    },
    "timer": {
      "lifeInfinite": false, //如果未触发是否一致存在
      "lifeTime": 4 //存在时间
    },
    // 子弹参数
    "gadget": {
      "$type": "ConfigBulletPattern",
      "collision": {
        "targetType": "Enemy",
        "triggerType": "TriggerNoRepeat",
        "ignoreScene": true
      },
      "triggerActions": [
        {
          "$type": "ConfigGadgetTriggerAbility",
          "abilityName": "Monster_Panther_Sacred_Attack02_GrassBlade"
        }
      ]
    },
    "abilities": [
      {
        "abilityName": "Monster_Panther_Sacred_Attack02_GrassBlade"
      }
    ]
  },
  ////////////////////////////////////////////////////////////////////////////////////
  //
  //  毒蝎魔神能量探测子弹
  //
  ////////////////////////////////////////////////////////////////////////////////////
  "Panther_Sacred_SacredEnergy_Detect": {
    "$type": "ConfigGadget",
    "common": {
      "effectAttachShape": {
        "$type": "ConfigEffectAttachBox",
        "emitFrom": "Volume",
        "scaleX": 1,
        "scaleY": 1,
        "scaleZ": 1
      },
      "scale": 1
    },
    "combat": {
      "property": {
        "useCreatorProperty": true, // 是否继承创造者的数值
        "HP": 999999,
        "attack": 0.0,
        "defense": 999999,
        "isInvincible": true,
        "isGhostToAllied": true,
        "isGhostToEnemy": true
      },
      "combatLock": {
        "denyLockOn": true
      },
      "beHit": {
        "hitBloodEffect": "",
        "muteAllHit": true,
        "muteAllHitEffect": true,
        "muteAllHitText": true
      }
    },
    "move": {
      "$type": "ConfigLinerBulletMove",
      "speed": 40.0
    },
    // 生命周期管理
    "timer": {
      "lifeInfinite": false,
      "lifeTime": 0.1
    },
    // 子弹参数
    "gadget": {
      "$type": "ConfigBulletPattern",
      "collision": {
        "targetType": "Enemy",
        "triggerType": "TriggerOnce",
        "ignoreScene": false
      },
      "triggerActions": [
        {
          "$type": "ConfigGadgetTriggerAbility",
          "abilityName": "Monster_Panther_Sacred_SacredEnergy_Create"
        }
      ],
      "triggerLifeOverActions": [
        {
          "$type": "ConfigGadgetTriggerAbility",
          "abilityName": "Monster_Panther_Sacred_SacredEnergy_CreateO"
        }
      ]
    },
    "abilities": [
      {
        "abilityName": "Monster_Panther_Sacred_SacredEnergy_Create"
      },
      {
        "abilityName": "Monster_Panther_Sacred_SacredEnergy_CreateO"
      }
    ]
  },
  ////////////////////////////////////////////////////////////////////////////////////
  //
  //  毒蝎能量蓄积子弹
  //
  ////////////////////////////////////////////////////////////////////////////////////
  "Panther_Sacred_SacredEnergy_Accum": {
    "$type": "ConfigGadget",
    "common": {
      "effectAttachShape": {
        "$type": "ConfigEffectAttachBox",
        "emitFrom": "Volume",
        "scaleX": 1.0,
        "scaleY": 1.0,
        "scaleZ": 1.0
      }
    },
    "combat": {
      "property": {
        "useCreatorProperty": true, // 是否继承创造者的数值
        "HP": 999999,
        "attack": 10.0,
        "defense": 999999,
        "isInvincible": true,
        "isGhostToAllied": true,
        "isGhostToEnemy": true
      },
      "combatLock": {
        "denyLockOn": true
      },
      "beHit": {
        "hitBloodEffect": "",
        "muteAllHit": true,
        "muteAllHitEffect": true,
        "muteAllHitText": true
      },
      "simulatePhysics": {
        "enable": false
      }
    },
    // 子弹移动
    "move": {
      "$type": "ConfigMultiBulletMove"
    },
    // 生命周期管理
    "timer": {
      "lifeInfinite": false, //如果未触发是否一致存在
      "lifeTime": 5.0 //存在时间
    },
    // 子弹参数
    "gadget": {
      "$type": "ConfigMultiBulletPattern",
      "multiBulletConfig": {
        "$type": "ConfigEffectItanoCircusBullet",
        "effectPattern": "Eff_Monster_Panther_Sacred_SacredAttack05_SacredEnergy_Bullet"
      },
      "collision": {
        "targetType": "None",
        "triggerType": "TriggerOnce",
        "ignoreScene": true
      },
      "killByOther": true
    },
    "abilities": [
      {
        "abilityName": "Monster_Panther_Sacred_SacredEnergy_Accum"
      }
    ]
  },
  ////////////////////////////////////////////////////////////////////////////////////
  //
  //  飞蛇-魔神能量创生物
  //
  ////////////////////////////////////////////////////////////////////////////////////
  "Panther_Sacred_SacredEnergy_Gadget": {
    "$type": "ConfigGadget",
    "common": {
      "effectAttachShape": {
        "$type": "ConfigEffectAttachBox",
        "emitFrom": "Volume",
        "scaleX": 1.0,
        "scaleY": 1.0,
        "scaleZ": 1.0
      }
    },
    "billboard": {
      "$type": "ConfigCombatBillboard",
      "attachPoint": "BillboardAttach",
      "offset": {
        "x": 0,
        "y": 0,
        "z": 0
      },
      "radiusOffset": 3.0,
      "enableSelfAdapt": false,
      "showDistance": 48,
      "forceShowDistance": 48,
      "showHPBar": true,
      "shieldBarOnly": true,
      "size": "Grand"
    },
    "specialPoint": {
      "bulletAim": "BulletAimPoint",
      "hitPoints": ["BulletAimPoint"],
      "selectedPoints": ["BulletAimPoint"]
    },
    "combat": {
      "property": {
        "useCreatorProperty": true, // 是否继承创造者的数值
        "HP": 999999,
        "attack": 10.0,
        "defense": 999999,
        "isLockHP": true,
        "isGhostToAllied": false,
        "isGhostToEnemy": false
      },
      "combatLock": {
        "denyLockOn": false,
        "lockType": "Avatar&Monster_Lv4"
      },
      "beHit": {
        "hitBloodEffect": "",
        "hitAutoRedirect": false,
        "muteAllHit": false,
        "muteAllHitEffect": true,
        "muteAllHitText": true
      }
    },
    // 生命周期管理
    "timer": {
      "lifeInfinite": false, //如果未触发是否一致存在
      "lifeTime": 11.5 //存在时间
    },
    "abilities": [
      {
        "abilityName": "Monster_Panther_Sacred_SacredEnergy_Gadget"
      }
    ]
  },
  ////////////////////////////////////////////////////////////////
  //
  //  飞蛇-魔神能量子弹
  //
  ////////////////////////////////////////////////////////////////
  "Panther_Sacred_SacredEnergy_Bullet": {
    "$type": "ConfigGadget",
    "common": {
      "effectAttachShape": {
        "$type": "ConfigEffectAttachBox",
        "emitFrom": "Volume",
        "scaleX": 1.0,
        "scaleY": 1.0,
        "scaleZ": 1.0
      }
    },
    "combat": {
      "property": {
        "useCreatorProperty": true, // 是否继承创造者的数值
        "HP": 999999,
        "attack": 10.0,
        "defense": 999999,
        "isInvincible": true,
        "isGhostToAllied": true,
        "isGhostToEnemy": true
      },
      "combatLock": {
        "denyLockOn": true
      },
      "beHit": {
        "hitBloodEffect": "",
        "muteAllHit": true,
        "muteAllHitEffect": true,
        "muteAllHitText": true
      }
    },
    // 子弹移动
    "move": {
      "$type": "ConfigTrackBulletMove",
      "delay": 0.4,
      "speed": 10,
      "acceleration": 10,
      "maxSpeed": 20,
      "updateAngle": {
        "$type": "ConfigBulletMoveAngleByVelocity"
      },
      "traceOnYAxis": true,
      "destroyWhenTargetDie": false,
      "canBornInWater": true
    },
    // 生命周期管理
    "timer": {
      "lifeInfinite": false, //如果未触发是否一致存在
      "lifeTime": 7.5 //存在时间
    },
    // 子弹参数
    "gadget": {
      "$type": "ConfigBulletPattern",
      "collision": {
        "targetType": "Enemy",
        "triggerType": "TriggerNoRepeat",
        "ignoreScene": true
      },
      "triggerActions": [
        {
          "$type": "ConfigGadgetTriggerAbility",
          "abilityName": "Monster_Panther_Sacred_SacredEnergy_Bullet"
        }
      ],
      "killByOther": true
    },
    "abilities": [
      {
        "abilityName": "Monster_Panther_Sacred_SacredEnergy_Bullet"
      }
    ]
  },
  ////////////////////////////////////////////////////////////////
  //
  //  丛林豹-魔神能量怪物子弹
  //
  ////////////////////////////////////////////////////////////////
  "Panther_Sacred_SacredEnergy_Bullet_ToMonster": {
    "$type": "ConfigGadget",
    "common": {
      "effectAttachShape": {
        "$type": "ConfigEffectAttachBox",
        "emitFrom": "Volume",
        "scaleX": 1.0,
        "scaleY": 1.0,
        "scaleZ": 1.0
      }
    },
    "combat": {
      "property": {
        "useCreatorProperty": true, // 是否继承创造者的数值
        "HP": 999999,
        "attack": 10.0,
        "defense": 999999,
        "isInvincible": true,
        "isGhostToAllied": true,
        "isGhostToEnemy": true
      },
      "combatLock": {
        "denyLockOn": true
      },
      "beHit": {
        "hitBloodEffect": "",
        "muteAllHit": true,
        "muteAllHitEffect": true,
        "muteAllHitText": true
      }
    },
    // 子弹移动
    "move": {
      "$type": "ConfigTrackBulletMove",
      "delay": 0.4,
      "speed": 10,
      "acceleration": 10,
      "maxSpeed": 20,
      "updateAngle": {
        "$type": "ConfigBulletMoveAngleByVelocity"
      },
      "traceOnYAxis": true,
      "destroyWhenTargetDie": false,
      "canBornInWater": true
    },
    // 生命周期管理
    "timer": {
      "lifeInfinite": false, //如果未触发是否一致存在
      "lifeTime": 10.0 //存在时间
    },
    // 子弹参数
    "gadget": {
      "$type": "ConfigBulletPattern",
      "collision": {
        "targetType": "AllExceptSelf",
        "triggerType": "TriggerNoRepeat",
        "ignoreScene": true
      },
      "triggerActions": [
        {
          "$type": "ConfigGadgetTriggerAbility",
          "abilityName": "Monster_Panther_Sacred_SacredEnergy_Bullet_ToMonster"
        }
      ],
      "killByOther": true
    },
    "abilities": [
      {
        "abilityName": "Monster_Panther_Sacred_SacredEnergy_Bullet_ToMonster"
      }
    ]
  }
}
