[
  {
    "activityID": 5037,
    "descTextMapHash": 323434412,
    "rewardPreviewID": 32001,
    "FEMCHAPIFIE": 2013,
    "PLOEDCDKOIM": 72656,
    "watcherList": [
      1503701, 1503702, 1503703, 1503704, 1503705, 1503706, 1503707, 1503708,
      1503709, 1503710, 1503711, 1503712, 1503713, 1503714, 1503715
    ],
    "matchPlayerLimit": 2,
    "FLICHOGOIKI": true,
    "AEHIMINKBPJ": 7400,
    "EFBHPGDDNBI": 9999,
    "punishTime": 600,
    "JPECOACFGPO": 129,
    "OKFKIFKGFNB": 10301,
    "DKOLHIFDPAB": [23]
  }
]
