[
  {
    "id": 1,
    "gadgetID": 70290396,
    "IOPNBADHLAI": [0.03750000149011612],
    "KBLPCAGMPLH": [6],
    "materialID": 101847,
    "DMIIGJFCNEF": "",
    "NCFKLGAEFAM": "Eff_Property_Prop_GearPillar_01_Put",
    "MFLDNOIGMBG": "Eff_Property_Prop_GearPillar_01_Cover"
  },
  {
    "id": 2,
    "gadgetID": 70290397,
    "IOPNBADHLAI": [0.07500000298023224],
    "KBLPCAGMPLH": [12],
    "materialID": 101848,
    "DMIIGJFCNEF": "Eff_Property_Prop_Gear_02_Illegal",
    "NCFKLGAEFAM": "Eff_Property_Prop_GearPillar_02_Put",
    "MFLDNOIGMBG": "Eff_Property_Prop_GearPillar_02_Cover"
  },
  {
    "id": 3,
    "gadgetID": 70290398,
    "IOPNBADHLAI": [0.10000000149011612],
    "KBLPCAGMPLH": [16],
    "materialID": 101849,
    "DMIIGJFCNEF": "",
    "NCFKLGAEFAM": "",
    "MFLDNOIGMBG": ""
  },
  {
    "id": 4,
    "gadgetID": 70290399,
    "IOPNBADHLAI": [0.15000000596046448],
    "KBLPCAGMPLH": [24],
    "materialID": 101850,
    "DMIIGJFCNEF": "Eff_Property_Prop_Gear_03_Illegal",
    "NCFKLGAEFAM": "Eff_Property_Prop_GearPillar_03_Put",
    "MFLDNOIGMBG": "Eff_Property_Prop_GearPillar_03_Cover"
  },
  {
    "id": 5,
    "gadgetID": 70290400,
    "IOPNBADHLAI": [0.07500000298023224, 0.03750000149011612],
    "KBLPCAGMPLH": [12, 6],
    "materialID": 101851,
    "DMIIGJFCNEF": "Eff_Property_Prop_Gear_04_Illegal",
    "NCFKLGAEFAM": "Eff_Property_Prop_GearPillar_02_Put",
    "MFLDNOIGMBG": "Eff_Property_Prop_GearPillar_02_Cover"
  },
  {
    "id": 6,
    "gadgetID": 70290401,
    "IOPNBADHLAI": [0.15000000596046448, 0.07500000298023224],
    "KBLPCAGMPLH": [24, 12],
    "materialID": 101852,
    "DMIIGJFCNEF": "Eff_Property_Prop_Gear_05_Illegal",
    "NCFKLGAEFAM": "Eff_Property_Prop_GearPillar_03_Put",
    "MFLDNOIGMBG": "Eff_Property_Prop_GearPillar_03_Cover"
  },
  {
    "id": 7,
    "gadgetID": 70290427,
    "IOPNBADHLAI": [0.10000000149011612],
    "KBLPCAGMPLH": [16],
    "materialID": 101853,
    "DMIIGJFCNEF": "",
    "NCFKLGAEFAM": "",
    "MFLDNOIGMBG": ""
  }
]
