[
  {
    "id": 1001,
    "type": "ACTIVITY_MAP_TYPE_PACMAN",
    "PEGEJINFPFC": 183988645487557880,
    "EJJCPAEDEHE": [0.800000011920929, 1.2000000476837158],
    "EOLEOIJCCHD": [-127.0999984741211, 136.6999969482422, -59.29999923706055],
    "NBMMEFBJOHD": 110.0,
    "GKDKLOIKNCH": 1024.0
  },
  {
    "id": 1002,
    "type": "ACTIVITY_MAP_TYPE_PACMAN",
    "PEGEJINFPFC": 5911688996402516846,
    "EJJCPAEDEHE": [0.800000011920929, 1.2000000476837158],
    "EOLEOIJCCHD": [171.1999969482422, 210.10000610351562, 9.899999618530273],
    "NBMMEFBJOHD": 100.0,
    "GKDKLOIKNCH": 1024.0
  },
  {
    "id": 1003,
    "type": "ACTIVITY_MAP_TYPE_PACMAN",
    "PEGEJINFPFC": 13469436733628502521,
    "EJJCPAEDEHE": [0.800000011920929, 1.2000000476837158],
    "EOLEOIJCCHD": [-31.559999465942383, 200.0, -79.63999938964844],
    "NBMMEFBJOHD": 100.0,
    "GKDKLOIKNCH": 1024.0
  },
  {
    "id": 1004,
    "type": "ACTIVITY_MAP_TYPE_PACMAN",
    "PEGEJINFPFC": 332735671482562722,
    "EJJCPAEDEHE": [0.800000011920929, 1.2000000476837158],
    "EOLEOIJCCHD": [210.1999969482422, 137.22000122070312, 37.630001068115234],
    "NBMMEFBJOHD": 100.0,
    "GKDKLOIKNCH": 1024.0
  },
  {
    "id": 1005,
    "type": "ACTIVITY_MAP_TYPE_PACMAN",
    "PEGEJINFPFC": 9390436716545614597,
    "EJJCPAEDEHE": [0.800000011920929, 1.2000000476837158],
    "EOLEOIJCCHD": [-31.559999465942383, 200.0, -79.63999938964844],
    "NBMMEFBJOHD": 100.0,
    "GKDKLOIKNCH": 1024.0
  },
  {
    "id": 1006,
    "type": "ACTIVITY_MAP_TYPE_PACMAN",
    "PEGEJINFPFC": 5517249752103106646,
    "EJJCPAEDEHE": [0.800000011920929, 1.2000000476837158],
    "EOLEOIJCCHD": [-74.9000015258789, 200.0, -79.63999938964844],
    "NBMMEFBJOHD": 100.0,
    "GKDKLOIKNCH": 1024.0
  }
]
