[
  {
    "chapterId": 1,
    "OPKLMEPCBNF": 1,
    "NBPIBIEALME": 7051201,
    "GICBAIELKJJ": 7051207,
    "DAACDKKDCOD": 3297509817,
    "DJCDEBDNNAM": 4117115033
  },
  {
    "chapterId": 2,
    "OPKLMEPCBNF": 7,
    "NBPIBIEALME": 7051301,
    "GICBAIELKJJ": 7051305,
    "DAACDKKDCOD": 1572720481,
    "DJCDEBDNNAM": 3070763217
  }
]
