[
  {
    "ID": 1,
    "EHLMKABDNKB": 15,
    "FELFJIDADIM": "event_15min"
  },
  {
    "ID": 2,
    "EHLMKABDNKB": 30,
    "FELFJIDADIM": "event_30min"
  },
  {
    "ID": 3,
    "EHLMKABDNKB": 45,
    "FELFJIDADIM": "event_45min"
  },
  {
    "ID": 4,
    "EHLMKABDNKB": 60,
    "FELFJIDADIM": "event_1h"
  },
  {
    "ID": 5,
    "EHLMKABDNKB": 120,
    "FELFJIDADIM": "event_2h"
  }
]
