[
  {
    "id": 10001,
    "DCMNHKCAKHI": 1001,
    "GECEOKBNMNC": [0, 0],
    "iconName": "ART/UI/Atlas/NPCIcon/NPC_Male_Mengde_Barman_Boss",
    "descTextMapHash": 1588008724
  },
  {
    "id": 10101,
    "DCMNHKCAKHI": 1008,
    "GECEOKBNMNC": [0, 0],
    "DEFDPPPIIPP": "BARTENDER_CUP_MEDIUM",
    "iconName": "ART/UI/Atlas/ItemIcon/UI_AvatarIcon_Rosaria",
    "descTextMapHash": 3380219908
  },
  {
    "id": 10102,
    "DCMNHKCAKHI": 1009,
    "GECEOKBNMNC": [0, 0],
    "DEFDPPPIIPP": "BARTENDER_CUP_MEDIUM",
    "iconName": "ART/UI/Atlas/ItemIcon/UI_AvatarIcon_Rosaria",
    "descTextMapHash": 2444061236
  },
  {
    "id": 10103,
    "DCMNHKCAKHI": 1010,
    "GECEOKBNMNC": [0, 0],
    "DEFDPPPIIPP": "BARTENDER_CUP_MEDIUM",
    "iconName": "ART/UI/Atlas/ItemIcon/UI_AvatarIcon_Rosaria",
    "descTextMapHash": 2127566460
  },
  {
    "id": 10104,
    "DCMNHKCAKHI": 1011,
    "GECEOKBNMNC": [0, 0],
    "DEFDPPPIIPP": "BARTENDER_CUP_MEDIUM",
    "iconName": "ART/UI/Atlas/ItemIcon/UI_AvatarIcon_Rosaria",
    "descTextMapHash": 2378389476
  },
  {
    "id": 10105,
    "DCMNHKCAKHI": 1012,
    "GECEOKBNMNC": [0, 0],
    "DEFDPPPIIPP": "BARTENDER_CUP_MEDIUM",
    "iconName": "ART/UI/Atlas/ItemIcon/UI_AvatarIcon_Rosaria",
    "descTextMapHash": 2924614140
  },
  {
    "id": 10106,
    "DCMNHKCAKHI": 1013,
    "GECEOKBNMNC": [0, 0],
    "DEFDPPPIIPP": "BARTENDER_CUP_MEDIUM",
    "iconName": "ART/UI/Atlas/ItemIcon/UI_AvatarIcon_Rosaria",
    "descTextMapHash": 2632932356
  },
  {
    "id": 10107,
    "DCMNHKCAKHI": 1014,
    "GECEOKBNMNC": [0, 0],
    "DEFDPPPIIPP": "BARTENDER_CUP_MEDIUM",
    "iconName": "ART/UI/Atlas/ItemIcon/UI_AvatarIcon_Rosaria",
    "descTextMapHash": 3640206212
  },
  {
    "id": 10108,
    "DCMNHKCAKHI": 1007,
    "GECEOKBNMNC": [0, 0],
    "DEFDPPPIIPP": "BARTENDER_CUP_MEDIUM",
    "iconName": "ART/UI/Atlas/ItemIcon/UI_AvatarIcon_Rosaria",
    "descTextMapHash": 2354195692
  },
  {
    "id": 10109,
    "DCMNHKCAKHI": 1015,
    "GECEOKBNMNC": [0, 0],
    "DEFDPPPIIPP": "BARTENDER_CUP_MEDIUM",
    "iconName": "ART/UI/Atlas/ItemIcon/UI_AvatarIcon_Rosaria",
    "descTextMapHash": 3117109916
  },
  {
    "id": 10110,
    "DCMNHKCAKHI": 1008,
    "GECEOKBNMNC": [0, 0],
    "DEFDPPPIIPP": "BARTENDER_CUP_SMALL",
    "iconName": "ART/UI/Atlas/ItemIcon/UI_AvatarIcon_Rosaria",
    "descTextMapHash": 1839734764
  },
  {
    "id": 10111,
    "DCMNHKCAKHI": 1009,
    "GECEOKBNMNC": [0, 0],
    "DEFDPPPIIPP": "BARTENDER_CUP_SMALL",
    "iconName": "ART/UI/Atlas/ItemIcon/UI_AvatarIcon_Rosaria",
    "descTextMapHash": 3897793292
  },
  {
    "id": 10112,
    "DCMNHKCAKHI": 1010,
    "GECEOKBNMNC": [0, 0],
    "DEFDPPPIIPP": "BARTENDER_CUP_SMALL",
    "iconName": "ART/UI/Atlas/ItemIcon/UI_AvatarIcon_Rosaria",
    "descTextMapHash": 3770682628
  },
  {
    "id": 10113,
    "DCMNHKCAKHI": 1011,
    "GECEOKBNMNC": [0, 0],
    "DEFDPPPIIPP": "BARTENDER_CUP_SMALL",
    "iconName": "ART/UI/Atlas/ItemIcon/UI_AvatarIcon_Rosaria",
    "descTextMapHash": 3097536732
  },
  {
    "id": 10114,
    "DCMNHKCAKHI": 1012,
    "GECEOKBNMNC": [0, 0],
    "DEFDPPPIIPP": "BARTENDER_CUP_SMALL",
    "iconName": "ART/UI/Atlas/ItemIcon/UI_AvatarIcon_Rosaria",
    "descTextMapHash": 1796129812
  },
  {
    "id": 10115,
    "DCMNHKCAKHI": 1013,
    "GECEOKBNMNC": [0, 0],
    "DEFDPPPIIPP": "BARTENDER_CUP_SMALL",
    "iconName": "ART/UI/Atlas/ItemIcon/UI_AvatarIcon_Rosaria",
    "descTextMapHash": 3362008420
  },
  {
    "id": 10116,
    "DCMNHKCAKHI": 1014,
    "GECEOKBNMNC": [0, 0],
    "DEFDPPPIIPP": "BARTENDER_CUP_SMALL",
    "iconName": "ART/UI/Atlas/ItemIcon/UI_AvatarIcon_Rosaria",
    "descTextMapHash": 3593652364
  },
  {
    "id": 10117,
    "DCMNHKCAKHI": 1007,
    "GECEOKBNMNC": [0, 0],
    "DEFDPPPIIPP": "BARTENDER_CUP_SMALL",
    "iconName": "ART/UI/Atlas/ItemIcon/UI_AvatarIcon_Rosaria",
    "descTextMapHash": 3174549516
  },
  {
    "id": 10118,
    "DCMNHKCAKHI": 1015,
    "GECEOKBNMNC": [0, 0],
    "DEFDPPPIIPP": "BARTENDER_CUP_SMALL",
    "iconName": "ART/UI/Atlas/ItemIcon/UI_AvatarIcon_Rosaria",
    "descTextMapHash": 241131604
  },
  {
    "id": 10201,
    "DCMNHKCAKHI": 1005,
    "GECEOKBNMNC": [0, 0],
    "DEFDPPPIIPP": "BARTENDER_CUP_BIG",
    "iconName": "ART/UI/Atlas/ItemIcon/UI_AvatarIcon_Kaeya",
    "descTextMapHash": 3903002212
  },
  {
    "id": 10301,
    "DCMNHKCAKHI": 1016,
    "GECEOKBNMNC": [0, 0],
    "iconName": "ART/UI/Atlas/ItemIcon/UI_AvatarIcon_Diluc",
    "descTextMapHash": 1592492236
  },
  {
    "id": 10401,
    "DCMNHKCAKHI": 1012,
    "GECEOKBNMNC": [102, 0],
    "DEFDPPPIIPP": "BARTENDER_CUP_MEDIUM",
    "iconName": "ART/UI/Atlas/ItemIcon/UI_AvatarIcon_Lisa",
    "descTextMapHash": 1860523164
  },
  {
    "id": 10501,
    "DCMNHKCAKHI": 1001,
    "GECEOKBNMNC": [0, 0],
    "DEFDPPPIIPP": "BARTENDER_CUP_MEDIUM",
    "iconName": "ART/UI/Atlas/ItemIcon/UI_AvatarIcon_Qin",
    "descTextMapHash": 3668988164
  },
  {
    "id": 10502,
    "DCMNHKCAKHI": 1002,
    "GECEOKBNMNC": [0, 0],
    "DEFDPPPIIPP": "BARTENDER_CUP_MEDIUM",
    "iconName": "ART/UI/Atlas/ItemIcon/UI_AvatarIcon_Qin",
    "descTextMapHash": 1195596436
  },
  {
    "id": 10503,
    "DCMNHKCAKHI": 1003,
    "GECEOKBNMNC": [0, 0],
    "DEFDPPPIIPP": "BARTENDER_CUP_MEDIUM",
    "iconName": "ART/UI/Atlas/ItemIcon/UI_AvatarIcon_Qin",
    "descTextMapHash": 2040858428
  },
  {
    "id": 10504,
    "DCMNHKCAKHI": 1004,
    "GECEOKBNMNC": [0, 0],
    "DEFDPPPIIPP": "BARTENDER_CUP_MEDIUM",
    "iconName": "ART/UI/Atlas/ItemIcon/UI_AvatarIcon_Qin",
    "descTextMapHash": 3703111244
  },
  {
    "id": 10505,
    "DCMNHKCAKHI": 1005,
    "GECEOKBNMNC": [0, 0],
    "DEFDPPPIIPP": "BARTENDER_CUP_MEDIUM",
    "iconName": "ART/UI/Atlas/ItemIcon/UI_AvatarIcon_Qin",
    "descTextMapHash": 16186692
  },
  {
    "id": 10506,
    "DCMNHKCAKHI": 1006,
    "GECEOKBNMNC": [0, 0],
    "DEFDPPPIIPP": "BARTENDER_CUP_MEDIUM",
    "iconName": "ART/UI/Atlas/ItemIcon/UI_AvatarIcon_Qin",
    "descTextMapHash": 857958636
  },
  {
    "id": 10601,
    "DCMNHKCAKHI": 1008,
    "GECEOKBNMNC": [108, 0],
    "iconName": "ART/UI/Atlas/ItemIcon/UI_AvatarIcon_Zhongli",
    "descTextMapHash": 2809766420
  },
  {
    "id": 10701,
    "DCMNHKCAKHI": 1006,
    "GECEOKBNMNC": [0, 0],
    "DEFDPPPIIPP": "BARTENDER_CUP_SMALL",
    "iconName": "ART/UI/Atlas/ItemIcon/UI_AvatarIcon_Eula",
    "descTextMapHash": 4107972748
  },
  {
    "id": 10702,
    "DCMNHKCAKHI": 1006,
    "GECEOKBNMNC": [105, 0],
    "DEFDPPPIIPP": "BARTENDER_CUP_SMALL",
    "iconName": "ART/UI/Atlas/ItemIcon/UI_AvatarIcon_Eula",
    "descTextMapHash": 2850443972
  },
  {
    "id": 10801,
    "DCMNHKCAKHI": 1019,
    "GECEOKBNMNC": [103, 0],
    "DEFDPPPIIPP": "BARTENDER_CUP_SMALL",
    "iconName": "ART/UI/Atlas/ItemIcon/UI_AvatarIcon_Ningguang",
    "descTextMapHash": 2825173004
  },
  {
    "id": 10901,
    "DCMNHKCAKHI": 1015,
    "GECEOKBNMNC": [0, 0],
    "DEFDPPPIIPP": "BARTENDER_CUP_BIG",
    "iconName": "ART/UI/Atlas/ItemIcon/UI_AvatarIcon_Beidou",
    "descTextMapHash": 2511283004
  },
  {
    "id": 11001,
    "DCMNHKCAKHI": 1017,
    "GECEOKBNMNC": [0, 0],
    "iconName": "ART/UI/Atlas/ItemIcon/UI_AvatarIcon_Shenhe",
    "descTextMapHash": 27145564
  },
  {
    "id": 20101,
    "DCMNHKCAKHI": 1001,
    "GECEOKBNMNC": [107, 0],
    "DEFDPPPIIPP": "BARTENDER_CUP_SMALL",
    "time": 80,
    "score": 100,
    "iconName": "ART/UI/Atlas/NPCIcon/NPC_Mengde_Male01",
    "descTextMapHash": 3603787676
  },
  {
    "id": 20102,
    "DCMNHKCAKHI": 1001,
    "GECEOKBNMNC": [0, 0],
    "DEFDPPPIIPP": "BARTENDER_CUP_MEDIUM",
    "time": 80,
    "score": 100,
    "iconName": "ART/UI/Atlas/NPCIcon/NPC_Mengde_Male02",
    "descTextMapHash": 1309154740
  },
  {
    "id": 20103,
    "DCMNHKCAKHI": 1001,
    "GECEOKBNMNC": [107, 0],
    "DEFDPPPIIPP": "BARTENDER_CUP_BIG",
    "time": 80,
    "score": 100,
    "iconName": "ART/UI/Atlas/NPCIcon/NPC_Mengde_Male03",
    "descTextMapHash": 3188178692
  },
  {
    "id": 20104,
    "DCMNHKCAKHI": 1008,
    "GECEOKBNMNC": [0, 0],
    "DEFDPPPIIPP": "BARTENDER_CUP_SMALL",
    "time": 80,
    "score": 100,
    "iconName": "ART/UI/Atlas/NPCIcon/NPC_Mengde_Female01",
    "descTextMapHash": 2038153276
  },
  {
    "id": 20105,
    "DCMNHKCAKHI": 1008,
    "GECEOKBNMNC": [108, 0],
    "DEFDPPPIIPP": "BARTENDER_CUP_MEDIUM",
    "time": 80,
    "score": 100,
    "iconName": "ART/UI/Atlas/NPCIcon/NPC_Mengde_Female02",
    "descTextMapHash": 202789236
  },
  {
    "id": 20106,
    "DCMNHKCAKHI": 1008,
    "GECEOKBNMNC": [108, 0],
    "DEFDPPPIIPP": "BARTENDER_CUP_BIG",
    "time": 80,
    "score": 100,
    "iconName": "ART/UI/Atlas/NPCIcon/NPC_Mengde_Female03",
    "descTextMapHash": 1437001860
  },
  {
    "id": 20107,
    "DCMNHKCAKHI": 1016,
    "GECEOKBNMNC": [109, 0],
    "DEFDPPPIIPP": "BARTENDER_CUP_SMALL",
    "time": 80,
    "score": 100,
    "iconName": "ART/UI/Atlas/NPCIcon/NPC_Mengde_Male01",
    "descTextMapHash": 919463924
  },
  {
    "id": 20108,
    "DCMNHKCAKHI": 1016,
    "GECEOKBNMNC": [109, 0],
    "DEFDPPPIIPP": "BARTENDER_CUP_MEDIUM",
    "time": 80,
    "score": 100,
    "iconName": "ART/UI/Atlas/NPCIcon/NPC_Mengde_Male02",
    "descTextMapHash": 230909188
  },
  {
    "id": 20109,
    "DCMNHKCAKHI": 1016,
    "GECEOKBNMNC": [0, 0],
    "DEFDPPPIIPP": "BARTENDER_CUP_BIG",
    "time": 80,
    "score": 100,
    "iconName": "ART/UI/Atlas/NPCIcon/NPC_Mengde_Male03",
    "descTextMapHash": 2768021404
  },
  {
    "id": 20110,
    "DCMNHKCAKHI": 1015,
    "GECEOKBNMNC": [0, 0],
    "DEFDPPPIIPP": "BARTENDER_CUP_SMALL",
    "time": 80,
    "score": 100,
    "iconName": "ART/UI/Atlas/NPCIcon/NPC_Mengde_Female01",
    "descTextMapHash": 1316651932
  },
  {
    "id": 20111,
    "DCMNHKCAKHI": 1015,
    "GECEOKBNMNC": [0, 0],
    "DEFDPPPIIPP": "BARTENDER_CUP_MEDIUM",
    "time": 80,
    "score": 100,
    "iconName": "ART/UI/Atlas/NPCIcon/NPC_Mengde_Female02",
    "descTextMapHash": 2228326100
  },
  {
    "id": 20112,
    "DCMNHKCAKHI": 1015,
    "GECEOKBNMNC": [0, 0],
    "DEFDPPPIIPP": "BARTENDER_CUP_BIG",
    "time": 80,
    "score": 100,
    "iconName": "ART/UI/Atlas/NPCIcon/NPC_Mengde_Female03",
    "descTextMapHash": 2989557860
  },
  {
    "id": 20113,
    "DCMNHKCAKHI": 1006,
    "GECEOKBNMNC": [0, 0],
    "DEFDPPPIIPP": "BARTENDER_CUP_SMALL",
    "time": 80,
    "score": 100,
    "iconName": "ART/UI/Atlas/NPCIcon/NPC_Mengde_Male01",
    "descTextMapHash": 2997776956
  },
  {
    "id": 20114,
    "DCMNHKCAKHI": 1006,
    "GECEOKBNMNC": [0, 0],
    "DEFDPPPIIPP": "BARTENDER_CUP_MEDIUM",
    "time": 80,
    "score": 100,
    "iconName": "ART/UI/Atlas/NPCIcon/NPC_Mengde_Male02",
    "descTextMapHash": 1219135548
  },
  {
    "id": 20115,
    "DCMNHKCAKHI": 1006,
    "GECEOKBNMNC": [105, 0],
    "DEFDPPPIIPP": "BARTENDER_CUP_BIG",
    "time": 80,
    "score": 100,
    "iconName": "ART/UI/Atlas/NPCIcon/NPC_MuscleMan_Mengde_01",
    "descTextMapHash": 2831789348
  },
  {
    "id": 20116,
    "DCMNHKCAKHI": 1017,
    "GECEOKBNMNC": [101, 0],
    "DEFDPPPIIPP": "BARTENDER_CUP_SMALL",
    "time": 80,
    "score": 100,
    "iconName": "ART/UI/Atlas/NPCIcon/NPC_Mengde_Female03",
    "descTextMapHash": 2163419676
  },
  {
    "id": 20117,
    "DCMNHKCAKHI": 1017,
    "GECEOKBNMNC": [0, 0],
    "DEFDPPPIIPP": "BARTENDER_CUP_MEDIUM",
    "time": 80,
    "score": 100,
    "iconName": "ART/UI/Atlas/NPCIcon/NPC_Mengde_Male03",
    "descTextMapHash": 2596064388
  },
  {
    "id": 20118,
    "DCMNHKCAKHI": 1017,
    "GECEOKBNMNC": [101, 0],
    "DEFDPPPIIPP": "BARTENDER_CUP_BIG",
    "time": 80,
    "score": 100,
    "iconName": "ART/UI/Atlas/NPCIcon/NPC_MuscleMan_Mengde_01",
    "descTextMapHash": 2404855388
  },
  {
    "id": 20201,
    "DCMNHKCAKHI": 1019,
    "GECEOKBNMNC": [0, 0],
    "DEFDPPPIIPP": "BARTENDER_CUP_MEDIUM",
    "time": 80,
    "score": 100,
    "iconName": "ART/UI/Atlas/NPCIcon/NPC_Elder_Mengde_Man01",
    "descTextMapHash": 624371076
  },
  {
    "id": 20202,
    "DCMNHKCAKHI": 1019,
    "GECEOKBNMNC": [0, 0],
    "DEFDPPPIIPP": "BARTENDER_CUP_BIG",
    "time": 80,
    "score": 100,
    "iconName": "ART/UI/Atlas/NPCIcon/NPC_MuscleMan_Mengde_01",
    "descTextMapHash": 2712706492
  },
  {
    "id": 20203,
    "DCMNHKCAKHI": 1019,
    "GECEOKBNMNC": [103, 0],
    "DEFDPPPIIPP": "BARTENDER_CUP_MEDIUM",
    "time": 80,
    "score": 100,
    "iconName": "ART/UI/Atlas/NPCIcon/NPC_Mengde_Male01",
    "descTextMapHash": 567679500
  },
  {
    "id": 20204,
    "DCMNHKCAKHI": 1019,
    "GECEOKBNMNC": [103, 0],
    "DEFDPPPIIPP": "BARTENDER_CUP_BIG",
    "time": 80,
    "score": 100,
    "iconName": "ART/UI/Atlas/NPCIcon/NPC_Mengde_Male02",
    "descTextMapHash": 2692588652
  },
  {
    "id": 20205,
    "DCMNHKCAKHI": 1005,
    "GECEOKBNMNC": [0, 0],
    "DEFDPPPIIPP": "BARTENDER_CUP_SMALL",
    "time": 80,
    "score": 100,
    "iconName": "ART/UI/Atlas/NPCIcon/NPC_Mengde_Female03",
    "descTextMapHash": 3139757100
  },
  {
    "id": 20206,
    "DCMNHKCAKHI": 1005,
    "GECEOKBNMNC": [106, 0],
    "DEFDPPPIIPP": "BARTENDER_CUP_MEDIUM",
    "time": 80,
    "score": 100,
    "iconName": "ART/UI/Atlas/NPCIcon/NPC_Mengde_Female01",
    "descTextMapHash": 607965356
  },
  {
    "id": 20207,
    "DCMNHKCAKHI": 1005,
    "GECEOKBNMNC": [101, 0],
    "DEFDPPPIIPP": "BARTENDER_CUP_MEDIUM",
    "time": 80,
    "score": 100,
    "iconName": "ART/UI/Atlas/NPCIcon/NPC_Mengde_Female02",
    "descTextMapHash": 551560732
  },
  {
    "id": 20208,
    "DCMNHKCAKHI": 1005,
    "GECEOKBNMNC": [106, 101],
    "DEFDPPPIIPP": "BARTENDER_CUP_BIG",
    "time": 80,
    "score": 100,
    "iconName": "ART/UI/Atlas/NPCIcon/NPC_Mengde_Female01",
    "descTextMapHash": 3688496908
  },
  {
    "id": 20209,
    "DCMNHKCAKHI": 1012,
    "GECEOKBNMNC": [0, 0],
    "DEFDPPPIIPP": "BARTENDER_CUP_SMALL",
    "time": 80,
    "score": 100,
    "iconName": "ART/UI/Atlas/NPCIcon/NPC_Mengde_Female01",
    "descTextMapHash": 2931882788
  },
  {
    "id": 20210,
    "DCMNHKCAKHI": 1012,
    "GECEOKBNMNC": [102, 0],
    "DEFDPPPIIPP": "BARTENDER_CUP_MEDIUM",
    "time": 80,
    "score": 100,
    "iconName": "ART/UI/Atlas/NPCIcon/NPC_Mengde_Female02",
    "descTextMapHash": 1813719212
  },
  {
    "id": 20211,
    "DCMNHKCAKHI": 1012,
    "GECEOKBNMNC": [101, 0],
    "DEFDPPPIIPP": "BARTENDER_CUP_MEDIUM",
    "time": 80,
    "score": 100,
    "iconName": "ART/UI/Atlas/NPCIcon/NPC_Mengde_Female01",
    "descTextMapHash": 3052628372
  },
  {
    "id": 20212,
    "DCMNHKCAKHI": 1012,
    "GECEOKBNMNC": [102, 101],
    "DEFDPPPIIPP": "BARTENDER_CUP_BIG",
    "time": 80,
    "score": 100,
    "iconName": "ART/UI/Atlas/NPCIcon/NPC_Mengde_Female02",
    "descTextMapHash": 2231994852
  },
  {
    "id": 20213,
    "DCMNHKCAKHI": 1002,
    "GECEOKBNMNC": [0, 0],
    "DEFDPPPIIPP": "BARTENDER_CUP_SMALL",
    "time": 80,
    "score": 100,
    "iconName": "ART/UI/Atlas/NPCIcon/NPC_Mengde_Male01",
    "descTextMapHash": 1042919236
  },
  {
    "id": 20214,
    "DCMNHKCAKHI": 1002,
    "GECEOKBNMNC": [101, 0],
    "DEFDPPPIIPP": "BARTENDER_CUP_MEDIUM",
    "time": 80,
    "score": 100,
    "iconName": "ART/UI/Atlas/NPCIcon/NPC_Mengde_Male02",
    "descTextMapHash": 1715475716
  },
  {
    "id": 20215,
    "DCMNHKCAKHI": 1010,
    "GECEOKBNMNC": [0, 0],
    "DEFDPPPIIPP": "BARTENDER_CUP_MEDIUM",
    "time": 80,
    "score": 100,
    "iconName": "ART/UI/Atlas/NPCIcon/NPC_MuscleMan_Mengde_01",
    "descTextMapHash": 3265526716
  },
  {
    "id": 20216,
    "DCMNHKCAKHI": 1010,
    "GECEOKBNMNC": [101, 0],
    "DEFDPPPIIPP": "BARTENDER_CUP_BIG",
    "time": 80,
    "score": 100,
    "iconName": "ART/UI/Atlas/NPCIcon/NPC_Mengde_Male02",
    "descTextMapHash": 469293924
  },
  {
    "id": 20217,
    "DCMNHKCAKHI": 1020,
    "GECEOKBNMNC": [0, 0],
    "DEFDPPPIIPP": "BARTENDER_CUP_MEDIUM",
    "time": 80,
    "score": 100,
    "iconName": "ART/UI/Atlas/NPCIcon/NPC_Mengde_Female03",
    "descTextMapHash": 3312468316
  },
  {
    "id": 20218,
    "DCMNHKCAKHI": 1020,
    "GECEOKBNMNC": [105, 0],
    "DEFDPPPIIPP": "BARTENDER_CUP_BIG",
    "time": 80,
    "score": 100,
    "iconName": "ART/UI/Atlas/NPCIcon/NPC_Mengde_Male03",
    "descTextMapHash": 2960810556
  },
  {
    "id": 20219,
    "DCMNHKCAKHI": 1004,
    "GECEOKBNMNC": [101, 0],
    "DEFDPPPIIPP": "BARTENDER_CUP_SMALL",
    "time": 80,
    "score": 100,
    "iconName": "ART/UI/Atlas/NPCIcon/NPC_Mengde_Female01",
    "descTextMapHash": 1661828836
  },
  {
    "id": 20220,
    "DCMNHKCAKHI": 1004,
    "GECEOKBNMNC": [102, 0],
    "DEFDPPPIIPP": "BARTENDER_CUP_MEDIUM",
    "time": 80,
    "score": 100,
    "iconName": "ART/UI/Atlas/NPCIcon/NPC_Mengde_Female02",
    "descTextMapHash": 1055089356
  },
  {
    "id": 20221,
    "DCMNHKCAKHI": 1004,
    "GECEOKBNMNC": [101, 102],
    "DEFDPPPIIPP": "BARTENDER_CUP_BIG",
    "time": 80,
    "score": 100,
    "iconName": "ART/UI/Atlas/NPCIcon/NPC_Mengde_Female03",
    "descTextMapHash": 3780876924
  },
  {
    "id": 20301,
    "DCMNHKCAKHI": 1016,
    "GECEOKBNMNC": [0, 0],
    "DEFDPPPIIPP": "BARTENDER_CUP_SMALL",
    "time": 80,
    "score": 100,
    "iconName": "ART/UI/Atlas/NPCIcon/NPC_Mengde_Male01",
    "descTextMapHash": 2340836444
  },
  {
    "id": 20302,
    "DCMNHKCAKHI": 1016,
    "GECEOKBNMNC": [0, 0],
    "DEFDPPPIIPP": "BARTENDER_CUP_BIG",
    "time": 80,
    "score": 100,
    "iconName": "ART/UI/Atlas/NPCIcon/NPC_Mengde_Male02",
    "descTextMapHash": 1770901268
  },
  {
    "id": 20303,
    "DCMNHKCAKHI": 1016,
    "GECEOKBNMNC": [109, 0],
    "DEFDPPPIIPP": "BARTENDER_CUP_BIG",
    "time": 80,
    "score": 100,
    "iconName": "ART/UI/Atlas/NPCIcon/NPC_Mengde_Male03",
    "descTextMapHash": 1814671836
  },
  {
    "id": 20304,
    "DCMNHKCAKHI": 1006,
    "GECEOKBNMNC": [0, 0],
    "DEFDPPPIIPP": "BARTENDER_CUP_MEDIUM",
    "time": 80,
    "score": 100,
    "iconName": "ART/UI/Atlas/NPCIcon/NPC_MuscleMan_Mengde_01",
    "descTextMapHash": 3132263564
  },
  {
    "id": 20305,
    "DCMNHKCAKHI": 1006,
    "GECEOKBNMNC": [0, 0],
    "DEFDPPPIIPP": "BARTENDER_CUP_BIG",
    "time": 80,
    "score": 100,
    "iconName": "ART/UI/Atlas/NPCIcon/NPC_Elder_Mengde_Man01",
    "descTextMapHash": 435274604
  },
  {
    "id": 20306,
    "DCMNHKCAKHI": 1006,
    "GECEOKBNMNC": [105, 0],
    "DEFDPPPIIPP": "BARTENDER_CUP_BIG",
    "time": 80,
    "score": 100,
    "iconName": "ART/UI/Atlas/NPCIcon/NPC_Mengde_Male01",
    "descTextMapHash": 2980450812
  },
  {
    "id": 20307,
    "DCMNHKCAKHI": 1012,
    "GECEOKBNMNC": [0, 0],
    "DEFDPPPIIPP": "BARTENDER_CUP_SMALL",
    "time": 80,
    "score": 100,
    "iconName": "ART/UI/Atlas/NPCIcon/NPC_Mengde_Male02",
    "descTextMapHash": 3242633116
  },
  {
    "id": 20308,
    "DCMNHKCAKHI": 1012,
    "GECEOKBNMNC": [102, 0],
    "DEFDPPPIIPP": "BARTENDER_CUP_MEDIUM",
    "time": 80,
    "score": 100,
    "iconName": "ART/UI/Atlas/NPCIcon/NPC_Mengde_Male03",
    "descTextMapHash": 3546758372
  },
  {
    "id": 20309,
    "DCMNHKCAKHI": 1012,
    "GECEOKBNMNC": [101, 0],
    "DEFDPPPIIPP": "BARTENDER_CUP_SMALL",
    "time": 80,
    "score": 100,
    "iconName": "ART/UI/Atlas/NPCIcon/NPC_Mengde_Female01",
    "descTextMapHash": 1261284492
  },
  {
    "id": 20310,
    "DCMNHKCAKHI": 1012,
    "GECEOKBNMNC": [102, 101],
    "DEFDPPPIIPP": "BARTENDER_CUP_MEDIUM",
    "time": 80,
    "score": 100,
    "iconName": "ART/UI/Atlas/NPCIcon/NPC_Mengde_Female02",
    "descTextMapHash": 2763152196
  },
  {
    "id": 20311,
    "DCMNHKCAKHI": 1003,
    "GECEOKBNMNC": [0, 0],
    "DEFDPPPIIPP": "BARTENDER_CUP_SMALL",
    "time": 80,
    "score": 100,
    "iconName": "ART/UI/Atlas/NPCIcon/NPC_Mengde_Female03",
    "descTextMapHash": 411895948
  },
  {
    "id": 20312,
    "DCMNHKCAKHI": 1003,
    "GECEOKBNMNC": [101, 0],
    "DEFDPPPIIPP": "BARTENDER_CUP_MEDIUM",
    "time": 80,
    "score": 100,
    "iconName": "ART/UI/Atlas/NPCIcon/NPC_Mengde_Female01",
    "descTextMapHash": 4028249908
  },
  {
    "id": 20313,
    "DCMNHKCAKHI": 1003,
    "GECEOKBNMNC": [101, 0],
    "DEFDPPPIIPP": "BARTENDER_CUP_BIG",
    "time": 80,
    "score": 100,
    "iconName": "ART/UI/Atlas/NPCIcon/NPC_Mengde_Male01",
    "descTextMapHash": 2521155788
  },
  {
    "id": 20314,
    "DCMNHKCAKHI": 1018,
    "GECEOKBNMNC": [0, 0],
    "DEFDPPPIIPP": "BARTENDER_CUP_SMALL",
    "time": 80,
    "score": 100,
    "iconName": "ART/UI/Atlas/NPCIcon/NPC_Mengde_Male02",
    "descTextMapHash": 1239053868
  },
  {
    "id": 20315,
    "DCMNHKCAKHI": 1018,
    "GECEOKBNMNC": [101, 0],
    "DEFDPPPIIPP": "BARTENDER_CUP_MEDIUM",
    "time": 80,
    "score": 100,
    "iconName": "ART/UI/Atlas/NPCIcon/NPC_Mengde_Male03",
    "descTextMapHash": 1394585548
  },
  {
    "id": 20316,
    "DCMNHKCAKHI": 1018,
    "GECEOKBNMNC": [101, 0],
    "DEFDPPPIIPP": "BARTENDER_CUP_BIG",
    "time": 80,
    "score": 100,
    "iconName": "ART/UI/Atlas/NPCIcon/NPC_Mengde_Male01",
    "descTextMapHash": 557232028
  },
  {
    "id": 20317,
    "DCMNHKCAKHI": 1007,
    "GECEOKBNMNC": [0, 0],
    "DEFDPPPIIPP": "BARTENDER_CUP_BIG",
    "time": 80,
    "score": 100,
    "iconName": "ART/UI/Atlas/NPCIcon/NPC_Mengde_Male02",
    "descTextMapHash": 3056268644
  },
  {
    "id": 20318,
    "DCMNHKCAKHI": 1007,
    "GECEOKBNMNC": [0, 0],
    "DEFDPPPIIPP": "BARTENDER_CUP_MEDIUM",
    "time": 80,
    "score": 100,
    "iconName": "ART/UI/Atlas/NPCIcon/NPC_Mengde_Male03",
    "descTextMapHash": 2607251028
  },
  {
    "id": 20319,
    "DCMNHKCAKHI": 1007,
    "GECEOKBNMNC": [101, 0],
    "DEFDPPPIIPP": "BARTENDER_CUP_MEDIUM",
    "time": 80,
    "score": 100,
    "iconName": "ART/UI/Atlas/NPCIcon/NPC_Mengde_Female01",
    "descTextMapHash": 2463143172
  },
  {
    "id": 20320,
    "DCMNHKCAKHI": 1011,
    "GECEOKBNMNC": [101, 0],
    "DEFDPPPIIPP": "BARTENDER_CUP_SMALL",
    "time": 80,
    "score": 100,
    "iconName": "ART/UI/Atlas/NPCIcon/NPC_Mengde_Female02",
    "descTextMapHash": 354557028
  },
  {
    "id": 20321,
    "DCMNHKCAKHI": 1011,
    "GECEOKBNMNC": [104, 0],
    "DEFDPPPIIPP": "BARTENDER_CUP_MEDIUM",
    "time": 80,
    "score": 100,
    "iconName": "ART/UI/Atlas/NPCIcon/NPC_Mengde_Female03",
    "descTextMapHash": 2899166836
  },
  {
    "id": 20322,
    "DCMNHKCAKHI": 1011,
    "GECEOKBNMNC": [101, 104],
    "DEFDPPPIIPP": "BARTENDER_CUP_BIG",
    "time": 80,
    "score": 100,
    "iconName": "ART/UI/Atlas/NPCIcon/NPC_Mengde_Female03",
    "descTextMapHash": 2982991324
  },
  {
    "id": 20401,
    "DCMNHKCAKHI": 1001,
    "GECEOKBNMNC": [0, 0],
    "DEFDPPPIIPP": "BARTENDER_CUP_SMALL",
    "time": 80,
    "score": 100,
    "iconName": "ART/UI/Atlas/NPCIcon/NPC_Elder_Mengde_Man01",
    "descTextMapHash": 3432586972
  },
  {
    "id": 20402,
    "DCMNHKCAKHI": 1001,
    "GECEOKBNMNC": [107, 0],
    "DEFDPPPIIPP": "BARTENDER_CUP_SMALL",
    "time": 80,
    "score": 100,
    "iconName": "ART/UI/Atlas/NPCIcon/NPC_Mengde_Female01",
    "descTextMapHash": 943614108
  },
  {
    "id": 20403,
    "DCMNHKCAKHI": 1001,
    "GECEOKBNMNC": [107, 0],
    "DEFDPPPIIPP": "BARTENDER_CUP_MEDIUM",
    "time": 80,
    "score": 100,
    "iconName": "ART/UI/Atlas/NPCIcon/NPC_Mengde_Female02",
    "descTextMapHash": 3482104116
  },
  {
    "id": 20404,
    "DCMNHKCAKHI": 1019,
    "GECEOKBNMNC": [0, 0],
    "DEFDPPPIIPP": "BARTENDER_CUP_MEDIUM",
    "time": 80,
    "score": 100,
    "iconName": "ART/UI/Atlas/NPCIcon/NPC_Mengde_Female03",
    "descTextMapHash": 3378429940
  },
  {
    "id": 20405,
    "DCMNHKCAKHI": 1019,
    "GECEOKBNMNC": [103, 0],
    "DEFDPPPIIPP": "BARTENDER_CUP_MEDIUM",
    "time": 80,
    "score": 100,
    "iconName": "ART/UI/Atlas/NPCIcon/NPC_Mengde_Male01",
    "descTextMapHash": 2865148748
  },
  {
    "id": 20406,
    "DCMNHKCAKHI": 1019,
    "GECEOKBNMNC": [103, 0],
    "DEFDPPPIIPP": "BARTENDER_CUP_BIG",
    "time": 80,
    "score": 100,
    "iconName": "ART/UI/Atlas/NPCIcon/NPC_Mengde_Male02",
    "descTextMapHash": 1896883076
  },
  {
    "id": 20407,
    "DCMNHKCAKHI": 1017,
    "GECEOKBNMNC": [0, 0],
    "DEFDPPPIIPP": "BARTENDER_CUP_SMALL",
    "time": 80,
    "score": 100,
    "iconName": "ART/UI/Atlas/NPCIcon/NPC_Mengde_Male03",
    "descTextMapHash": 896699892
  },
  {
    "id": 20408,
    "DCMNHKCAKHI": 1017,
    "GECEOKBNMNC": [0, 0],
    "DEFDPPPIIPP": "BARTENDER_CUP_MEDIUM",
    "time": 80,
    "score": 100,
    "iconName": "ART/UI/Atlas/NPCIcon/NPC_MuscleMan_Mengde_01",
    "descTextMapHash": 4061899692
  },
  {
    "id": 20409,
    "DCMNHKCAKHI": 1017,
    "GECEOKBNMNC": [101, 0],
    "DEFDPPPIIPP": "BARTENDER_CUP_BIG",
    "time": 80,
    "score": 100,
    "iconName": "ART/UI/Atlas/NPCIcon/NPC_Mengde_Female01",
    "descTextMapHash": 4075911548
  },
  {
    "id": 20410,
    "DCMNHKCAKHI": 1009,
    "GECEOKBNMNC": [0, 0],
    "DEFDPPPIIPP": "BARTENDER_CUP_SMALL",
    "time": 80,
    "score": 100,
    "iconName": "ART/UI/Atlas/NPCIcon/NPC_Mengde_Female02",
    "descTextMapHash": 1164260476
  },
  {
    "id": 20411,
    "DCMNHKCAKHI": 1009,
    "GECEOKBNMNC": [101, 0],
    "DEFDPPPIIPP": "BARTENDER_CUP_MEDIUM",
    "time": 80,
    "score": 100,
    "iconName": "ART/UI/Atlas/NPCIcon/NPC_Mengde_Male02",
    "descTextMapHash": 2446504172
  },
  {
    "id": 20412,
    "DCMNHKCAKHI": 1009,
    "GECEOKBNMNC": [101, 0],
    "DEFDPPPIIPP": "BARTENDER_CUP_BIG",
    "time": 80,
    "score": 100,
    "iconName": "ART/UI/Atlas/NPCIcon/NPC_Mengde_Male03",
    "descTextMapHash": 2405863956
  },
  {
    "id": 20413,
    "DCMNHKCAKHI": 1014,
    "GECEOKBNMNC": [0, 0],
    "DEFDPPPIIPP": "BARTENDER_CUP_MEDIUM",
    "time": 80,
    "score": 100,
    "iconName": "ART/UI/Atlas/NPCIcon/NPC_Mengde_Female01",
    "descTextMapHash": 3147018740
  },
  {
    "id": 20414,
    "DCMNHKCAKHI": 1014,
    "GECEOKBNMNC": [103, 0],
    "DEFDPPPIIPP": "BARTENDER_CUP_MEDIUM",
    "time": 80,
    "score": 100,
    "iconName": "ART/UI/Atlas/NPCIcon/NPC_Mengde_Female02",
    "descTextMapHash": 2919221724
  },
  {
    "id": 20415,
    "DCMNHKCAKHI": 1014,
    "GECEOKBNMNC": [103, 0],
    "DEFDPPPIIPP": "BARTENDER_CUP_BIG",
    "time": 80,
    "score": 100,
    "iconName": "ART/UI/Atlas/NPCIcon/NPC_Mengde_Male01",
    "descTextMapHash": 3270072452
  },
  {
    "id": 20416,
    "DCMNHKCAKHI": 1021,
    "GECEOKBNMNC": [0, 0],
    "DEFDPPPIIPP": "BARTENDER_CUP_SMALL",
    "time": 80,
    "score": 100,
    "iconName": "ART/UI/Atlas/NPCIcon/NPC_Mengde_Male02",
    "descTextMapHash": 2497623860
  },
  {
    "id": 20417,
    "DCMNHKCAKHI": 1021,
    "GECEOKBNMNC": [105, 0],
    "DEFDPPPIIPP": "BARTENDER_CUP_MEDIUM",
    "time": 80,
    "score": 100,
    "iconName": "ART/UI/Atlas/NPCIcon/NPC_Mengde_Male03",
    "descTextMapHash": 2358689124
  },
  {
    "id": 20418,
    "DCMNHKCAKHI": 1021,
    "GECEOKBNMNC": [104, 0],
    "DEFDPPPIIPP": "BARTENDER_CUP_MEDIUM",
    "time": 80,
    "score": 100,
    "iconName": "ART/UI/Atlas/NPCIcon/NPC_MuscleMan_Mengde_01",
    "descTextMapHash": 3587938388
  },
  {
    "id": 20419,
    "DCMNHKCAKHI": 1021,
    "GECEOKBNMNC": [105, 104],
    "DEFDPPPIIPP": "BARTENDER_CUP_BIG",
    "time": 80,
    "score": 100,
    "iconName": "ART/UI/Atlas/NPCIcon/NPC_Mengde_Female03",
    "descTextMapHash": 657688284
  },
  {
    "id": 20420,
    "DCMNHKCAKHI": 1013,
    "GECEOKBNMNC": [101, 0],
    "DEFDPPPIIPP": "BARTENDER_CUP_SMALL",
    "time": 80,
    "score": 100,
    "iconName": "ART/UI/Atlas/NPCIcon/NPC_Mengde_Male01",
    "descTextMapHash": 3193451444
  },
  {
    "id": 20421,
    "DCMNHKCAKHI": 1013,
    "GECEOKBNMNC": [106, 0],
    "DEFDPPPIIPP": "BARTENDER_CUP_MEDIUM",
    "time": 80,
    "score": 100,
    "iconName": "ART/UI/Atlas/NPCIcon/NPC_Mengde_Male02",
    "descTextMapHash": 1620932284
  },
  {
    "id": 20422,
    "DCMNHKCAKHI": 1013,
    "GECEOKBNMNC": [101, 106],
    "DEFDPPPIIPP": "BARTENDER_CUP_BIG",
    "time": 80,
    "score": 100,
    "iconName": "ART/UI/Atlas/NPCIcon/NPC_Mengde_Male03",
    "descTextMapHash": 2363655188
  }
]
