[
  {
    "id": 1,
    "ICKOFGHIKEJ": 1,
    "parentQuestId": 70504,
    "EPLKJAPKAAG": 5062003,
    "CKFPHECOAFG": 10000015,
    "EFNOHNDEECP": 10000045,
    "rewardPreviewId": 33321,
    "nameTextMapHash": 449648160,
    "descTextMapHash": 3386534646
  },
  {
    "id": 2,
    "ICKOFGHIKEJ": 1,
    "parentQuestId": 70505,
    "EPLKJAPKAAG": 5062003,
    "CKFPHECOAFG": 10000016,
    "rewardPreviewId": 33322,
    "nameTextMapHash": 2361923024,
    "descTextMapHash": 511503166
  },
  {
    "id": 3,
    "ICKOFGHIKEJ": 2,
    "parentQuestId": 70506,
    "EPLKJAPKAAG": 5062004,
    "CKFPHECOAFG": 10000006,
    "EFNOHNDEECP": 10000003,
    "rewardPreviewId": 33323,
    "nameTextMapHash": 1942479232,
    "descTextMapHash": 625221302
  },
  {
    "id": 4,
    "ICKOFGHIKEJ": 2,
    "parentQuestId": 70507,
    "EPLKJAPKAAG": 5062004,
    "CKFPHECOAFG": 10000030,
    "rewardPreviewId": 33324,
    "nameTextMapHash": 553324320,
    "descTextMapHash": 690277702
  },
  {
    "id": 5,
    "ICKOFGHIKEJ": 3,
    "parentQuestId": 70503,
    "EPLKJAPKAAG": 5062005,
    "CKFPHECOAFG": 10000051,
    "rewardPreviewId": 33325,
    "nameTextMapHash": 3696428792,
    "descTextMapHash": 498959494
  },
  {
    "id": 6,
    "ICKOFGHIKEJ": 3,
    "parentQuestId": 70508,
    "EPLKJAPKAAG": 5062005,
    "CKFPHECOAFG": 10000024,
    "EFNOHNDEECP": 10000027,
    "rewardPreviewId": 33326,
    "nameTextMapHash": 3485460520,
    "descTextMapHash": 364377998
  },
  {
    "id": 7,
    "ICKOFGHIKEJ": 3,
    "parentQuestId": 70509,
    "EPLKJAPKAAG": 5062005,
    "CKFPHECOAFG": 10000063,
    "rewardPreviewId": 33327,
    "nameTextMapHash": 2642570720,
    "descTextMapHash": 1321866054
  }
]
