[
  {
    "id": 1,
    "activityId": 2006,
    "contentDuration": 19,
    "dungeonId": 7301,
    "LPOOEDICIKP": 334,
    "CFFALABFFEP": 3020401,
    "ILLPPIEFFEO": 200212,
    "OEALBGGJCLG": [201107, 201215, 201310],
    "rewardPreview": 31901
  }
]
