[
  {
    "id": 100301,
    "dungeonId": 3050,
    "EBOHHALGGBF": 100102,
    "limitTime": 600,
    "BCCKKPHPOLN": 10,
    "NKPBGADDGNK": 3,
    "galleryId": 30020,
    "groupId": 235870001,
    "levelTitleTextMapHash": 726960303,
    "levelDescTextMapHash": 3015372015,
    "AJJCNHJGPDN": 15913525257035013192,
    "AAGOLJLGLAM": 12126114470019505751,
    "IKMGCCIDFFA": [1, 4, 6],
    "MCHMNAHFDDF": ["None", "None", "None"],
    "PNJDGBBNNCK": [0, 20, 3600, 7, 50, 50]
  },
  {
    "id": 200301,
    "dungeonId": 3051,
    "EBOHHALGGBF": 200102,
    "limitTime": 600,
    "BCCKKPHPOLN": 10,
    "NKPBGADDGNK": 3,
    "galleryId": 30021,
    "groupId": 235871001,
    "levelTitleTextMapHash": 1451610279,
    "levelDescTextMapHash": 3172309743,
    "AJJCNHJGPDN": 9880884398082813374,
    "AAGOLJLGLAM": 12682025959465688809,
    "IKMGCCIDFFA": [1, 2, 3, 4, 5],
    "MCHMNAHFDDF": ["None", "None", "None"],
    "PNJDGBBNNCK": [0, 20, 3500, 7, 50, 50]
  },
  {
    "id": 300301,
    "dungeonId": 3052,
    "EBOHHALGGBF": 300102,
    "limitTime": 600,
    "BCCKKPHPOLN": 10,
    "NKPBGADDGNK": 3,
    "galleryId": 30022,
    "groupId": 235872001,
    "levelTitleTextMapHash": 2147594071,
    "levelDescTextMapHash": 148629903,
    "AJJCNHJGPDN": 13663315173880132747,
    "AAGOLJLGLAM": 18396662233936505899,
    "IKMGCCIDFFA": [1, 2, 3, 4, 5, 6],
    "MCHMNAHFDDF": ["None", "None", "None"],
    "PNJDGBBNNCK": [0, 20, 3100, 7, 50, 50]
  }
]
