[
  {
    "id": 1,
    "type": "CATALOG_TYPE_ARANARA",
    "CLFIGBHNLOI": [
      [105, 106, 107, 108, 109, 110],
      [101, 104, 105, 106, 107, 108, 112],
      [
        101, 102, 103, 104, 105, 106, 107, 108, 109, 110, 111, 112, 113, 114,
        115
      ]
    ],
    "KHHNBMENEDO": [{}, {}],
    "NEAHFHGMAGF": []
  },
  {
    "id": 2,
    "type": "CATALOG_TYPE_DESHRET_GUIDE",
    "CLFIGBHNLOI": [
      [109, 108, 107, 106, 105, 104, 103, 102, 101],
      [111, 112, 113, 114, 115, 116, 117],
      [101, 102, 103, 104, 105, 106, 108, 109, 111, 110, 107, 112]
    ],
    "KHHNBMENEDO": [
      {
        "OEIJKBFBOBN": 12041,
        "BOJFAEOENLF": 10046
      },
      {
        "OEIJKBFBOBN": 12039
      }
    ],
    "NEAHFHGMAGF": [
      9056, 9053, 9052, 9055, 9043, 9051, 9044, 9040, 9049, 9046, 9047, 9050,
      9039, 9042, 9045, 9041, 9048, 9054, 9016, 9017, 9020, 9013, 9019, 9014,
      9018, 9021, 9015, 9025, 9024, 9023, 9022, 9026, 9027, 9028, 9029, 9030,
      9031, 9032, 9033, 9034, 9035, 9036, 9037, 9038, 10046, 9057, 9058
    ]
  }
]
