[
  {
    "id": 1,
    "sceneTagName": "CWL_Trans_01"
  },
  {
    "id": 2,
    "sceneTagName": "XM_RobotC1"
  },
  {
    "id": 3,
    "sceneTagName": "XM_RobotB1"
  },
  {
    "id": 4,
    "sceneTagName": "XM_RobotA2"
  },
  {
    "id": 5,
    "sceneTagName": "Sprite_Before"
  },
  {
    "id": 6,
    "sceneTagName": "Sprite_After"
  },
  {
    "id": 7,
    "sceneTagName": "GLHH_01"
  },
  {
    "id": 8,
    "sceneTagName": "GLHH_02"
  },
  {
    "id": 9,
    "sceneTagName": "JJZZ_01"
  },
  {
    "id": 10,
    "sceneTagName": "JJZZ_02"
  },
  {
    "id": 11,
    "sceneTagName": "Onion_real_ex"
  },
  {
    "id": 12,
    "sceneTagName": "Onion_real_mx"
  },
  {
    "id": 13,
    "sceneTagName": "Onion_dream_ex"
  },
  {
    "id": 14,
    "sceneTagName": "Onion_dream_mx"
  }
]
