[
  {
    "NBNLPJMKNIB": 70290175,
    "KKJAFCBHBHE": "ACTIVITY_FLOWER",
    "OPMLKHDJJDD": "UI_HOMEWORLD_CUSTOM_BUTTON",
    "FJMBMLDDKAG": "",
    "CLFIGBHNLOI": [1001, 1002, 1003, 1004],
    "LNPDMFKJINA": []
  },
  {
    "NBNLPJMKNIB": 77215027,
    "KKJAFCBHBHE": "FURNITURE",
    "OPMLKHDJJDD": "UI_HOMEWORLD_CUSTOM_BUTTON",
    "FJMBMLDDKAG": "",
    "CLFIGBHNLOI": [1005, 1006, 1007],
    "LNPDMFKJINA": []
  },
  {
    "NBNLPJMKNIB": 77215028,
    "KKJAFCBHBHE": "FURNITURE",
    "OPMLKHDJJDD": "UI_HOMEWORLD_CUSTOM_BUTTON",
    "FJMBMLDDKAG": "",
    "CLFIGBHNLOI": [1005, 1006, 1007],
    "LNPDMFKJINA": []
  },
  {
    "NBNLPJMKNIB": 77215029,
    "KKJAFCBHBHE": "FURNITURE",
    "OPMLKHDJJDD": "UI_HOMEWORLD_CUSTOM_BUTTON",
    "FJMBMLDDKAG": "",
    "CLFIGBHNLOI": [1005, 1006, 1007],
    "LNPDMFKJINA": []
  },
  {
    "NBNLPJMKNIB": 70290197,
    "KKJAFCBHBHE": "ACTIVITY_SNOWMAN",
    "OPMLKHDJJDD": "UI_HOMEWORLD_CUSTOM_SNOWMANBUTTON",
    "FJMBMLDDKAG": "",
    "CLFIGBHNLOI": [2001, 2002, 2003, 2004, 2005, 2006],
    "LNPDMFKJINA": []
  },
  {
    "NBNLPJMKNIB": 70290201,
    "KKJAFCBHBHE": "ACTIVITY_SNOWMAN",
    "OPMLKHDJJDD": "UI_HOMEWORLD_CUSTOM_SNOWMANBUTTON",
    "FJMBMLDDKAG": "",
    "CLFIGBHNLOI": [2001, 2002, 2003, 2004, 2005, 2006],
    "LNPDMFKJINA": []
  },
  {
    "NBNLPJMKNIB": 70290202,
    "KKJAFCBHBHE": "ACTIVITY_SNOWMAN",
    "OPMLKHDJJDD": "UI_HOMEWORLD_CUSTOM_SNOWMANBUTTON",
    "FJMBMLDDKAG": "",
    "CLFIGBHNLOI": [2001, 2002, 2003, 2004, 2005, 2006],
    "LNPDMFKJINA": []
  },
  {
    "NBNLPJMKNIB": 70290203,
    "KKJAFCBHBHE": "ACTIVITY_SNOWMAN",
    "OPMLKHDJJDD": "UI_HOMEWORLD_CUSTOM_SNOWMANBUTTON",
    "FJMBMLDDKAG": "",
    "CLFIGBHNLOI": [2001, 2002, 2003, 2004, 2005, 2006],
    "LNPDMFKJINA": []
  },
  {
    "NBNLPJMKNIB": 77215044,
    "KKJAFCBHBHE": "FURNITURE",
    "OPMLKHDJJDD": "UI_HOMEWORLD_CUSTOM_SNOWMANBUTTON",
    "FJMBMLDDKAG": "",
    "CLFIGBHNLOI": [2001, 2002, 2003, 2004, 2005, 2006],
    "LNPDMFKJINA": []
  },
  {
    "NBNLPJMKNIB": 77215045,
    "KKJAFCBHBHE": "FURNITURE",
    "OPMLKHDJJDD": "UI_HOMEWORLD_CUSTOM_SNOWMANBUTTON",
    "FJMBMLDDKAG": "",
    "CLFIGBHNLOI": [2001, 2002, 2003, 2004, 2005, 2006],
    "LNPDMFKJINA": []
  },
  {
    "NBNLPJMKNIB": 77215046,
    "KKJAFCBHBHE": "FURNITURE",
    "OPMLKHDJJDD": "UI_HOMEWORLD_CUSTOM_SNOWMANBUTTON",
    "FJMBMLDDKAG": "",
    "CLFIGBHNLOI": [2001, 2002, 2003, 2004, 2005, 2006],
    "LNPDMFKJINA": []
  },
  {
    "NBNLPJMKNIB": 77215047,
    "KKJAFCBHBHE": "FURNITURE",
    "OPMLKHDJJDD": "UI_HOMEWORLD_CUSTOM_SNOWMANBUTTON",
    "FJMBMLDDKAG": "",
    "CLFIGBHNLOI": [2001, 2002, 2003, 2004, 2005, 2006],
    "LNPDMFKJINA": []
  },
  {
    "NBNLPJMKNIB": 77215050,
    "KKJAFCBHBHE": "FURNITURE",
    "OPMLKHDJJDD": "UI_HOMEWORLD_CUSTOM_MINIASCAPE",
    "FJMBMLDDKAG": "Recommend_Homeworld_General_Common_Thing_Prop_Irodori_Miniascape_01",
    "CLFIGBHNLOI": [3001, 3002, 3003, 3004, 3005, 3006, 3007, 3008],
    "LNPDMFKJINA": []
  },
  {
    "NBNLPJMKNIB": 77215051,
    "KKJAFCBHBHE": "FURNITURE",
    "OPMLKHDJJDD": "UI_HOMEWORLD_CUSTOM_MINIASCAPE",
    "FJMBMLDDKAG": "Recommend_Homeworld_General_Common_Thing_Prop_Irodori_Miniascape_02",
    "CLFIGBHNLOI": [3001, 3002, 3003, 3004, 3005, 3006, 3007, 3008],
    "LNPDMFKJINA": []
  },
  {
    "NBNLPJMKNIB": 77215052,
    "KKJAFCBHBHE": "FURNITURE",
    "OPMLKHDJJDD": "UI_HOMEWORLD_CUSTOM_MINIASCAPE",
    "FJMBMLDDKAG": "Recommend_Homeworld_General_Common_Thing_Prop_Irodori_Miniascape_03",
    "CLFIGBHNLOI": [3001, 3002, 3003, 3004, 3005, 3006, 3007, 3008],
    "LNPDMFKJINA": []
  },
  {
    "NBNLPJMKNIB": 77215053,
    "KKJAFCBHBHE": "FURNITURE",
    "OPMLKHDJJDD": "UI_HOMEWORLD_CUSTOM_MINIASCAPE",
    "FJMBMLDDKAG": "Recommend_Homeworld_General_Common_Thing_Prop_Irodori_Miniascape_04",
    "CLFIGBHNLOI": [3001, 3002, 3003, 3004, 3005, 3006, 3007, 3008],
    "LNPDMFKJINA": []
  },
  {
    "NBNLPJMKNIB": 70290313,
    "KKJAFCBHBHE": "ACTIVITY_IRODORI_FLOWER",
    "OPMLKHDJJDD": "UI_HOMEWORLD_CUSTOM_MINIASCAPE",
    "FJMBMLDDKAG": "",
    "CLFIGBHNLOI": [3001, 3002, 3003, 3004, 3005, 3006, 3007, 3008],
    "LNPDMFKJINA": []
  },
  {
    "NBNLPJMKNIB": 70290314,
    "KKJAFCBHBHE": "ACTIVITY_IRODORI_FLOWER",
    "OPMLKHDJJDD": "UI_HOMEWORLD_CUSTOM_MINIASCAPE",
    "FJMBMLDDKAG": "",
    "CLFIGBHNLOI": [3001, 3002, 3003, 3004, 3005, 3006, 3007, 3008],
    "LNPDMFKJINA": []
  },
  {
    "NBNLPJMKNIB": 70290315,
    "KKJAFCBHBHE": "ACTIVITY_IRODORI_FLOWER",
    "OPMLKHDJJDD": "UI_HOMEWORLD_CUSTOM_MINIASCAPE",
    "FJMBMLDDKAG": "",
    "CLFIGBHNLOI": [3001, 3002, 3003, 3004, 3005, 3006, 3007, 3008],
    "LNPDMFKJINA": []
  },
  {
    "NBNLPJMKNIB": 70290316,
    "KKJAFCBHBHE": "ACTIVITY_IRODORI_FLOWER",
    "OPMLKHDJJDD": "UI_HOMEWORLD_CUSTOM_MINIASCAPE",
    "FJMBMLDDKAG": "",
    "CLFIGBHNLOI": [3001, 3002, 3003, 3004, 3005, 3006, 3007, 3008],
    "LNPDMFKJINA": []
  },
  {
    "NBNLPJMKNIB": 70290429,
    "KKJAFCBHBHE": "ACTIVITY_GRAVEN_INNOCENCE_CARVE",
    "OPMLKHDJJDD": "UI_HOMEWORLD_CUSTOM_LNLWOODCUT",
    "FJMBMLDDKAG": "",
    "CLFIGBHNLOI": [4001, 4002, 4003, 4004, 4005],
    "LNPDMFKJINA": [
      70290441, 70290442, 70290443, 70290444, 70290445, 70290446, 70290447,
      70290448, 77215060, 77215061, 77215062, 77215063, 77215064, 77215065,
      77215066, 77215067, 77215068, 77215069, 77215070, 77215071, 77306090,
      77306091, 77306092, 77306093, 77306094, 77306095, 77306096, 77306097,
      77306098, 77306099, 77306100, 77306101, 77306102, 77306103, 77306104,
      77306105, 77306106, 77306107, 77306108, 77306109, 77306110, 77306111,
      77306112, 77306113
    ]
  },
  {
    "NBNLPJMKNIB": 70290430,
    "KKJAFCBHBHE": "ACTIVITY_GRAVEN_INNOCENCE_CARVE",
    "OPMLKHDJJDD": "UI_HOMEWORLD_CUSTOM_LNLWOODCUT",
    "FJMBMLDDKAG": "",
    "CLFIGBHNLOI": [4001, 4002, 4003, 4004, 4005],
    "LNPDMFKJINA": [
      70290441, 70290442, 70290443, 70290444, 70290445, 70290446, 70290447,
      70290448, 77215060, 77215061, 77215062, 77215063, 77215064, 77215065,
      77215066, 77215067, 77215068, 77215069, 77215070, 77215071, 77306090,
      77306091, 77306092, 77306093, 77306094, 77306095, 77306096, 77306097,
      77306098, 77306099, 77306100, 77306101, 77306102, 77306103, 77306104,
      77306105, 77306106, 77306107, 77306108, 77306109, 77306110, 77306111,
      77306112, 77306113
    ]
  },
  {
    "NBNLPJMKNIB": 70290431,
    "KKJAFCBHBHE": "ACTIVITY_GRAVEN_INNOCENCE_CARVE",
    "OPMLKHDJJDD": "UI_HOMEWORLD_CUSTOM_LNLWOODCUT",
    "FJMBMLDDKAG": "",
    "CLFIGBHNLOI": [4001, 4002, 4003, 4004, 4005],
    "LNPDMFKJINA": [
      70290441, 70290442, 70290443, 70290444, 70290445, 70290446, 70290447,
      70290448, 77215060, 77215061, 77215062, 77215063, 77215064, 77215065,
      77215066, 77215067, 77215068, 77215069, 77215070, 77215071, 77306090,
      77306091, 77306092, 77306093, 77306094, 77306095, 77306096, 77306097,
      77306098, 77306099, 77306100, 77306101, 77306102, 77306103, 77306104,
      77306105, 77306106, 77306107, 77306108, 77306109, 77306110, 77306111,
      77306112, 77306113
    ]
  },
  {
    "NBNLPJMKNIB": 70290432,
    "KKJAFCBHBHE": "ACTIVITY_GRAVEN_INNOCENCE_CARVE",
    "OPMLKHDJJDD": "UI_HOMEWORLD_CUSTOM_LNLWOODCUT",
    "FJMBMLDDKAG": "",
    "CLFIGBHNLOI": [4001, 4002, 4003, 4004, 4005],
    "LNPDMFKJINA": [
      70290441, 70290442, 70290443, 70290444, 70290445, 70290446, 70290447,
      70290448, 77215060, 77215061, 77215062, 77215063, 77215064, 77215065,
      77215066, 77215067, 77215068, 77215069, 77215070, 77215071, 77306090,
      77306091, 77306092, 77306093, 77306094, 77306095, 77306096, 77306097,
      77306098, 77306099, 77306100, 77306101, 77306102, 77306103, 77306104,
      77306105, 77306106, 77306107, 77306108, 77306109, 77306110, 77306111,
      77306112, 77306113
    ]
  },
  {
    "NBNLPJMKNIB": 70290433,
    "KKJAFCBHBHE": "ACTIVITY_GRAVEN_INNOCENCE_CARVE",
    "OPMLKHDJJDD": "UI_HOMEWORLD_CUSTOM_LNLWOODCUT",
    "FJMBMLDDKAG": "",
    "CLFIGBHNLOI": [4001, 4002, 4003, 4004, 4005],
    "LNPDMFKJINA": [
      70290441, 70290442, 70290443, 70290444, 70290445, 70290446, 70290447,
      70290448, 77215060, 77215061, 77215062, 77215063, 77215064, 77215065,
      77215066, 77215067, 77215068, 77215069, 77215070, 77215071, 77306090,
      77306091, 77306092, 77306093, 77306094, 77306095, 77306096, 77306097,
      77306098, 77306099, 77306100, 77306101, 77306102, 77306103, 77306104,
      77306105, 77306106, 77306107, 77306108, 77306109, 77306110, 77306111,
      77306112, 77306113
    ]
  },
  {
    "NBNLPJMKNIB": 70290434,
    "KKJAFCBHBHE": "ACTIVITY_GRAVEN_INNOCENCE_CARVE",
    "OPMLKHDJJDD": "UI_HOMEWORLD_CUSTOM_LNLWOODCUT",
    "FJMBMLDDKAG": "",
    "CLFIGBHNLOI": [4001, 4002, 4003, 4004, 4005],
    "LNPDMFKJINA": [
      70290441, 70290442, 70290443, 70290444, 70290445, 70290446, 70290447,
      70290448, 77215060, 77215061, 77215062, 77215063, 77215064, 77215065,
      77215066, 77215067, 77215068, 77215069, 77215070, 77215071, 77306090,
      77306091, 77306092, 77306093, 77306094, 77306095, 77306096, 77306097,
      77306098, 77306099, 77306100, 77306101, 77306102, 77306103, 77306104,
      77306105, 77306106, 77306107, 77306108, 77306109, 77306110, 77306111,
      77306112, 77306113
    ]
  },
  {
    "NBNLPJMKNIB": 77215060,
    "KKJAFCBHBHE": "FURNITURE",
    "OPMLKHDJJDD": "UI_HOMEWORLD_CUSTOM_LNLWOODCUT",
    "FJMBMLDDKAG": "",
    "CLFIGBHNLOI": [4006, 4007, 4008, 4009],
    "LNPDMFKJINA": []
  },
  {
    "NBNLPJMKNIB": 77215061,
    "KKJAFCBHBHE": "FURNITURE",
    "OPMLKHDJJDD": "UI_HOMEWORLD_CUSTOM_LNLWOODCUT",
    "FJMBMLDDKAG": "",
    "CLFIGBHNLOI": [4006, 4007, 4008, 4009],
    "LNPDMFKJINA": []
  },
  {
    "NBNLPJMKNIB": 77215062,
    "KKJAFCBHBHE": "FURNITURE",
    "OPMLKHDJJDD": "UI_HOMEWORLD_CUSTOM_LNLWOODCUT",
    "FJMBMLDDKAG": "",
    "CLFIGBHNLOI": [4006, 4007, 4008, 4009],
    "LNPDMFKJINA": []
  },
  {
    "NBNLPJMKNIB": 77215063,
    "KKJAFCBHBHE": "FURNITURE",
    "OPMLKHDJJDD": "UI_HOMEWORLD_CUSTOM_LNLWOODCUT",
    "FJMBMLDDKAG": "",
    "CLFIGBHNLOI": [4006, 4007, 4008, 4009],
    "LNPDMFKJINA": []
  },
  {
    "NBNLPJMKNIB": 77215064,
    "KKJAFCBHBHE": "FURNITURE",
    "OPMLKHDJJDD": "UI_HOMEWORLD_CUSTOM_LNLWOODCUT",
    "FJMBMLDDKAG": "",
    "CLFIGBHNLOI": [4006, 4007, 4008, 4009],
    "LNPDMFKJINA": []
  },
  {
    "NBNLPJMKNIB": 77215065,
    "KKJAFCBHBHE": "FURNITURE",
    "OPMLKHDJJDD": "UI_HOMEWORLD_CUSTOM_LNLWOODCUT",
    "FJMBMLDDKAG": "",
    "CLFIGBHNLOI": [4006, 4007, 4008, 4009],
    "LNPDMFKJINA": []
  },
  {
    "NBNLPJMKNIB": 77215066,
    "KKJAFCBHBHE": "FURNITURE",
    "OPMLKHDJJDD": "UI_HOMEWORLD_CUSTOM_LNLWOODCUT",
    "FJMBMLDDKAG": "",
    "CLFIGBHNLOI": [4006, 4007, 4008, 4009],
    "LNPDMFKJINA": []
  },
  {
    "NBNLPJMKNIB": 77215067,
    "KKJAFCBHBHE": "FURNITURE",
    "OPMLKHDJJDD": "UI_HOMEWORLD_CUSTOM_LNLWOODCUT",
    "FJMBMLDDKAG": "",
    "CLFIGBHNLOI": [4006, 4007, 4008, 4009],
    "LNPDMFKJINA": []
  },
  {
    "NBNLPJMKNIB": 77215068,
    "KKJAFCBHBHE": "FURNITURE",
    "OPMLKHDJJDD": "UI_HOMEWORLD_CUSTOM_LNLWOODCUT",
    "FJMBMLDDKAG": "",
    "CLFIGBHNLOI": [4006, 4007, 4008, 4009],
    "LNPDMFKJINA": []
  },
  {
    "NBNLPJMKNIB": 77215069,
    "KKJAFCBHBHE": "FURNITURE",
    "OPMLKHDJJDD": "UI_HOMEWORLD_CUSTOM_LNLWOODCUT",
    "FJMBMLDDKAG": "",
    "CLFIGBHNLOI": [4006, 4007, 4008, 4009],
    "LNPDMFKJINA": []
  },
  {
    "NBNLPJMKNIB": 77215070,
    "KKJAFCBHBHE": "FURNITURE",
    "OPMLKHDJJDD": "UI_HOMEWORLD_CUSTOM_LNLWOODCUT",
    "FJMBMLDDKAG": "",
    "CLFIGBHNLOI": [4006, 4007, 4008, 4009],
    "LNPDMFKJINA": []
  },
  {
    "NBNLPJMKNIB": 77215071,
    "KKJAFCBHBHE": "FURNITURE",
    "OPMLKHDJJDD": "UI_HOMEWORLD_CUSTOM_LNLWOODCUT",
    "FJMBMLDDKAG": "",
    "CLFIGBHNLOI": [4006, 4007, 4008, 4009],
    "LNPDMFKJINA": []
  },
  {
    "NBNLPJMKNIB": 70800253,
    "KKJAFCBHBHE": "ACTIVITY_VINTAGE_BOOTH",
    "OPMLKHDJJDD": "UI_HOMEWORLD_CUSTOM_VINTAGESTALL",
    "FJMBMLDDKAG": "",
    "CLFIGBHNLOI": [5001, 5002, 5003, 5004, 5005],
    "LNPDMFKJINA": []
  },
  {
    "NBNLPJMKNIB": 77320021,
    "KKJAFCBHBHE": "FURNITURE",
    "OPMLKHDJJDD": "UI_HOMEWORLD_CUSTOM_VINTAGESTALL",
    "FJMBMLDDKAG": "",
    "CLFIGBHNLOI": [5001, 5002, 5003, 5004, 5005],
    "LNPDMFKJINA": []
  },
  {
    "NBNLPJMKNIB": 70290379,
    "KKJAFCBHBHE": "ACTICITY_ISLAND_MOUNTAIN",
    "OPMLKHDJJDD": "UI_HOMEWORLD_CHANGE_MOUNTAIN_BUTTON",
    "FJMBMLDDKAG": "",
    "CLFIGBHNLOI": [100101, 100102],
    "LNPDMFKJINA": []
  }
]
