[
  {
    "configId": 1,
    "GLGBCCCENJN": "408964C0",
    "ECBOIMNJLCF": "408964"
  },
  {
    "configId": 2,
    "GLGBCCCENJN": "AF4758C0",
    "ECBOIMNJLCF": "AF4758"
  },
  {
    "configId": 3,
    "GLGBCCCENJN": "487BC1C0",
    "ECBOIMNJLCF": "487BC1"
  }
]
