[
  {
    "id": 101,
    "DAIDMDNHLNH": 9027,
    "titleTextMapHash": 3505245605,
    "icon": "UI_DeshretGuideManual_POI_Pic_1",
    "descTextMapHash": 4034899584,
    "ADCGNIBCLLG": 1133,
    "CKGCJKAEFPG": 3165370335,
    "HMLLBAOHJIG": 1892619798
  },
  {
    "id": 102,
    "DAIDMDNHLNH": 9028,
    "titleTextMapHash": 2381377941,
    "icon": "UI_DeshretGuideManual_POI_Pic_2",
    "descTextMapHash": 382032960,
    "ADCGNIBCLLG": 1128,
    "CKGCJKAEFPG": 408020655,
    "HMLLBAOHJIG": 1323511590
  },
  {
    "id": 103,
    "DAIDMDNHLNH": 9029,
    "titleTextMapHash": 2496254445,
    "icon": "UI_DeshretGuideManual_POI_Pic_3",
    "descTextMapHash": 4224213888,
    "ADCGNIBCLLG": 1127,
    "CKGCJKAEFPG": 1537892415,
    "HMLLBAOHJIG": 3831388102
  },
  {
    "id": 104,
    "DAIDMDNHLNH": 9030,
    "titleTextMapHash": 1741664277,
    "icon": "UI_DeshretGuideManual_POI_Pic_4",
    "descTextMapHash": 983149608,
    "ADCGNIBCLLG": 1072,
    "CKGCJKAEFPG": 1730895271,
    "HMLLBAOHJIG": 3047798254
  },
  {
    "id": 105,
    "DAIDMDNHLNH": 9031,
    "titleTextMapHash": 1631853413,
    "icon": "UI_DeshretGuideManual_POI_Pic_5",
    "descTextMapHash": 1500591336,
    "ADCGNIBCLLG": 1137,
    "CKGCJKAEFPG": 2895247591,
    "HMLLBAOHJIG": 806931734
  },
  {
    "id": 106,
    "DAIDMDNHLNH": 9032,
    "titleTextMapHash": 395961837,
    "icon": "UI_DeshretGuideManual_POI_Pic_6",
    "descTextMapHash": 2145759992,
    "ADCGNIBCLLG": 1002,
    "CKGCJKAEFPG": 1034379839,
    "HMLLBAOHJIG": 640728566
  },
  {
    "id": 107,
    "DAIDMDNHLNH": 9033,
    "titleTextMapHash": 2348041453,
    "icon": "UI_DeshretGuideManual_POI_Pic_7",
    "descTextMapHash": 2631087200,
    "ADCGNIBCLLG": 1001,
    "CKGCJKAEFPG": 3071592647,
    "HMLLBAOHJIG": 906778310
  },
  {
    "id": 108,
    "DAIDMDNHLNH": 9034,
    "titleTextMapHash": 758712525,
    "icon": "UI_DeshretGuideManual_POI_Pic_8",
    "descTextMapHash": 880902608,
    "ADCGNIBCLLG": 1098,
    "CKGCJKAEFPG": 936932719,
    "HMLLBAOHJIG": 3687113686
  },
  {
    "id": 109,
    "DAIDMDNHLNH": 9035,
    "titleTextMapHash": 1740208805,
    "icon": "UI_DeshretGuideManual_POI_Pic_9",
    "descTextMapHash": 3326206888,
    "ADCGNIBCLLG": 1028,
    "CKGCJKAEFPG": 840185863,
    "HMLLBAOHJIG": 3930482822
  },
  {
    "id": 110,
    "DAIDMDNHLNH": 9036,
    "titleTextMapHash": 153146277,
    "icon": "UI_DeshretGuideManual_POI_Pic_10",
    "descTextMapHash": 1820255392,
    "ADCGNIBCLLG": 1052,
    "CKGCJKAEFPG": 2765049807,
    "HMLLBAOHJIG": 2592295774
  },
  {
    "id": 111,
    "DAIDMDNHLNH": 9037,
    "titleTextMapHash": 2734837597,
    "icon": "UI_DeshretGuideManual_POI_Pic_11",
    "descTextMapHash": 2129303416,
    "ADCGNIBCLLG": 1101,
    "CKGCJKAEFPG": 2591215495,
    "HMLLBAOHJIG": 2240620678
  },
  {
    "id": 112,
    "DAIDMDNHLNH": 9038,
    "titleTextMapHash": 1363441989,
    "icon": "UI_DeshretGuideManual_POI_Pic_12",
    "descTextMapHash": 965490992,
    "ADCGNIBCLLG": 1140,
    "CKGCJKAEFPG": 2208747935,
    "HMLLBAOHJIG": 4039019278
  }
]
