[
  {
    "id": 1001,
    "MaxTakeNum": 1,
    "takeCost": 60
  },
  {
    "id": 1002,
    "MaxTakeNum": 5
  },
  {
    "id": 1003,
    "MaxTakeNum": 1,
    "takeCost": 60
  },
  {
    "id": 1004,
    "MaxTakeNum": 1,
    "takeCost": 60
  },
  {
    "id": 1005,
    "MaxTakeNum": 1,
    "takeCost": 60
  },
  {
    "id": 1006,
    "MaxTakeNum": 1,
    "takeCost": 60
  },
  {
    "id": 1007,
    "MaxTakeNum": 1,
    "takeCost": 60
  },
  {
    "id": 1008,
    "MaxTakeNum": 1,
    "takeCost": 60
  }
]
