[
  {
    "id": 1,
    "dayIndex": 1,
    "EGHEHMBLFLO": 4052,
    "POPANMLHCDD": [29015, 29016, 29017, 29018],
    "NABKDLOPEDB": [11, 12, 10, 9],
    "GAFPMAKEAHH": [1510701, 1510702, 1510703, 1510704],
    "EGGOHMEGPKH": "26120201,26120301|22010201,21020401|24030201|20040502",
    "PKIHNJLGFBF": "26120201,26120301,20010901,20010801|22010201,21020401,21020601|24030201,24020301|20040502",
    "NDEOHOCOOLC": 4048,
    "FLGOEDADFCI": [29031],
    "IICBKACECNJ": [11, 12, 10, 9],
    "DOMGDBFBINL": [1510705, 1510706, 1510707],
    "levelTitleTextMapHash": 57873440,
    "levelDescTextMapHash": 267079503,
    "OLBPKEKNMID": 6368292855029470351,
    "OMKJIDGACPF": 13150586376453235759
  },
  {
    "id": 2,
    "dayIndex": 3,
    "EGHEHMBLFLO": 4053,
    "POPANMLHCDD": [29019, 29020, 29021, 29022],
    "NABKDLOPEDB": [8, 5, 6, 7],
    "GAFPMAKEAHH": [1510708, 1510709, 1510710, 1510711],
    "EGGOHMEGPKH": "26040102|25100201,25310101|22030202|20040602",
    "PKIHNJLGFBF": "26040102,20011301|25100201,25310101,25010601|22030202|20040602",
    "NDEOHOCOOLC": 4049,
    "FLGOEDADFCI": [29032],
    "IICBKACECNJ": [8, 5, 6, 7],
    "DOMGDBFBINL": [1510712, 1510713, 1510714],
    "levelTitleTextMapHash": 3610550328,
    "levelDescTextMapHash": 2256299823,
    "OLBPKEKNMID": 10953928581956602395,
    "OMKJIDGACPF": 18101798560153583950
  },
  {
    "id": 3,
    "dayIndex": 5,
    "EGHEHMBLFLO": 4054,
    "POPANMLHCDD": [29023, 29024, 29025, 29026],
    "NABKDLOPEDB": [3, 2, 1, 4],
    "GAFPMAKEAHH": [1510715, 1510716, 1510717, 1510718],
    "EGGOHMEGPKH": "20050201,20050603,20050403,20050302|22020102|25310201,23010301|20040402",
    "PKIHNJLGFBF": "20050201,20050603,20050403,20050302,20050703|22020102|25310201,23010301,25010401|20040402",
    "NDEOHOCOOLC": 4050,
    "FLGOEDADFCI": [29033],
    "IICBKACECNJ": [3, 2, 1, 4],
    "DOMGDBFBINL": [1510719, 1510720, 1510721],
    "levelTitleTextMapHash": 774731352,
    "levelDescTextMapHash": 212546559,
    "OLBPKEKNMID": 12637282325679099478,
    "OMKJIDGACPF": 18284846529949670422
  },
  {
    "id": 4,
    "dayIndex": 7,
    "EGHEHMBLFLO": 4055,
    "POPANMLHCDD": [29027, 29028, 29029, 29030],
    "NABKDLOPEDB": [14, 5, 3, 13],
    "GAFPMAKEAHH": [1510722, 1510723, 1510724, 1510725],
    "EGGOHMEGPKH": "26050601|24030101,24030201|25410101,24040101,24040201,24040301|20040702",
    "PKIHNJLGFBF": "26050601|24030101,24030201|25410101,24040101,24040201,24040301|20040702",
    "NDEOHOCOOLC": 4051,
    "FLGOEDADFCI": [29034],
    "IICBKACECNJ": [14, 5, 3, 13],
    "DOMGDBFBINL": [1510726, 1510727, 1510728],
    "levelTitleTextMapHash": 1007670784,
    "levelDescTextMapHash": 1858968567,
    "OLBPKEKNMID": 9896192329610882800,
    "OMKJIDGACPF": 15953302969112656128
  }
]
