[
  {
    "id": 1,
    "FHEBOPIEBKL": 2273608165,
    "AJLKGNKCOKI": [
      [40.0],
      [70.0],
      [90.0],
      [95.0],
      [40.0],
      [70.0],
      [90.0],
      [95.0],
      [40.0],
      [70.0],
      [90.0],
      [95.0],
      [40.0],
      [70.0],
      [90.0],
      [95.0]
    ]
  },
  {
    "id": 2,
    "FHEBOPIEBKL": 1387209933,
    "AJLKGNKCOKI": [
      [],
      [50.0],
      [100.0],
      [300.0],
      [],
      [50.0],
      [100.0],
      [300.0],
      [],
      [50.0],
      [100.0],
      [300.0],
      [],
      [50.0],
      [100.0],
      [300.0]
    ]
  },
  {
    "id": 3,
    "FHEBOPIEBKL": 3980163933,
    "AJLKGNKCOKI": [
      [],
      [],
      [],
      [20.0],
      [],
      [],
      [],
      [20.0],
      [],
      [],
      [],
      [20.0],
      [],
      [],
      [],
      [20.0]
    ]
  },
  {
    "id": 4,
    "FHEBOPIEBKL": 2853323581,
    "AJLKGNKCOKI": [
      [],
      [],
      [],
      [120.0, 40.0, 20.0, 12.0],
      [],
      [],
      [],
      [120.0, 40.0, 20.0, 12.0],
      [],
      [],
      [],
      [120.0, 40.0, 20.0, 12.0],
      [],
      [],
      [],
      [120.0, 40.0, 20.0, 12.0]
    ]
  },
  {
    "id": 5,
    "FHEBOPIEBKL": 3135921309,
    "AJLKGNKCOKI": [
      [10.0],
      [10.0],
      [6.0],
      [3.0],
      [10.0],
      [10.0],
      [6.0],
      [3.0],
      [10.0],
      [10.0],
      [6.0],
      [3.0],
      [10.0],
      [10.0],
      [6.0],
      [3.0]
    ]
  },
  {
    "id": 6,
    "FHEBOPIEBKL": 564946229,
    "AJLKGNKCOKI": [
      [],
      [],
      [],
      [1.0],
      [],
      [],
      [],
      [],
      [],
      [],
      [],
      [],
      [],
      [],
      [],
      []
    ]
  },
  {
    "id": 7,
    "FHEBOPIEBKL": 862850493,
    "AJLKGNKCOKI": [
      [],
      [],
      [],
      [],
      [],
      [],
      [],
      [1.0],
      [],
      [],
      [],
      [],
      [],
      [],
      [],
      []
    ]
  },
  {
    "id": 8,
    "FHEBOPIEBKL": 2705707837,
    "AJLKGNKCOKI": [
      [],
      [],
      [],
      [],
      [],
      [],
      [],
      [],
      [],
      [],
      [],
      [1.0],
      [],
      [],
      [],
      []
    ]
  },
  {
    "id": 9,
    "FHEBOPIEBKL": 3945212189,
    "AJLKGNKCOKI": [
      [],
      [],
      [],
      [],
      [],
      [],
      [],
      [],
      [],
      [],
      [],
      [],
      [],
      [],
      [1.0],
      []
    ]
  },
  {
    "id": 10,
    "FHEBOPIEBKL": 1462815405,
    "AJLKGNKCOKI": [
      [],
      [],
      [],
      [],
      [],
      [],
      [],
      [],
      [],
      [],
      [],
      [],
      [],
      [],
      [],
      [1.0]
    ]
  },
  {
    "id": 11,
    "FHEBOPIEBKL": 2668810869,
    "AJLKGNKCOKI": [
      [],
      [],
      [],
      [],
      [],
      [],
      [],
      [],
      [],
      [],
      [],
      [],
      [],
      [],
      [1.0],
      [1.0]
    ]
  }
]
