[
  {
    "id": 1,
    "pushTipsId": 13014,
    "FOGIDMLJMKI": 220047,
    "PFCBKAHLIEL": [
      223001, 223002, 223003, 223004, 223005, 223006, 223007, 223008, 223009,
      223010, 223011, 223012, 223013, 223014, 223016, 223017, 223018
    ]
  }
]
