[
  {
    "OONAGGLHFKM": 200,
    "JBBNAFGAAFL": 2000,
    "OGKIGOKFGPD": 100,
    "BFBPLPBHEPN": 2000
  },
  {
    "OONAGGLHFKM": 201,
    "JBBNAFGAAFL": 2000,
    "OGKIGOKFGPD": 100,
    "BFBPLPBHEPN": 2000
  },
  {
    "OONAGGLHFKM": 202,
    "JBBNAFGAAFL": 2000,
    "OGKIGOKFGPD": 100,
    "BFBPLPBHEPN": 2000
  },
  {
    "OONAGGLHFKM": 300,
    "JBBNAFGAAFL": 2000,
    "OGKIGOKFGPD": 100,
    "BFBPLPBHEPN": 2000
  },
  {
    "OONAGGLHFKM": 301,
    "JBBNAFGAAFL": 2000,
    "OGKIGOKFGPD": 100,
    "BFBPLPBHEPN": 2000
  },
  {
    "OONAGGLHFKM": 302,
    "JBBNAFGAAFL": 2000,
    "OGKIGOKFGPD": 100,
    "BFBPLPBHEPN": 2000
  },
  {
    "OONAGGLHFKM": 400,
    "JBBNAFGAAFL": 2000,
    "OGKIGOKFGPD": 100,
    "BFBPLPBHEPN": 2000
  }
]
