[
  {
    "id": 1,
    "npcId": 1707,
    "levelId": 40001,
    "JMLALHBMJDL": []
  },
  {
    "id": 2,
    "npcId": 1708,
    "levelId": 40002,
    "JMLALHBMJDL": []
  },
  {
    "id": 3,
    "npcId": 1709,
    "levelId": 40003,
    "JMLALHBMJDL": []
  },
  {
    "id": 4,
    "npcId": 1710,
    "levelId": 40004,
    "JMLALHBMJDL": []
  },
  {
    "id": 5,
    "npcId": 1711,
    "levelId": 40005,
    "JMLALHBMJDL": []
  }
]
