[
  {
    "id": 1,
    "JBEPJCKONIP": 1,
    "watcherId": 12015001,
    "openDay": 1
  },
  {
    "id": 2,
    "JBEPJCKONIP": 1,
    "watcherId": 12015002,
    "openDay": 5
  },
  {
    "id": 3,
    "JBEPJCKONIP": 1,
    "watcherId": 12015003,
    "openDay": 8
  },
  {
    "id": 4,
    "JBEPJCKONIP": 1,
    "watcherId": 12015004,
    "openDay": 11
  }
]
