[
  {
    "MDECHKKJKHH": 1001,
    "parentQuestId": 3009,
    "GBPOPNECIAP": [100101],
    "BLGBFLFGBKF": 300902
  },
  {
    "MDECHKKJKHH": 1002,
    "parentQuestId": 3009,
    "GBPOPNECIAP": [100201],
    "BLGBFLFGBKF": 300902
  },
  {
    "MDECHKKJKHH": 1003,
    "parentQuestId": 3009,
    "GBPOPNECIAP": [100301],
    "BLGBFLFGBKF": 300902
  },
  {
    "MDECHKKJKHH": 1004,
    "parentQuestId": 3011,
    "GBPOPNECIAP": [100401],
    "BLGBFLFGBKF": 301102
  },
  {
    "MDECHKKJKHH": 1005,
    "parentQuestId": 3014,
    "GBPOPNECIAP": [100501],
    "BLGBFLFGBKF": 301401
  },
  {
    "MDECHKKJKHH": 1006,
    "parentQuestId": 3014,
    "GBPOPNECIAP": [100601],
    "BLGBFLFGBKF": 301401
  },
  {
    "MDECHKKJKHH": 1007,
    "parentQuestId": 3014,
    "GBPOPNECIAP": [100701],
    "BLGBFLFGBKF": 301401
  },
  {
    "MDECHKKJKHH": 1008,
    "parentQuestId": 3014,
    "GBPOPNECIAP": [100801],
    "BLGBFLFGBKF": 301401
  },
  {
    "MDECHKKJKHH": 1009,
    "parentQuestId": 3014,
    "GBPOPNECIAP": [100901],
    "BLGBFLFGBKF": 301401
  },
  {
    "MDECHKKJKHH": 1010,
    "parentQuestId": 3014,
    "GBPOPNECIAP": [101001],
    "BLGBFLFGBKF": 301401
  },
  {
    "MDECHKKJKHH": 1011,
    "parentQuestId": 13007,
    "GBPOPNECIAP": [101101],
    "BLGBFLFGBKF": 1300705
  },
  {
    "MDECHKKJKHH": 1012,
    "parentQuestId": 13007,
    "GBPOPNECIAP": [101201],
    "BLGBFLFGBKF": 1300705
  },
  {
    "MDECHKKJKHH": 1013,
    "parentQuestId": 13008,
    "GBPOPNECIAP": [101301],
    "BLGBFLFGBKF": 1300803
  },
  {
    "MDECHKKJKHH": 1014,
    "parentQuestId": 13008,
    "GBPOPNECIAP": [101401],
    "BLGBFLFGBKF": 1300803
  },
  {
    "MDECHKKJKHH": 1015,
    "parentQuestId": 13008,
    "GBPOPNECIAP": [101501],
    "BLGBFLFGBKF": 1300803
  },
  {
    "MDECHKKJKHH": 1016,
    "parentQuestId": 13008,
    "GBPOPNECIAP": [101601],
    "BLGBFLFGBKF": 1300803
  },
  {
    "MDECHKKJKHH": 1017,
    "parentQuestId": 13008,
    "GBPOPNECIAP": [101701],
    "BLGBFLFGBKF": 1300803
  },
  {
    "MDECHKKJKHH": 1018,
    "parentQuestId": 19153,
    "GBPOPNECIAP": [101801],
    "BLGBFLFGBKF": 1915302
  }
]
