[
  {
    "id": 1,
    "OEGEJBMEIIJ": 1.0,
    "OFOJOAPKGDG": 1.0,
    "BAPHOIAIENN": 7.199999809265137,
    "FGGAMEIPOCP": 2.8499999046325684,
    "BBBPAHKNIPH": [0.0, 0.0, 3.0]
  },
  {
    "id": 2,
    "OEGEJBMEIIJ": 5.0,
    "OFOJOAPKGDG": 4.0,
    "BAPHOIAIENN": 5.800000190734863,
    "FGGAMEIPOCP": 2.8499999046325684,
    "BBBPAHKNIPH": [0.0, 0.0, 2.799999952316284]
  },
  {
    "id": 3,
    "OEGEJBMEIIJ": 4.0,
    "OFOJOAPKGDG": 3.0,
    "BAPHOIAIENN": 5.400000095367432,
    "FGGAMEIPOCP": 2.8499999046325684,
    "BBBPAHKNIPH": [0.0, 0.0, 2.4000000953674316]
  },
  {
    "id": 4,
    "OEGEJBMEIIJ": 16.0,
    "OFOJOAPKGDG": 9.0,
    "BAPHOIAIENN": 4.199999809265137,
    "FGGAMEIPOCP": 2.8499999046325684,
    "BBBPAHKNIPH": [0.0, 0.0, 2.0]
  },
  {
    "id": 5,
    "OEGEJBMEIIJ": 2.0,
    "OFOJOAPKGDG": 1.0,
    "BAPHOIAIENN": 4.0,
    "FGGAMEIPOCP": 2.8499999046325684,
    "BBBPAHKNIPH": [0.0, 0.0, 1.7999999523162842]
  },
  {
    "id": 6,
    "OEGEJBMEIIJ": 32.0,
    "OFOJOAPKGDG": 9.0,
    "BAPHOIAIENN": 4.0,
    "FGGAMEIPOCP": 2.8499999046325684,
    "BBBPAHKNIPH": [0.0, 0.0, 1.5]
  }
]
