[
  {
    "activityId": 2019,
    "openTime": [1, 3, 5, 7],
    "IKBCBNOIKFL": [1201901, 1201902, 1201903, 1201904, 1201905],
    "HBNGHOBCJBM": 1201904,
    "KIDPJBKJBBN": 71514,
    "OMIGHMIEFAP": 71515,
    "MDEFCFFBHBD": 71513,
    "BGJOEIBKAOF": 71512,
    "MPFIAFKJAMI": 13001,
    "GKJCMGCHPDF": 13003,
    "GLLIHAMHKGB": 13011,
    "AKLHIPMHKHB": 13035,
    "DJKLJCNNANA": 2019004
  }
]
