[
  {
    "EPICNINGNCL": 5,
    "NLLBGOICKDO": 30
  },
  {
    "EPICNINGNCL": 6,
    "NLLBGOICKDO": 30,
    "index": 1
  },
  {
    "EPICNINGNCL": 7,
    "NLLBGOICKDO": 30,
    "index": 2
  },
  {
    "EPICNINGNCL": 8,
    "NLLBGOICKDO": 30,
    "index": 3
  },
  {
    "EPICNINGNCL": 9,
    "NLLBGOICKDO": 30,
    "index": 4
  },
  {
    "EPICNINGNCL": 10,
    "NLLBGOICKDO": 30,
    "index": 5
  },
  {
    "EPICNINGNCL": 11,
    "NLLBGOICKDO": 30,
    "index": 6
  },
  {
    "EPICNINGNCL": 12,
    "NLLBGOICKDO": 30,
    "index": 7
  },
  {
    "EPICNINGNCL": 13,
    "NLLBGOICKDO": 30,
    "index": 8
  },
  {
    "EPICNINGNCL": 14,
    "NLLBGOICKDO": 30,
    "index": 9
  },
  {
    "EPICNINGNCL": 15,
    "NLLBGOICKDO": 32
  },
  {
    "EPICNINGNCL": 16,
    "NLLBGOICKDO": 32,
    "index": 1
  },
  {
    "EPICNINGNCL": 17,
    "NLLBGOICKDO": 32,
    "index": 2
  },
  {
    "EPICNINGNCL": 18,
    "NLLBGOICKDO": 31
  },
  {
    "EPICNINGNCL": 19,
    "NLLBGOICKDO": 31,
    "index": 1
  },
  {
    "EPICNINGNCL": 20,
    "NLLBGOICKDO": 31,
    "index": 2
  },
  {
    "EPICNINGNCL": 21,
    "NLLBGOICKDO": 33
  },
  {
    "EPICNINGNCL": 22,
    "NLLBGOICKDO": 33,
    "index": 1
  },
  {
    "EPICNINGNCL": 33,
    "NLLBGOICKDO": 31,
    "index": 3
  },
  {
    "EPICNINGNCL": 59,
    "NLLBGOICKDO": 34
  },
  {
    "EPICNINGNCL": 60,
    "NLLBGOICKDO": 35
  },
  {
    "EPICNINGNCL": 62,
    "NLLBGOICKDO": 36
  },
  {
    "EPICNINGNCL": 63,
    "NLLBGOICKDO": 37
  },
  {
    "EPICNINGNCL": 64,
    "NLLBGOICKDO": 38
  },
  {
    "EPICNINGNCL": 69,
    "NLLBGOICKDO": 39
  }
]
