[
  {
    "id": 1,
    "expireDays": 30,
    "titleTextMapHash": 1754041211,
    "contentTextMapHash": 3623910234,
    "senderTextMapHash": 4216765898
  },
  {
    "id": 2,
    "expireDays": 30,
    "titleTextMapHash": 586478083,
    "contentTextMapHash": 1233288602,
    "senderTextMapHash": 3911837898
  },
  {
    "id": 3,
    "expireDays": 30,
    "titleTextMapHash": 3934427331,
    "contentTextMapHash": 2438265242,
    "senderTextMapHash": 1494692418
  },
  {
    "id": 4,
    "expireDays": 30,
    "titleTextMapHash": 85799459,
    "contentTextMapHash": 1043564762,
    "senderTextMapHash": 3102886234
  },
  {
    "id": 5,
    "expireDays": 30,
    "titleTextMapHash": 506683819,
    "contentTextMapHash": 2790724594,
    "senderTextMapHash": 3608118730
  },
  {
    "id": 6,
    "expireDays": 30,
    "titleTextMapHash": 1650266819,
    "contentTextMapHash": 286462626,
    "senderTextMapHash": 1092584802
  },
  {
    "id": 7,
    "expireDays": 30,
    "titleTextMapHash": 2116683075,
    "contentTextMapHash": 1230855122,
    "senderTextMapHash": 4072764490
  },
  {
    "id": 8,
    "expireDays": 365,
    "titleTextMapHash": 3609046219,
    "contentTextMapHash": 1788946626,
    "senderTextMapHash": 1970064626
  },
  {
    "id": 9,
    "expireDays": 365,
    "titleTextMapHash": 2286107659,
    "contentTextMapHash": 2225380994,
    "senderTextMapHash": 2589724338,
    "isStar": true
  },
  {
    "id": 10,
    "expireDays": 365,
    "titleTextMapHash": 2307375131,
    "contentTextMapHash": 3412457786,
    "senderTextMapHash": 3725594746
  },
  {
    "id": 11,
    "expireDays": 365,
    "titleTextMapHash": 2090246859,
    "contentTextMapHash": 865337682,
    "senderTextMapHash": 4058770290
  },
  {
    "id": 12,
    "expireDays": 30,
    "titleTextMapHash": 1332877019,
    "contentTextMapHash": 42045514,
    "senderTextMapHash": 1134490210
  },
  {
    "id": 13,
    "expireDays": 30,
    "titleTextMapHash": 1607708395,
    "contentTextMapHash": 1088278906,
    "senderTextMapHash": 2360667410
  },
  {
    "id": 14,
    "expireDays": 3,
    "titleTextMapHash": 2129682587,
    "contentTextMapHash": 3846987898,
    "senderTextMapHash": 1299788786,
    "rewardId": 240004
  },
  {
    "id": 15,
    "expireDays": 3,
    "titleTextMapHash": 1157007075,
    "contentTextMapHash": 3209849322,
    "senderTextMapHash": 2680651074,
    "rewardId": 240003
  },
  {
    "id": 16,
    "expireDays": 3,
    "titleTextMapHash": 4225765395,
    "contentTextMapHash": 1244581314,
    "senderTextMapHash": 3998933730,
    "rewardId": 240003
  },
  {
    "id": 17,
    "expireDays": 3,
    "titleTextMapHash": 29226451,
    "contentTextMapHash": 470271946,
    "senderTextMapHash": 3994477154,
    "rewardId": 240003
  },
  {
    "id": 18,
    "expireDays": 3,
    "titleTextMapHash": 3809598083,
    "contentTextMapHash": 2159949194,
    "senderTextMapHash": 719234330,
    "rewardId": 240003
  },
  {
    "id": 19,
    "expireDays": 365,
    "titleTextMapHash": 3754612451,
    "contentTextMapHash": 4249669538,
    "senderTextMapHash": 3686121138
  },
  {
    "id": 20,
    "expireDays": 365,
    "titleTextMapHash": 884524995,
    "contentTextMapHash": 4226729906,
    "senderTextMapHash": 3566142706
  },
  {
    "id": 21,
    "expireDays": 365,
    "titleTextMapHash": 1252433851,
    "contentTextMapHash": 3913227066,
    "senderTextMapHash": 769472634
  },
  {
    "id": 22,
    "expireDays": 365,
    "titleTextMapHash": 2567849123,
    "contentTextMapHash": 1183500682,
    "senderTextMapHash": 166200810
  },
  {
    "id": 23,
    "expireDays": 3,
    "titleTextMapHash": 2905413931,
    "contentTextMapHash": 266536954,
    "senderTextMapHash": 2993027394,
    "rewardId": 240003
  },
  {
    "id": 24,
    "expireDays": 3,
    "titleTextMapHash": 1349072139,
    "contentTextMapHash": 10429034,
    "senderTextMapHash": 3981746842,
    "rewardId": 240003
  },
  {
    "id": 25,
    "expireDays": 3,
    "titleTextMapHash": 3419448299,
    "contentTextMapHash": 3826177258,
    "senderTextMapHash": 1018900514,
    "rewardId": 240003
  },
  {
    "id": 26,
    "expireDays": 3,
    "titleTextMapHash": 1923427435,
    "contentTextMapHash": 181134698,
    "senderTextMapHash": 3582447626,
    "rewardId": 240003
  },
  {
    "id": 27,
    "expireDays": 3,
    "titleTextMapHash": 3353783299,
    "contentTextMapHash": 1227192994,
    "senderTextMapHash": 277223706,
    "rewardId": 240003
  },
  {
    "id": 28,
    "expireDays": 3,
    "titleTextMapHash": 1418456051,
    "contentTextMapHash": 3613793250,
    "senderTextMapHash": 227615034,
    "rewardId": 240003
  },
  {
    "id": 29,
    "expireDays": 3,
    "titleTextMapHash": 3443462667,
    "contentTextMapHash": 1296389026,
    "senderTextMapHash": 406636978,
    "rewardId": 240003
  },
  {
    "id": 30,
    "expireDays": 3,
    "titleTextMapHash": 3615879771,
    "contentTextMapHash": 832673338,
    "senderTextMapHash": 735578122,
    "rewardId": 240003
  },
  {
    "id": 31,
    "expireDays": 3,
    "titleTextMapHash": 3804089955,
    "contentTextMapHash": 2312496706,
    "senderTextMapHash": 2393617866,
    "rewardId": 240003
  },
  {
    "id": 32,
    "expireDays": 3,
    "titleTextMapHash": 4086162779,
    "contentTextMapHash": 4164396786,
    "senderTextMapHash": 520326842,
    "rewardId": 240003
  },
  {
    "id": 33,
    "expireDays": 365,
    "titleTextMapHash": 3489241043,
    "contentTextMapHash": 3519865946,
    "senderTextMapHash": 407950650
  },
  {
    "id": 34,
    "expireDays": 3,
    "titleTextMapHash": 4079273331,
    "contentTextMapHash": 86043274,
    "senderTextMapHash": 159688530,
    "rewardId": 240003
  },
  {
    "id": 35,
    "expireDays": 365,
    "titleTextMapHash": 1450553699,
    "contentTextMapHash": 4120542850,
    "senderTextMapHash": 2476262658,
    "isStar": true
  },
  {
    "id": 36,
    "expireDays": 3,
    "titleTextMapHash": 2127755011,
    "contentTextMapHash": 3345096698,
    "senderTextMapHash": 501273130,
    "rewardId": 240003
  },
  {
    "id": 37,
    "expireDays": 365,
    "titleTextMapHash": 4035214347,
    "contentTextMapHash": 2761158002,
    "senderTextMapHash": 1713152810
  },
  {
    "id": 38,
    "expireDays": 365,
    "titleTextMapHash": 3109366347,
    "contentTextMapHash": 3805717242,
    "senderTextMapHash": 3935426290
  },
  {
    "id": 39,
    "expireDays": 365,
    "titleTextMapHash": 653654267,
    "contentTextMapHash": 3149050002,
    "senderTextMapHash": 585091154
  },
  {
    "id": 40,
    "expireDays": 3,
    "titleTextMapHash": 2317518331,
    "contentTextMapHash": 2581049762,
    "senderTextMapHash": 3111488298,
    "rewardId": 240003
  },
  {
    "id": 41,
    "expireDays": 3,
    "titleTextMapHash": 2224460379,
    "contentTextMapHash": 2198022762,
    "senderTextMapHash": 3393580930,
    "rewardId": 240003
  },
  {
    "id": 42,
    "expireDays": 365,
    "titleTextMapHash": 1111863323,
    "contentTextMapHash": 1644001690,
    "senderTextMapHash": 1711726018
  },
  {
    "id": 43,
    "expireDays": 365,
    "titleTextMapHash": 3553938459,
    "contentTextMapHash": 868955186,
    "senderTextMapHash": 853312826
  },
  {
    "id": 44,
    "expireDays": 365,
    "titleTextMapHash": 2844067235,
    "contentTextMapHash": 13643578,
    "senderTextMapHash": 2854840170
  },
  {
    "id": 45,
    "expireDays": 3,
    "titleTextMapHash": 1949928051,
    "contentTextMapHash": 2198001914,
    "senderTextMapHash": 3317002786,
    "rewardId": 240003
  },
  {
    "id": 46,
    "expireDays": 365,
    "titleTextMapHash": 2773790323,
    "contentTextMapHash": 3911354202,
    "senderTextMapHash": 4263692002
  },
  {
    "id": 47,
    "expireDays": 365,
    "titleTextMapHash": 580930723,
    "contentTextMapHash": 2374840442,
    "senderTextMapHash": 2194654842
  },
  {
    "id": 48,
    "expireDays": 3,
    "titleTextMapHash": 428821107,
    "contentTextMapHash": 3156123482,
    "senderTextMapHash": 2579222658,
    "rewardId": 240003
  },
  {
    "id": 49,
    "expireDays": 3,
    "titleTextMapHash": 924982227,
    "contentTextMapHash": 3864778706,
    "senderTextMapHash": 1192691018,
    "rewardId": 240003
  },
  {
    "id": 50,
    "expireDays": 3,
    "titleTextMapHash": 3852817387,
    "contentTextMapHash": 3957225098,
    "senderTextMapHash": 3875992026,
    "rewardId": 240003
  },
  {
    "id": 51,
    "expireDays": 3,
    "titleTextMapHash": 4125875195,
    "contentTextMapHash": 2721634194,
    "senderTextMapHash": 3107545138,
    "rewardId": 240003
  },
  {
    "id": 52,
    "expireDays": 3,
    "titleTextMapHash": 2219333051,
    "contentTextMapHash": 385445490,
    "senderTextMapHash": 1985188826,
    "rewardId": 240003
  },
  {
    "id": 53,
    "expireDays": 3,
    "titleTextMapHash": 4033654219,
    "contentTextMapHash": 139765674,
    "senderTextMapHash": 853795946,
    "rewardId": 240003
  },
  {
    "id": 54,
    "expireDays": 3,
    "titleTextMapHash": 2892596691,
    "contentTextMapHash": 904722842,
    "senderTextMapHash": 934575474,
    "rewardId": 240003
  },
  {
    "id": 55,
    "expireDays": 3,
    "titleTextMapHash": 919646275,
    "contentTextMapHash": 1498095122,
    "senderTextMapHash": 908408746,
    "rewardId": 240003
  },
  {
    "id": 56,
    "expireDays": 3,
    "titleTextMapHash": 1917921907,
    "contentTextMapHash": 2631941482,
    "senderTextMapHash": 1335021402,
    "rewardId": 240003
  },
  {
    "id": 57,
    "expireDays": 3,
    "titleTextMapHash": 4161595555,
    "contentTextMapHash": 1255039562,
    "senderTextMapHash": 209686386,
    "rewardId": 240003
  },
  {
    "id": 58,
    "expireDays": 3,
    "titleTextMapHash": 3436117283,
    "contentTextMapHash": 1053499546,
    "senderTextMapHash": 1450604586,
    "rewardId": 240003
  },
  {
    "id": 59,
    "expireDays": 3,
    "titleTextMapHash": 3481752883,
    "contentTextMapHash": 583722906,
    "senderTextMapHash": 1567134922,
    "rewardId": 240003
  },
  {
    "id": 60,
    "expireDays": 3,
    "titleTextMapHash": 2256488659,
    "contentTextMapHash": 3340559426,
    "senderTextMapHash": 1810255698,
    "rewardId": 240003
  },
  {
    "id": 61,
    "expireDays": 3,
    "titleTextMapHash": 2797282627,
    "contentTextMapHash": 309648834,
    "senderTextMapHash": 2792217738,
    "rewardId": 240003
  },
  {
    "id": 62,
    "expireDays": 3,
    "titleTextMapHash": 1507237979,
    "contentTextMapHash": 2988789938,
    "senderTextMapHash": 106980354,
    "rewardId": 240003
  },
  {
    "id": 63,
    "expireDays": 3,
    "titleTextMapHash": 2169391131,
    "contentTextMapHash": 3705905666,
    "senderTextMapHash": 4285353882,
    "rewardId": 240003
  },
  {
    "id": 64,
    "expireDays": 3,
    "titleTextMapHash": 1675825827,
    "contentTextMapHash": 4044047746,
    "senderTextMapHash": 2322630442,
    "rewardId": 240003
  },
  {
    "id": 65,
    "expireDays": 3,
    "titleTextMapHash": 201904691,
    "contentTextMapHash": 886657482,
    "senderTextMapHash": 4263510698,
    "rewardId": 240003
  },
  {
    "id": 66,
    "expireDays": 3,
    "titleTextMapHash": 3142155723,
    "contentTextMapHash": 2692855858,
    "senderTextMapHash": 1511156674,
    "rewardId": 240003
  },
  {
    "id": 67,
    "expireDays": 3,
    "titleTextMapHash": 2991511875,
    "contentTextMapHash": 873206034,
    "senderTextMapHash": 10561970,
    "rewardId": 240003
  },
  {
    "id": 68,
    "expireDays": 3,
    "titleTextMapHash": 2052762787,
    "contentTextMapHash": 714886610,
    "senderTextMapHash": 2731419610,
    "rewardId": 240003
  },
  {
    "id": 69,
    "expireDays": 3,
    "titleTextMapHash": 77249243,
    "contentTextMapHash": 1660957050,
    "senderTextMapHash": 913993994,
    "rewardId": 240003
  },
  {
    "id": 70,
    "expireDays": 3,
    "titleTextMapHash": 56647851,
    "contentTextMapHash": 260103562,
    "senderTextMapHash": 3080301258,
    "rewardId": 240003
  },
  {
    "id": 71,
    "expireDays": 3,
    "titleTextMapHash": 3768835747,
    "contentTextMapHash": 1368130346,
    "senderTextMapHash": 3896405394,
    "rewardId": 240003
  },
  {
    "id": 72,
    "expireDays": 365,
    "titleTextMapHash": 1890538387,
    "contentTextMapHash": 2239356602,
    "senderTextMapHash": 3929560594
  },
  {
    "id": 73,
    "expireDays": 365,
    "titleTextMapHash": 944895395,
    "contentTextMapHash": 3112975498,
    "senderTextMapHash": 1458398530
  },
  {
    "id": 74,
    "expireDays": 365,
    "titleTextMapHash": 2313182475,
    "contentTextMapHash": 849273122,
    "senderTextMapHash": 740676586
  },
  {
    "id": 75,
    "expireDays": 365,
    "titleTextMapHash": 1819982403,
    "contentTextMapHash": 3512354042,
    "senderTextMapHash": 1744266226
  },
  {
    "id": 76,
    "expireDays": 365,
    "titleTextMapHash": 1937408227,
    "contentTextMapHash": 2260366690,
    "senderTextMapHash": 2027339266
  },
  {
    "id": 77,
    "expireDays": 365,
    "titleTextMapHash": 292172251,
    "contentTextMapHash": 3708859442,
    "senderTextMapHash": 2864929730
  },
  {
    "id": 78,
    "expireDays": 3,
    "titleTextMapHash": 3756171699,
    "contentTextMapHash": 1798337858,
    "senderTextMapHash": 830111874,
    "rewardId": 240003
  },
  {
    "id": 79,
    "expireDays": 3,
    "titleTextMapHash": 859744531,
    "contentTextMapHash": 1377115954,
    "senderTextMapHash": 3876489282,
    "rewardId": 240003
  },
  {
    "id": 80,
    "expireDays": 3,
    "titleTextMapHash": 569503571,
    "contentTextMapHash": 2816346266,
    "senderTextMapHash": 4281482914,
    "rewardId": 240003
  },
  {
    "id": 81,
    "expireDays": 3,
    "titleTextMapHash": 1266765675,
    "contentTextMapHash": 3378852434,
    "senderTextMapHash": 1950149378,
    "rewardId": 240003
  },
  {
    "id": 82,
    "expireDays": 365,
    "titleTextMapHash": 1569767747,
    "contentTextMapHash": 2660624634,
    "senderTextMapHash": 2573312274,
    "isStar": true
  },
  {
    "id": 83,
    "expireDays": 3,
    "titleTextMapHash": 4186876291,
    "contentTextMapHash": 474351746,
    "senderTextMapHash": 3233989810,
    "rewardId": 240003
  },
  {
    "id": 84,
    "expireDays": 3,
    "titleTextMapHash": 2712869243,
    "contentTextMapHash": 836692850,
    "senderTextMapHash": 822625690,
    "rewardId": 240003
  },
  {
    "id": 85,
    "expireDays": 3,
    "titleTextMapHash": 2926411547,
    "contentTextMapHash": 3998417610,
    "senderTextMapHash": 1980035994,
    "rewardId": 240003
  },
  {
    "id": 86,
    "expireDays": 3,
    "titleTextMapHash": 2877819227,
    "contentTextMapHash": 1570426018,
    "senderTextMapHash": 1017740042,
    "rewardId": 240003
  },
  {
    "id": 87,
    "expireDays": 3,
    "titleTextMapHash": 3011546443,
    "contentTextMapHash": 736843810,
    "senderTextMapHash": 2014130498,
    "rewardId": 240003
  },
  {
    "id": 88,
    "expireDays": 3,
    "titleTextMapHash": 615777683,
    "contentTextMapHash": 527917554,
    "senderTextMapHash": 461382026,
    "rewardId": 240003
  },
  {
    "id": 89,
    "expireDays": 30,
    "titleTextMapHash": 2342615779,
    "contentTextMapHash": 3417262106,
    "senderTextMapHash": 2940802386
  },
  {
    "id": 90,
    "expireDays": 30,
    "titleTextMapHash": 3119468179,
    "contentTextMapHash": 3483284114,
    "senderTextMapHash": 3867361418
  },
  {
    "id": 91,
    "expireDays": 365,
    "titleTextMapHash": 1434032827,
    "contentTextMapHash": 2761123258,
    "senderTextMapHash": 416784666
  },
  {
    "id": 92,
    "expireDays": 365,
    "titleTextMapHash": 1986954835,
    "contentTextMapHash": 272441650,
    "senderTextMapHash": 1545284002
  },
  {
    "id": 93,
    "expireDays": 365,
    "titleTextMapHash": 3493912011,
    "contentTextMapHash": 3450709250,
    "senderTextMapHash": 2858053122
  },
  {
    "id": 94,
    "expireDays": 3,
    "titleTextMapHash": 3032769411,
    "contentTextMapHash": 4090787258,
    "senderTextMapHash": 968536154,
    "rewardId": 240003
  },
  {
    "id": 95,
    "expireDays": 3,
    "titleTextMapHash": 3551447651,
    "contentTextMapHash": 1226111802,
    "senderTextMapHash": 4066243738,
    "rewardId": 240003
  },
  {
    "id": 96,
    "expireDays": 3,
    "titleTextMapHash": 2505120563,
    "contentTextMapHash": 554089850,
    "senderTextMapHash": 3511643570,
    "rewardId": 240003
  },
  {
    "id": 97,
    "expireDays": 3,
    "titleTextMapHash": 3819749099,
    "contentTextMapHash": 110382842,
    "senderTextMapHash": 2115748698,
    "rewardId": 240003
  },
  {
    "id": 98,
    "expireDays": 3,
    "titleTextMapHash": 3221979979,
    "contentTextMapHash": 1720704066,
    "senderTextMapHash": 426465938,
    "rewardId": 240003
  },
  {
    "id": 99,
    "expireDays": 30,
    "titleTextMapHash": 3808196427,
    "contentTextMapHash": 543937026,
    "senderTextMapHash": 2006701498
  },
  {
    "id": 100,
    "expireDays": 3,
    "titleTextMapHash": 258331,
    "contentTextMapHash": 4159536434,
    "senderTextMapHash": 2393877450,
    "rewardId": 240003
  },
  {
    "id": 101,
    "expireDays": 3,
    "titleTextMapHash": 2964253443,
    "contentTextMapHash": 3098213986,
    "senderTextMapHash": 596852738,
    "rewardId": 240003
  },
  {
    "id": 102,
    "expireDays": 3,
    "titleTextMapHash": 1654700107,
    "contentTextMapHash": 3225832618,
    "senderTextMapHash": 3872508346,
    "rewardId": 240003
  },
  {
    "id": 103,
    "expireDays": 3,
    "titleTextMapHash": 2254379859,
    "contentTextMapHash": 2765422186,
    "senderTextMapHash": 3608415618,
    "rewardId": 240003
  },
  {
    "id": 104,
    "expireDays": 3,
    "titleTextMapHash": 1910653459,
    "contentTextMapHash": 2165874794,
    "senderTextMapHash": 2778496250,
    "rewardId": 240003
  },
  {
    "id": 105,
    "expireDays": 3,
    "titleTextMapHash": 2617256371,
    "contentTextMapHash": 4245892818,
    "senderTextMapHash": 3254402418,
    "rewardId": 240003
  },
  {
    "id": 106,
    "expireDays": 3,
    "titleTextMapHash": 4212010427,
    "contentTextMapHash": 1077600698,
    "senderTextMapHash": 358658706,
    "rewardId": 240003
  },
  {
    "id": 107,
    "expireDays": 3,
    "titleTextMapHash": 1876611419,
    "contentTextMapHash": 2555645826,
    "senderTextMapHash": 2584810690,
    "rewardId": 240003
  },
  {
    "id": 108,
    "expireDays": 3,
    "titleTextMapHash": 3424230843,
    "contentTextMapHash": 1551948570,
    "senderTextMapHash": 4232588362,
    "rewardId": 240003
  },
  {
    "id": 109,
    "expireDays": 3,
    "titleTextMapHash": 3235548755,
    "contentTextMapHash": 2407565298,
    "senderTextMapHash": 1227352338,
    "rewardId": 240003
  },
  {
    "id": 110,
    "expireDays": 3,
    "titleTextMapHash": 1435001427,
    "contentTextMapHash": 3699636306,
    "senderTextMapHash": 2944442922,
    "rewardId": 240003
  }
]
