[
  {
    "titleID": 101,
    "titleNameTextMapHash": 611289343,
    "isInverted": true
  },
  {
    "titleID": 102,
    "titleNameTextMapHash": 1863790967,
    "isInverted": true
  },
  {
    "titleID": 103,
    "titleNameTextMapHash": 1683437439,
    "isInverted": true
  },
  {
    "titleID": 111,
    "titleNameTextMapHash": 1610694895,
    "isInverted": true
  },
  {
    "titleID": 112,
    "titleNameTextMapHash": 2071156167,
    "isInverted": true
  },
  {
    "titleID": 121,
    "titleNameTextMapHash": 1786437831,
    "isInverted": true
  },
  {
    "titleID": 122,
    "titleNameTextMapHash": 456265943,
    "isInverted": true
  },
  {
    "titleID": 123,
    "titleNameTextMapHash": 1407733695,
    "isInverted": true
  },
  {
    "titleID": 131,
    "titleNameTextMapHash": 3648933895,
    "isInverted": true
  },
  {
    "titleID": 141,
    "titleNameTextMapHash": 1621370703,
    "isInverted": true
  },
  {
    "titleID": 142,
    "titleNameTextMapHash": 792431279
  },
  {
    "titleID": 151,
    "titleNameTextMapHash": 4011091919
  },
  {
    "titleID": 152,
    "titleNameTextMapHash": 1411916199
  },
  {
    "titleID": 153,
    "titleNameTextMapHash": 1327725359
  },
  {
    "titleID": 154,
    "titleNameTextMapHash": 3316199415,
    "isInverted": true
  },
  {
    "titleID": 155,
    "titleNameTextMapHash": 2349810527,
    "isInverted": true
  },
  {
    "titleID": 161,
    "titleNameTextMapHash": 3522408551,
    "isInverted": true
  },
  {
    "titleID": 162,
    "titleNameTextMapHash": 919028271,
    "isInverted": true
  },
  {
    "titleID": 163,
    "titleNameTextMapHash": 1225309559,
    "isInverted": true
  },
  {
    "titleID": 171,
    "titleNameTextMapHash": 362336375
  },
  {
    "titleID": 173,
    "titleNameTextMapHash": 1794389175
  },
  {
    "titleID": 1001,
    "titleNameTextMapHash": 3442676239
  },
  {
    "titleID": 1002,
    "titleNameTextMapHash": 1907026423
  },
  {
    "titleID": 1003,
    "titleNameTextMapHash": 826927551
  },
  {
    "titleID": 1004,
    "titleNameTextMapHash": 50110623
  },
  {
    "titleID": 1005,
    "titleNameTextMapHash": 3162776823
  },
  {
    "titleID": 1006,
    "titleNameTextMapHash": 812925943
  },
  {
    "titleID": 1007,
    "titleNameTextMapHash": 1884823111
  },
  {
    "titleID": 1011,
    "titleNameTextMapHash": 1126712863
  },
  {
    "titleID": 1021,
    "titleNameTextMapHash": 1066398151
  },
  {
    "titleID": 1031,
    "titleNameTextMapHash": 1095536183
  },
  {
    "titleID": 1032,
    "titleNameTextMapHash": 1694877743
  },
  {
    "titleID": 1041,
    "titleNameTextMapHash": 4183094271
  },
  {
    "titleID": 1051,
    "titleNameTextMapHash": 1456938855
  },
  {
    "titleID": 1061,
    "titleNameTextMapHash": 1149332895
  },
  {
    "titleID": 1071,
    "titleNameTextMapHash": 3162896055
  },
  {
    "titleID": 1101,
    "titleNameTextMapHash": 2915077007
  },
  {
    "titleID": 1102,
    "titleNameTextMapHash": 3489578911
  },
  {
    "titleID": 1103,
    "titleNameTextMapHash": 1464476751
  },
  {
    "titleID": 1111,
    "titleNameTextMapHash": 1580002279
  },
  {
    "titleID": 1112,
    "titleNameTextMapHash": 201192031
  },
  {
    "titleID": 1113,
    "titleNameTextMapHash": 3140338047
  },
  {
    "titleID": 1114,
    "titleNameTextMapHash": 3258054855
  },
  {
    "titleID": 1115,
    "titleNameTextMapHash": 2801746367
  },
  {
    "titleID": 1116,
    "titleNameTextMapHash": 724965327
  },
  {
    "titleID": 1117,
    "titleNameTextMapHash": 1504415135
  },
  {
    "titleID": 1201,
    "titleNameTextMapHash": 641743687
  },
  {
    "titleID": 1202,
    "titleNameTextMapHash": 2866324807
  },
  {
    "titleID": 2001,
    "titleNameTextMapHash": 3372311639
  },
  {
    "titleID": 2002,
    "titleNameTextMapHash": 4787039
  },
  {
    "titleID": 2003,
    "titleNameTextMapHash": 3502543183
  },
  {
    "titleID": 2004,
    "titleNameTextMapHash": 3940540839
  },
  {
    "titleID": 2005,
    "titleNameTextMapHash": 1433877471
  },
  {
    "titleID": 2006,
    "titleNameTextMapHash": 4106108231
  },
  {
    "titleID": 2007,
    "titleNameTextMapHash": 3371244335
  },
  {
    "titleID": 2101,
    "titleNameTextMapHash": 3272662991
  },
  {
    "titleID": 2102,
    "titleNameTextMapHash": 2763565143
  },
  {
    "titleID": 2103,
    "titleNameTextMapHash": 2312309791
  },
  {
    "titleID": 2111,
    "titleNameTextMapHash": 382592143
  },
  {
    "titleID": 2112,
    "titleNameTextMapHash": 1260004983
  },
  {
    "titleID": 2113,
    "titleNameTextMapHash": 510012799
  },
  {
    "titleID": 2201,
    "titleNameTextMapHash": 705562231,
    "isInverted": true
  },
  {
    "titleID": 2202,
    "titleNameTextMapHash": 1735603255
  },
  {
    "titleID": 2211,
    "titleNameTextMapHash": 1764723215,
    "isInverted": true
  },
  {
    "titleID": 2221,
    "titleNameTextMapHash": 2109139647
  },
  {
    "titleID": 2222,
    "titleNameTextMapHash": 826570055
  },
  {
    "titleID": 2223,
    "titleNameTextMapHash": 783836327
  },
  {
    "titleID": 2224,
    "titleNameTextMapHash": 2299711455
  },
  {
    "titleID": 2225,
    "titleNameTextMapHash": 2339276447
  },
  {
    "titleID": 2226,
    "titleNameTextMapHash": 3598397775
  },
  {
    "titleID": 2227,
    "titleNameTextMapHash": 3236505111
  },
  {
    "titleID": 2228,
    "titleNameTextMapHash": 2763133887
  },
  {
    "titleID": 3001,
    "titleNameTextMapHash": 4275091487
  },
  {
    "titleID": 3011,
    "titleNameTextMapHash": 2119774575
  },
  {
    "titleID": 3090,
    "titleNameTextMapHash": 1619610175
  },
  {
    "titleID": 3101,
    "titleNameTextMapHash": 3041589367
  },
  {
    "titleID": 3102,
    "titleNameTextMapHash": 71501855
  },
  {
    "titleID": 3103,
    "titleNameTextMapHash": 2732729943
  },
  {
    "titleID": 3104,
    "titleNameTextMapHash": 2938534431
  },
  {
    "titleID": 3105,
    "titleNameTextMapHash": 3330886223
  },
  {
    "titleID": 3111,
    "titleNameTextMapHash": 3207163591
  },
  {
    "titleID": 3112,
    "titleNameTextMapHash": 2455323215
  },
  {
    "titleID": 3113,
    "titleNameTextMapHash": 4262641967
  },
  {
    "titleID": 3201,
    "titleNameTextMapHash": 3138720183
  },
  {
    "titleID": 3202,
    "titleNameTextMapHash": 752200839
  },
  {
    "titleID": 3203,
    "titleNameTextMapHash": 3144530879
  },
  {
    "titleID": 3204,
    "titleNameTextMapHash": 2461230975
  },
  {
    "titleID": 3205,
    "titleNameTextMapHash": 172091855
  },
  {
    "titleID": 3206,
    "titleNameTextMapHash": 2294697567
  },
  {
    "titleID": 3301,
    "titleNameTextMapHash": 3260681455
  },
  {
    "titleID": 3302,
    "titleNameTextMapHash": 1639488527
  },
  {
    "titleID": 4001,
    "titleNameTextMapHash": 1400868983,
    "isInverted": true
  },
  {
    "titleID": 4002,
    "titleNameTextMapHash": 2296200775,
    "isInverted": true
  },
  {
    "titleID": 4003,
    "titleNameTextMapHash": 715089791,
    "isInverted": true
  },
  {
    "titleID": 4004,
    "titleNameTextMapHash": 3179181415,
    "isInverted": true
  },
  {
    "titleID": 4011,
    "titleNameTextMapHash": 1822534847,
    "isInverted": true
  },
  {
    "titleID": 4012,
    "titleNameTextMapHash": 1411430327,
    "isInverted": true
  },
  {
    "titleID": 4021,
    "titleNameTextMapHash": 2054457567,
    "isInverted": true
  },
  {
    "titleID": 4022,
    "titleNameTextMapHash": 310413383,
    "isInverted": true
  },
  {
    "titleID": 4031,
    "titleNameTextMapHash": 3295893655
  },
  {
    "titleID": 4032,
    "titleNameTextMapHash": 3150185015
  },
  {
    "titleID": 4041,
    "titleNameTextMapHash": 3354779047
  },
  {
    "titleID": 4051,
    "titleNameTextMapHash": 3949690983,
    "isInverted": true
  },
  {
    "titleID": 4061,
    "titleNameTextMapHash": 3896091415,
    "isInverted": true
  },
  {
    "titleID": 4062,
    "titleNameTextMapHash": 1911028959,
    "isInverted": true
  },
  {
    "titleID": 4071,
    "titleNameTextMapHash": 3384093127
  },
  {
    "titleID": 5001,
    "titleNameTextMapHash": 1306608279,
    "isInverted": true
  },
  {
    "titleID": 5002,
    "titleNameTextMapHash": 510473727,
    "isInverted": true
  },
  {
    "titleID": 5003,
    "titleNameTextMapHash": 553527231,
    "isInverted": true
  },
  {
    "titleID": 5004,
    "titleNameTextMapHash": 882519711,
    "isInverted": true
  },
  {
    "titleID": 5101,
    "titleNameTextMapHash": 3682481871,
    "isInverted": true
  },
  {
    "titleID": 5102,
    "titleNameTextMapHash": 4062303479,
    "isInverted": true
  },
  {
    "titleID": 5111,
    "titleNameTextMapHash": 3368507119,
    "isInverted": true
  },
  {
    "titleID": 5112,
    "titleNameTextMapHash": 2112511879,
    "isInverted": true
  },
  {
    "titleID": 5121,
    "titleNameTextMapHash": 4135901895,
    "isInverted": true
  },
  {
    "titleID": 5122,
    "titleNameTextMapHash": 3742072615,
    "isInverted": true
  },
  {
    "titleID": 6001,
    "titleNameTextMapHash": 1074946407
  },
  {
    "titleID": 6002,
    "titleNameTextMapHash": 1867418743
  },
  {
    "titleID": 6003,
    "titleNameTextMapHash": 3768379127
  },
  {
    "titleID": 6004,
    "titleNameTextMapHash": 376189863
  },
  {
    "titleID": 6005,
    "titleNameTextMapHash": 411852207
  },
  {
    "titleID": 6006,
    "titleNameTextMapHash": 2279099679
  },
  {
    "titleID": 6007,
    "titleNameTextMapHash": 3347377295
  },
  {
    "titleID": 6011,
    "titleNameTextMapHash": 2810870263
  },
  {
    "titleID": 6012,
    "titleNameTextMapHash": 1902706071
  },
  {
    "titleID": 6013,
    "titleNameTextMapHash": 1022571935
  },
  {
    "titleID": 6014,
    "titleNameTextMapHash": 4224913535
  },
  {
    "titleID": 6101,
    "titleNameTextMapHash": 3804864135
  },
  {
    "titleID": 6111,
    "titleNameTextMapHash": 4160425487
  },
  {
    "titleID": 6112,
    "titleNameTextMapHash": 3957699807
  },
  {
    "titleID": 6113,
    "titleNameTextMapHash": 1383579735
  },
  {
    "titleID": 6121,
    "titleNameTextMapHash": 2648026463
  },
  {
    "titleID": 7001,
    "titleNameTextMapHash": 2475795295
  },
  {
    "titleID": 7002,
    "titleNameTextMapHash": 1400128311
  },
  {
    "titleID": 7003,
    "titleNameTextMapHash": 1902406215
  },
  {
    "titleID": 7004,
    "titleNameTextMapHash": 3843706759
  },
  {
    "titleID": 7005,
    "titleNameTextMapHash": 1327255903
  },
  {
    "titleID": 7006,
    "titleNameTextMapHash": 505271079
  },
  {
    "titleID": 7007,
    "titleNameTextMapHash": 2072107391
  },
  {
    "titleID": 7008,
    "titleNameTextMapHash": 1341597039
  },
  {
    "titleID": 7011,
    "titleNameTextMapHash": 3021789503
  },
  {
    "titleID": 7012,
    "titleNameTextMapHash": 701893295
  },
  {
    "titleID": 7111,
    "titleNameTextMapHash": 898493423
  },
  {
    "titleID": 7112,
    "titleNameTextMapHash": 3498832663
  },
  {
    "titleID": 7121,
    "titleNameTextMapHash": 2877411191
  },
  {
    "titleID": 7122,
    "titleNameTextMapHash": 1290509175
  },
  {
    "titleID": 7123,
    "titleNameTextMapHash": 748026823
  },
  {
    "titleID": 7124,
    "titleNameTextMapHash": 459203023
  },
  {
    "titleID": 7131,
    "titleNameTextMapHash": 1459083847
  },
  {
    "titleID": 7132,
    "titleNameTextMapHash": 1958846447
  },
  {
    "titleID": 7141,
    "titleNameTextMapHash": 4276083191,
    "isInverted": true
  },
  {
    "titleID": 7142,
    "titleNameTextMapHash": 1930527327,
    "isInverted": true
  },
  {
    "titleID": 7143,
    "titleNameTextMapHash": 585628847,
    "isInverted": true
  },
  {
    "titleID": 7144,
    "titleNameTextMapHash": 3192005023,
    "isInverted": true
  },
  {
    "titleID": 7145,
    "titleNameTextMapHash": 501044623,
    "isInverted": true
  },
  {
    "titleID": 7146,
    "titleNameTextMapHash": 3951346303
  },
  {
    "titleID": 7147,
    "titleNameTextMapHash": 1956851607
  },
  {
    "titleID": 7148,
    "titleNameTextMapHash": 2919593911
  },
  {
    "titleID": 7151,
    "titleNameTextMapHash": 4119265847
  },
  {
    "titleID": 7152,
    "titleNameTextMapHash": 681212735
  },
  {
    "titleID": 7153,
    "titleNameTextMapHash": 2254304583
  },
  {
    "titleID": 7201,
    "titleNameTextMapHash": 3478689231
  },
  {
    "titleID": 7301,
    "titleNameTextMapHash": 3350792191
  },
  {
    "titleID": 7302,
    "titleNameTextMapHash": 2035063487
  },
  {
    "titleID": 7303,
    "titleNameTextMapHash": 3535089111
  },
  {
    "titleID": 7304,
    "titleNameTextMapHash": 1865425207
  },
  {
    "titleID": 7305,
    "titleNameTextMapHash": 1573506223
  },
  {
    "titleID": 7311,
    "titleNameTextMapHash": 4213177647
  },
  {
    "titleID": 7321,
    "titleNameTextMapHash": 2857957759
  },
  {
    "titleID": 7331,
    "titleNameTextMapHash": 3235319175
  },
  {
    "titleID": 7332,
    "titleNameTextMapHash": 3452696271
  },
  {
    "titleID": 7333,
    "titleNameTextMapHash": 3700330247
  },
  {
    "titleID": 7334,
    "titleNameTextMapHash": 230904903
  },
  {
    "titleID": 7335,
    "titleNameTextMapHash": 1715548655
  },
  {
    "titleID": 7336,
    "titleNameTextMapHash": 1224779031
  },
  {
    "titleID": 7337,
    "titleNameTextMapHash": 768450559
  },
  {
    "titleID": 7338,
    "titleNameTextMapHash": 406941255
  },
  {
    "titleID": 7339,
    "titleNameTextMapHash": 3202676871
  },
  {
    "titleID": 8001,
    "titleNameTextMapHash": 174961871
  },
  {
    "titleID": 8002,
    "titleNameTextMapHash": 2926371463
  },
  {
    "titleID": 8003,
    "titleNameTextMapHash": 282390671
  },
  {
    "titleID": 8004,
    "titleNameTextMapHash": 1183284895
  },
  {
    "titleID": 8005,
    "titleNameTextMapHash": 1191368287
  },
  {
    "titleID": 8006,
    "titleNameTextMapHash": 2560859023
  },
  {
    "titleID": 8011,
    "titleNameTextMapHash": 250559111,
    "isInverted": true
  },
  {
    "titleID": 8021,
    "titleNameTextMapHash": 1400422127
  },
  {
    "titleID": 8022,
    "titleNameTextMapHash": 2125644439
  },
  {
    "titleID": 8023,
    "titleNameTextMapHash": 788263543
  },
  {
    "titleID": 8024,
    "titleNameTextMapHash": 1332085695
  },
  {
    "titleID": 8025,
    "titleNameTextMapHash": 3251431
  },
  {
    "titleID": 8026,
    "titleNameTextMapHash": 3522192679
  },
  {
    "titleID": 8027,
    "titleNameTextMapHash": 324732879
  },
  {
    "titleID": 8028,
    "titleNameTextMapHash": 3264665823
  },
  {
    "titleID": 8029,
    "titleNameTextMapHash": 4251659751
  },
  {
    "titleID": 8030,
    "titleNameTextMapHash": 900009535
  },
  {
    "titleID": 8031,
    "titleNameTextMapHash": 2681087391
  },
  {
    "titleID": 8032,
    "titleNameTextMapHash": 2237191399
  },
  {
    "titleID": 8033,
    "titleNameTextMapHash": 2850999095
  },
  {
    "titleID": 8034,
    "titleNameTextMapHash": 4270783839
  },
  {
    "titleID": 8041,
    "titleNameTextMapHash": 306731351
  },
  {
    "titleID": 8045,
    "titleNameTextMapHash": 422819215
  },
  {
    "titleID": 8051,
    "titleNameTextMapHash": 2450356319
  },
  {
    "titleID": 8052,
    "titleNameTextMapHash": 66907255
  },
  {
    "titleID": 8053,
    "titleNameTextMapHash": 453644535
  },
  {
    "titleID": 8054,
    "titleNameTextMapHash": 1834874591
  },
  {
    "titleID": 8055,
    "titleNameTextMapHash": 3595812431
  },
  {
    "titleID": 10001,
    "titleNameTextMapHash": 841627719
  },
  {
    "titleID": 10002,
    "titleNameTextMapHash": 3521985375
  },
  {
    "titleID": 10003,
    "titleNameTextMapHash": 225429327
  },
  {
    "titleID": 10004,
    "titleNameTextMapHash": 170546951
  },
  {
    "titleID": 10005,
    "titleNameTextMapHash": 412604943
  },
  {
    "titleID": 10006,
    "titleNameTextMapHash": 1828698055
  },
  {
    "titleID": 10007,
    "titleNameTextMapHash": 166226487
  },
  {
    "titleID": 10008,
    "titleNameTextMapHash": 1534503967
  },
  {
    "titleID": 10009,
    "titleNameTextMapHash": 3529736143,
    "isInverted": true
  },
  {
    "titleID": 10010,
    "titleNameTextMapHash": 1434721479
  },
  {
    "titleID": 10011,
    "titleNameTextMapHash": 2785407935
  },
  {
    "titleID": 10012,
    "titleNameTextMapHash": 1806263751
  },
  {
    "titleID": 10013,
    "titleNameTextMapHash": 3420331927
  },
  {
    "titleID": 10014,
    "titleNameTextMapHash": 4006563327,
    "isInverted": true
  },
  {
    "titleID": 10015,
    "titleNameTextMapHash": 746583,
    "isInverted": true
  },
  {
    "titleID": 10016,
    "titleNameTextMapHash": 2780071679,
    "isInverted": true
  },
  {
    "titleID": 10017,
    "titleNameTextMapHash": 3625070039,
    "isInverted": true
  },
  {
    "titleID": 10018,
    "titleNameTextMapHash": 4359615
  },
  {
    "titleID": 10019,
    "titleNameTextMapHash": 3474341055
  },
  {
    "titleID": 10020,
    "titleNameTextMapHash": 1787379671
  },
  {
    "titleID": 10021,
    "titleNameTextMapHash": 3894951967
  },
  {
    "titleID": 10022,
    "titleNameTextMapHash": 2069642471
  },
  {
    "titleID": 10023,
    "titleNameTextMapHash": 3794544615
  },
  {
    "titleID": 10024,
    "titleNameTextMapHash": 2098698831
  },
  {
    "titleID": 10025,
    "titleNameTextMapHash": 3715356559
  },
  {
    "titleID": 10026,
    "titleNameTextMapHash": 3577563463
  },
  {
    "titleID": 10027,
    "titleNameTextMapHash": 4066892823
  },
  {
    "titleID": 10028,
    "titleNameTextMapHash": 4135205159
  },
  {
    "titleID": 10029,
    "titleNameTextMapHash": 3525110055
  },
  {
    "titleID": 10030,
    "titleNameTextMapHash": 3464719295
  },
  {
    "titleID": 10031,
    "titleNameTextMapHash": 2699341599
  },
  {
    "titleID": 10032,
    "titleNameTextMapHash": 2795701455
  },
  {
    "titleID": 10033,
    "titleNameTextMapHash": 3993926567
  },
  {
    "titleID": 10034,
    "titleNameTextMapHash": 2808417535
  },
  {
    "titleID": 10035,
    "titleNameTextMapHash": 1421186687
  },
  {
    "titleID": 10036,
    "titleNameTextMapHash": 1932074351
  },
  {
    "titleID": 10037,
    "titleNameTextMapHash": 497635471
  },
  {
    "titleID": 10038,
    "titleNameTextMapHash": 48552703
  },
  {
    "titleID": 10039,
    "titleNameTextMapHash": 364460599
  },
  {
    "titleID": 10040,
    "titleNameTextMapHash": 1333421063
  },
  {
    "titleID": 10041,
    "titleNameTextMapHash": 2621746007
  },
  {
    "titleID": 10042,
    "titleNameTextMapHash": 347720191
  },
  {
    "titleID": 10043,
    "titleNameTextMapHash": 3914699591
  },
  {
    "titleID": 10044,
    "titleNameTextMapHash": 979303295
  },
  {
    "titleID": 10045,
    "titleNameTextMapHash": 2421358927
  },
  {
    "titleID": 10046,
    "titleNameTextMapHash": 3108236287
  },
  {
    "titleID": 10047,
    "titleNameTextMapHash": 1882999935
  },
  {
    "titleID": 10048,
    "titleNameTextMapHash": 3554706967
  },
  {
    "titleID": 10049,
    "titleNameTextMapHash": 17236511
  },
  {
    "titleID": 10050,
    "titleNameTextMapHash": 1793795103
  },
  {
    "titleID": 10051,
    "titleNameTextMapHash": 469016327,
    "isInverted": true
  },
  {
    "titleID": 10052,
    "titleNameTextMapHash": 1541802215
  },
  {
    "titleID": 10053,
    "titleNameTextMapHash": 406748647
  },
  {
    "titleID": 10054,
    "titleNameTextMapHash": 3037216599
  },
  {
    "titleID": 10055,
    "titleNameTextMapHash": 2869597431
  },
  {
    "titleID": 10056,
    "titleNameTextMapHash": 997421111
  },
  {
    "titleID": 10057,
    "titleNameTextMapHash": 264098255
  },
  {
    "titleID": 10058,
    "titleNameTextMapHash": 3682143087
  },
  {
    "titleID": 10059,
    "titleNameTextMapHash": 3886583495
  },
  {
    "titleID": 10060,
    "titleNameTextMapHash": 170477151
  },
  {
    "titleID": 10061,
    "titleNameTextMapHash": 121700391
  },
  {
    "titleID": 10062,
    "titleNameTextMapHash": 2417736951
  },
  {
    "titleID": 10063,
    "titleNameTextMapHash": 787337479
  },
  {
    "titleID": 10064,
    "titleNameTextMapHash": 3398850623
  },
  {
    "titleID": 10065,
    "titleNameTextMapHash": 447788807
  },
  {
    "titleID": 10067,
    "titleNameTextMapHash": 2085419679
  },
  {
    "titleID": 10068,
    "titleNameTextMapHash": 813985311
  },
  {
    "titleID": 10069,
    "titleNameTextMapHash": 1179393095,
    "isInverted": true
  },
  {
    "titleID": 10070,
    "titleNameTextMapHash": 490955143
  },
  {
    "titleID": 10071,
    "titleNameTextMapHash": 2561370767
  },
  {
    "titleID": 10072,
    "titleNameTextMapHash": 672111127
  },
  {
    "titleID": 10073,
    "titleNameTextMapHash": 2777532791
  },
  {
    "titleID": 10074,
    "titleNameTextMapHash": 440157775
  },
  {
    "titleID": 10075,
    "titleNameTextMapHash": 3917885975
  },
  {
    "titleID": 10076,
    "titleNameTextMapHash": 3755794871
  },
  {
    "titleID": 10077,
    "titleNameTextMapHash": 2562208295
  },
  {
    "titleID": 10078,
    "titleNameTextMapHash": 2346084735
  },
  {
    "titleID": 10079,
    "titleNameTextMapHash": 887687583
  },
  {
    "titleID": 10080,
    "titleNameTextMapHash": 4176219855
  },
  {
    "titleID": 10081,
    "titleNameTextMapHash": 2585594071
  },
  {
    "titleID": 10082,
    "titleNameTextMapHash": 4182229031
  },
  {
    "titleID": 10083,
    "titleNameTextMapHash": 3755944239
  },
  {
    "titleID": 10084,
    "titleNameTextMapHash": 1234473015
  },
  {
    "titleID": 10085,
    "titleNameTextMapHash": 3217467799
  },
  {
    "titleID": 10086,
    "titleNameTextMapHash": 1233568935
  },
  {
    "titleID": 10087,
    "titleNameTextMapHash": 1307196423
  },
  {
    "titleID": 10088,
    "titleNameTextMapHash": 3838655807
  },
  {
    "titleID": 10089,
    "titleNameTextMapHash": 1745050399
  },
  {
    "titleID": 10090,
    "titleNameTextMapHash": 1878134239
  },
  {
    "titleID": 10091,
    "titleNameTextMapHash": 1775252303
  },
  {
    "titleID": 10092,
    "titleNameTextMapHash": 1279787943
  },
  {
    "titleID": 10093,
    "titleNameTextMapHash": 702047895
  },
  {
    "titleID": 10094,
    "titleNameTextMapHash": 131405335
  },
  {
    "titleID": 10095,
    "titleNameTextMapHash": 3974738703
  },
  {
    "titleID": 10096,
    "titleNameTextMapHash": 3441040807
  },
  {
    "titleID": 10097,
    "titleNameTextMapHash": 1587657927
  },
  {
    "titleID": 10098,
    "titleNameTextMapHash": 3602692711
  },
  {
    "titleID": 10099,
    "titleNameTextMapHash": 2511071895
  },
  {
    "titleID": 10100,
    "titleNameTextMapHash": 1283884687,
    "isInverted": true
  },
  {
    "titleID": 10101,
    "titleNameTextMapHash": 991524591,
    "isInverted": true
  },
  {
    "titleID": 10102,
    "titleNameTextMapHash": 3150283479
  },
  {
    "titleID": 10103,
    "titleNameTextMapHash": 2589156975
  },
  {
    "titleID": 10104,
    "titleNameTextMapHash": 2895458815
  },
  {
    "titleID": 10105,
    "titleNameTextMapHash": 3407591023,
    "isInverted": true
  },
  {
    "titleID": 10106,
    "titleNameTextMapHash": 2618651551,
    "isInverted": true
  },
  {
    "titleID": 10108,
    "titleNameTextMapHash": 752466391
  },
  {
    "titleID": 10109,
    "titleNameTextMapHash": 360480071
  },
  {
    "titleID": 10110,
    "titleNameTextMapHash": 184231415
  },
  {
    "titleID": 10111,
    "titleNameTextMapHash": 2464720535
  },
  {
    "titleID": 10112,
    "titleNameTextMapHash": 1181124103
  },
  {
    "titleID": 10113,
    "titleNameTextMapHash": 4149311183
  },
  {
    "titleID": 10114,
    "titleNameTextMapHash": 1251334711
  },
  {
    "titleID": 10115,
    "titleNameTextMapHash": 1998443119
  },
  {
    "titleID": 10116,
    "titleNameTextMapHash": 2151656799
  },
  {
    "titleID": 10117,
    "titleNameTextMapHash": 1948885815
  },
  {
    "titleID": 10118,
    "titleNameTextMapHash": 4136286407
  },
  {
    "titleID": 10119,
    "titleNameTextMapHash": 2688541903
  },
  {
    "titleID": 10120,
    "titleNameTextMapHash": 942068191
  },
  {
    "titleID": 10121,
    "titleNameTextMapHash": 962313223
  },
  {
    "titleID": 10122,
    "titleNameTextMapHash": 1607400975,
    "isInverted": true
  },
  {
    "titleID": 10123,
    "titleNameTextMapHash": 825116295
  },
  {
    "titleID": 10124,
    "titleNameTextMapHash": 1025188215
  },
  {
    "titleID": 10125,
    "titleNameTextMapHash": 3333600231
  },
  {
    "titleID": 10126,
    "titleNameTextMapHash": 1927994727
  },
  {
    "titleID": 10127,
    "titleNameTextMapHash": 1706844919
  },
  {
    "titleID": 10128,
    "titleNameTextMapHash": 3495238863
  },
  {
    "titleID": 10129,
    "titleNameTextMapHash": 1213266559
  },
  {
    "titleID": 10130,
    "titleNameTextMapHash": 227996975,
    "isInverted": true
  },
  {
    "titleID": 10131,
    "titleNameTextMapHash": 2555065455
  },
  {
    "titleID": 10132,
    "titleNameTextMapHash": 1378366247
  },
  {
    "titleID": 10133,
    "titleNameTextMapHash": 3179707247
  },
  {
    "titleID": 10134,
    "titleNameTextMapHash": 1979682287
  },
  {
    "titleID": 10135,
    "titleNameTextMapHash": 1018227823,
    "isInverted": true
  },
  {
    "titleID": 10136,
    "titleNameTextMapHash": 4063307727
  },
  {
    "titleID": 10137,
    "titleNameTextMapHash": 3676802999
  },
  {
    "titleID": 10138,
    "titleNameTextMapHash": 2175928495
  },
  {
    "titleID": 10139,
    "titleNameTextMapHash": 3587791423
  },
  {
    "titleID": 10140,
    "titleNameTextMapHash": 2454019359
  },
  {
    "titleID": 10141,
    "titleNameTextMapHash": 2470556735
  },
  {
    "titleID": 10142,
    "titleNameTextMapHash": 961698623
  },
  {
    "titleID": 10143,
    "titleNameTextMapHash": 1769515655
  },
  {
    "titleID": 10144,
    "titleNameTextMapHash": 1665666167
  },
  {
    "titleID": 10145,
    "titleNameTextMapHash": 618997999
  },
  {
    "titleID": 10146,
    "titleNameTextMapHash": 217653751
  },
  {
    "titleID": 10147,
    "titleNameTextMapHash": 3286065263
  },
  {
    "titleID": 10148,
    "titleNameTextMapHash": 3353150167
  },
  {
    "titleID": 10149,
    "titleNameTextMapHash": 838159919
  },
  {
    "titleID": 10150,
    "titleNameTextMapHash": 1022641639
  },
  {
    "titleID": 10151,
    "titleNameTextMapHash": 321154543
  },
  {
    "titleID": 10152,
    "titleNameTextMapHash": 2736527351
  },
  {
    "titleID": 10153,
    "titleNameTextMapHash": 598232783
  },
  {
    "titleID": 10154,
    "titleNameTextMapHash": 2769860575
  },
  {
    "titleID": 10155,
    "titleNameTextMapHash": 1720495007
  },
  {
    "titleID": 10156,
    "titleNameTextMapHash": 3376056359
  },
  {
    "titleID": 10157,
    "titleNameTextMapHash": 2471049479
  },
  {
    "titleID": 10158,
    "titleNameTextMapHash": 1270015447
  },
  {
    "titleID": 10159,
    "titleNameTextMapHash": 2506793055
  },
  {
    "titleID": 10160,
    "titleNameTextMapHash": 571846231
  },
  {
    "titleID": 10161,
    "titleNameTextMapHash": 2724859279
  },
  {
    "titleID": 10162,
    "titleNameTextMapHash": 1659990215
  },
  {
    "titleID": 10163,
    "titleNameTextMapHash": 25752639
  },
  {
    "titleID": 10164,
    "titleNameTextMapHash": 2376535767
  },
  {
    "titleID": 10165,
    "titleNameTextMapHash": 4196613199
  },
  {
    "titleID": 10166,
    "titleNameTextMapHash": 1248076759
  },
  {
    "titleID": 10167,
    "titleNameTextMapHash": 4254222031
  },
  {
    "titleID": 10168,
    "titleNameTextMapHash": 3738478279
  },
  {
    "titleID": 10169,
    "titleNameTextMapHash": 1080392559
  },
  {
    "titleID": 10170,
    "titleNameTextMapHash": 2865146119,
    "isInverted": true
  },
  {
    "titleID": 10171,
    "titleNameTextMapHash": 1066811463
  },
  {
    "titleID": 10172,
    "titleNameTextMapHash": 2086562935
  },
  {
    "titleID": 10173,
    "titleNameTextMapHash": 274692439
  },
  {
    "titleID": 10174,
    "titleNameTextMapHash": 1995072903
  },
  {
    "titleID": 10175,
    "titleNameTextMapHash": 2274608487
  }
]
