[
  {
    "JAHGAFOCEAH": 1,
    "EIPHELDNGAL": [201],
    "HIIGKKBHEFH": "0,1.5,0",
    "JMGOPBAOOMC": "20,20,0",
    "DFPKGOICLDL": "542.4,54,240.7",
    "JMKDEGNKBBC": "-3,3,-5,5,-3,3",
    "BLINMGCFNIK": "542.4,54,240.7",
    "NHGNEELBEDE": "",
    "HKMPPNCPHPP": "",
    "DMHLNFGLOOF": "45"
  },
  {
    "JAHGAFOCEAH": 2,
    "EIPHELDNGAL": [201],
    "HIIGKKBHEFH": "0,1.5,0",
    "JMGOPBAOOMC": "",
    "DFPKGOICLDL": "",
    "JMKDEGNKBBC": "",
    "BLINMGCFNIK": "",
    "NHGNEELBEDE": "",
    "HKMPPNCPHPP": "",
    "DMHLNFGLOOF": "45"
  },
  {
    "JAHGAFOCEAH": 3,
    "EIPHELDNGAL": [405],
    "HIIGKKBHEFH": "0,1.5,0",
    "JMGOPBAOOMC": "5.18,43.54,0",
    "DFPKGOICLDL": "543,50.34,-241.71",
    "JMKDEGNKBBC": "-3,1.5,-1.04,5,-3,3",
    "BLINMGCFNIK": "544.169,50.34,-242.822",
    "NHGNEELBEDE": "",
    "HKMPPNCPHPP": "",
    "DMHLNFGLOOF": "45"
  },
  {
    "JAHGAFOCEAH": 4,
    "EIPHELDNGAL": [305, 205],
    "HIIGKKBHEFH": "0,1.5,0",
    "JMGOPBAOOMC": "339.18,314.31,0",
    "DFPKGOICLDL": "548.27,63.8,-198.14;550.71,67.09,-202.03",
    "JMKDEGNKBBC": "-2.4,1.8,-1.26,5,-0.76,3",
    "BLINMGCFNIK": "550.41,63.92,-200.62",
    "NHGNEELBEDE": "",
    "HKMPPNCPHPP": "",
    "DMHLNFGLOOF": "45"
  },
  {
    "JAHGAFOCEAH": 5,
    "EIPHELDNGAL": [205],
    "HIIGKKBHEFH": "0,1.5,0",
    "JMGOPBAOOMC": "354.11,57.39,0",
    "DFPKGOICLDL": "599.34,61.49,-161.63",
    "JMKDEGNKBBC": "-2.1,1.8,-0.59,5,-3,3",
    "BLINMGCFNIK": "597.699,60.672,-163.35",
    "NHGNEELBEDE": "",
    "HKMPPNCPHPP": "",
    "DMHLNFGLOOF": "45"
  },
  {
    "JAHGAFOCEAH": 6,
    "EIPHELDNGAL": [205],
    "HIIGKKBHEFH": "0,1.5,0",
    "JMGOPBAOOMC": "348.65,2.137,0",
    "DFPKGOICLDL": "610.91,63.56,-170.62",
    "JMKDEGNKBBC": "-3,3,-0.39,5,-3,3",
    "BLINMGCFNIK": "611.17,60.692,-169.04",
    "NHGNEELBEDE": "",
    "HKMPPNCPHPP": "",
    "DMHLNFGLOOF": "45"
  },
  {
    "JAHGAFOCEAH": 7,
    "EIPHELDNGAL": [605],
    "HIIGKKBHEFH": "0,1.5,0",
    "JMGOPBAOOMC": "51.22,0.47,0",
    "DFPKGOICLDL": "694.73,74.07,-108.88",
    "JMKDEGNKBBC": "-1.2,1.2,-0.07,5,-3,3",
    "BLINMGCFNIK": "694.7,75.31001,-112.14",
    "NHGNEELBEDE": "",
    "HKMPPNCPHPP": "",
    "DMHLNFGLOOF": "45"
  },
  {
    "JAHGAFOCEAH": 8,
    "EIPHELDNGAL": [605],
    "HIIGKKBHEFH": "0,1.5,0",
    "JMGOPBAOOMC": "43.78,90.19,0",
    "DFPKGOICLDL": "688.34,79.47548,-102.52",
    "JMKDEGNKBBC": "-0.4,2.8,-0.001,5,-3,3",
    "BLINMGCFNIK": "687.05,75.291,-102.51",
    "NHGNEELBEDE": "",
    "HKMPPNCPHPP": "",
    "DMHLNFGLOOF": "45"
  },
  {
    "JAHGAFOCEAH": 9,
    "EIPHELDNGAL": [605],
    "HIIGKKBHEFH": "0,1.5,0",
    "JMGOPBAOOMC": "40.43,182.77,0",
    "DFPKGOICLDL": "699.43,78.03,-98.28",
    "JMKDEGNKBBC": "-1.6,1.5,-0.41,5,-3,3",
    "BLINMGCFNIK": "700.74,75.291,-96.01",
    "NHGNEELBEDE": "",
    "HKMPPNCPHPP": "",
    "DMHLNFGLOOF": "45"
  },
  {
    "JAHGAFOCEAH": 10,
    "EIPHELDNGAL": [205],
    "HIIGKKBHEFH": "0,1.5,0",
    "JMGOPBAOOMC": "320.64,65.59,0",
    "DFPKGOICLDL": "665.55,62.89,-43.31",
    "JMKDEGNKBBC": "-3,3,-0.003,5,-1.79,3",
    "BLINMGCFNIK": "669.01,59.92,-45.04",
    "NHGNEELBEDE": "",
    "HKMPPNCPHPP": "",
    "DMHLNFGLOOF": "45"
  },
  {
    "JAHGAFOCEAH": 11,
    "EIPHELDNGAL": [405],
    "HIIGKKBHEFH": "0,1.5,0",
    "JMGOPBAOOMC": "6.54,89.41,0",
    "DFPKGOICLDL": "-107.01,90.38,21.92",
    "JMKDEGNKBBC": "-1.6,1.6,-1.0,5,-3,3",
    "BLINMGCFNIK": "-107.42,86.905,22.32",
    "NHGNEELBEDE": "",
    "HKMPPNCPHPP": "",
    "DMHLNFGLOOF": "45"
  },
  {
    "JAHGAFOCEAH": 12,
    "EIPHELDNGAL": [405],
    "HIIGKKBHEFH": "0,1.5,0",
    "JMGOPBAOOMC": "2.39,0.019,0",
    "DFPKGOICLDL": "-24.02,85.39,90.65",
    "JMKDEGNKBBC": "-2,2,-1.19,5,-3,3",
    "BLINMGCFNIK": "-24.02,86.392,90.69",
    "NHGNEELBEDE": "",
    "HKMPPNCPHPP": "",
    "DMHLNFGLOOF": "45"
  },
  {
    "JAHGAFOCEAH": 13,
    "EIPHELDNGAL": [305],
    "HIIGKKBHEFH": "0,1.5,0",
    "JMGOPBAOOMC": "358.74,284.14,0",
    "DFPKGOICLDL": "36.75,65.03,160.29",
    "JMKDEGNKBBC": "-3,3,-0.59,5,-3,3",
    "BLINMGCFNIK": "35.98,63.032,157.40",
    "NHGNEELBEDE": "",
    "HKMPPNCPHPP": "",
    "DMHLNFGLOOF": "45"
  },
  {
    "JAHGAFOCEAH": 14,
    "EIPHELDNGAL": [405],
    "HIIGKKBHEFH": "0,1.5,0",
    "JMGOPBAOOMC": "9.32,96.67,0",
    "DFPKGOICLDL": "-12.02,91.17,177.82",
    "JMKDEGNKBBC": "-3,3,-0.8,5,-3,3",
    "BLINMGCFNIK": "-11.81,90.27717,180.819",
    "NHGNEELBEDE": "-1,1,-0.01,1,-2,2",
    "HKMPPNCPHPP": "-14.89,86.69,160.33",
    "DMHLNFGLOOF": "45"
  },
  {
    "JAHGAFOCEAH": 15,
    "EIPHELDNGAL": [405],
    "HIIGKKBHEFH": "0,1.5,0",
    "JMGOPBAOOMC": "7.27,180.09,0",
    "DFPKGOICLDL": "-22.79,90.16,-21.90",
    "JMKDEGNKBBC": "-1.79,2.8,-0.3,5,-3,3",
    "BLINMGCFNIK": "-22.80,86.34,-24.25",
    "NHGNEELBEDE": "",
    "HKMPPNCPHPP": "",
    "DMHLNFGLOOF": "45"
  },
  {
    "JAHGAFOCEAH": 16,
    "EIPHELDNGAL": [405],
    "HIIGKKBHEFH": "0,1.5,0",
    "JMGOPBAOOMC": "2.2,2.8,0",
    "DFPKGOICLDL": "-64.42,91.59,-135.73",
    "JMKDEGNKBBC": "-1,1.4,-1.2,5,-3,3",
    "BLINMGCFNIK": "-63.43,91.4,-135.78",
    "NHGNEELBEDE": "",
    "HKMPPNCPHPP": "",
    "DMHLNFGLOOF": "45"
  },
  {
    "JAHGAFOCEAH": 17,
    "EIPHELDNGAL": [405],
    "HIIGKKBHEFH": "0,1.5,0",
    "JMGOPBAOOMC": "2.79,88.35,0",
    "DFPKGOICLDL": "-83.77,90.83,-84.18",
    "JMKDEGNKBBC": "-3,3,-0.4,5,-3,3",
    "BLINMGCFNIK": "-80.91,89.499,-84.1",
    "NHGNEELBEDE": "",
    "HKMPPNCPHPP": "",
    "DMHLNFGLOOF": "45"
  },
  {
    "JAHGAFOCEAH": 18,
    "EIPHELDNGAL": [405],
    "HIIGKKBHEFH": "0,1.5,0",
    "JMGOPBAOOMC": "358.16,179.33,0",
    "DFPKGOICLDL": "-23.85,90.63,-69.03",
    "JMKDEGNKBBC": "-3,3,-1.2,5,-3,3",
    "BLINMGCFNIK": "-25.02,89.73,-72.13",
    "NHGNEELBEDE": "",
    "HKMPPNCPHPP": "",
    "DMHLNFGLOOF": "45"
  },
  {
    "JAHGAFOCEAH": 19,
    "EIPHELDNGAL": [405],
    "HIIGKKBHEFH": "0,1.5,0",
    "JMGOPBAOOMC": "0.98,13.34,0",
    "DFPKGOICLDL": "-97.93,-44.99,24.57",
    "JMKDEGNKBBC": "-3,3,-0.1,1,-0.8,1",
    "BLINMGCFNIK": "-100.077,-44.999,25.08",
    "NHGNEELBEDE": "",
    "HKMPPNCPHPP": "",
    "DMHLNFGLOOF": "45"
  },
  {
    "JAHGAFOCEAH": 20,
    "EIPHELDNGAL": [105],
    "HIIGKKBHEFH": "0,1.5,0",
    "JMGOPBAOOMC": "284.02,88.19,0",
    "DFPKGOICLDL": "-26.84,-25.80,-38.40",
    "JMKDEGNKBBC": "-2.2,3,-2.2,3,0.6,3",
    "BLINMGCFNIK": "-26.94,-25.80299,-35.41",
    "NHGNEELBEDE": "",
    "HKMPPNCPHPP": "",
    "DMHLNFGLOOF": "45"
  },
  {
    "JAHGAFOCEAH": 21,
    "EIPHELDNGAL": [204],
    "HIIGKKBHEFH": "0,1.5,0",
    "JMGOPBAOOMC": "350.54,68.43,0",
    "DFPKGOICLDL": "-1.40,9.33,-92.35",
    "JMKDEGNKBBC": "-3,3,-0.39,5,-3,3",
    "BLINMGCFNIK": "-0.86,5.869,-92.14",
    "NHGNEELBEDE": "",
    "HKMPPNCPHPP": "",
    "DMHLNFGLOOF": "45"
  },
  {
    "JAHGAFOCEAH": 22,
    "EIPHELDNGAL": [206],
    "HIIGKKBHEFH": "0,1.5,0",
    "JMGOPBAOOMC": "358.18,287.13,0",
    "DFPKGOICLDL": "83.922,35.44,-22.18",
    "JMKDEGNKBBC": "-3,3,-1.19,5,-3,3",
    "BLINMGCFNIK": "87.52,31.855,-20.15",
    "NHGNEELBEDE": "",
    "HKMPPNCPHPP": "",
    "DMHLNFGLOOF": "45"
  },
  {
    "JAHGAFOCEAH": 23,
    "EIPHELDNGAL": [405],
    "HIIGKKBHEFH": "0,1.5,0",
    "JMGOPBAOOMC": "6.85,7.49,0",
    "DFPKGOICLDL": "133.94,103.85,13.82",
    "JMKDEGNKBBC": "-3,0.4,-1.01,2.3,-3,0.45",
    "BLINMGCFNIK": "136.31,102.859,13.39",
    "NHGNEELBEDE": "",
    "HKMPPNCPHPP": "",
    "DMHLNFGLOOF": "45"
  },
  {
    "JAHGAFOCEAH": 24,
    "EIPHELDNGAL": [405],
    "HIIGKKBHEFH": "0,1.5,0",
    "JMGOPBAOOMC": "2.62,359.64,0",
    "DFPKGOICLDL": "116.48,89.10,7.06",
    "JMKDEGNKBBC": "-1.89,1.39,-1.03,5,-1.71,3",
    "BLINMGCFNIK": "116.47,89.18,7.61",
    "NHGNEELBEDE": "",
    "HKMPPNCPHPP": "",
    "DMHLNFGLOOF": "45"
  },
  {
    "JAHGAFOCEAH": 25,
    "EIPHELDNGAL": [405],
    "HIIGKKBHEFH": "0,1.5,0",
    "JMGOPBAOOMC": "9.1,183.27,0",
    "DFPKGOICLDL": "121.09,102.01,34.78",
    "JMKDEGNKBBC": "-1.8,1.4,-1.06,5,-2.3,3",
    "BLINMGCFNIK": "121.35,102.987,35.79",
    "NHGNEELBEDE": "",
    "HKMPPNCPHPP": "",
    "DMHLNFGLOOF": "45"
  },
  {
    "JAHGAFOCEAH": 26,
    "EIPHELDNGAL": [605],
    "HIIGKKBHEFH": "0,1.5,0",
    "JMGOPBAOOMC": "33.27,101.96,0",
    "DFPKGOICLDL": "-12.63,40.15,61.39",
    "JMKDEGNKBBC": "-0.4,3,-0.23,5,-3,0.7",
    "BLINMGCFNIK": "-12.55,39.82,62.80",
    "NHGNEELBEDE": "",
    "HKMPPNCPHPP": "",
    "DMHLNFGLOOF": "45"
  },
  {
    "JAHGAFOCEAH": 27,
    "EIPHELDNGAL": [604],
    "HIIGKKBHEFH": "0,1.5,0",
    "JMGOPBAOOMC": "17.17,6.3,0",
    "DFPKGOICLDL": "4.83,39.251,49.30",
    "JMKDEGNKBBC": "-3,0.23,-0.96,5,-3,3",
    "BLINMGCFNIK": "6.27,39.82,45.92",
    "NHGNEELBEDE": "",
    "HKMPPNCPHPP": "",
    "DMHLNFGLOOF": "45"
  },
  {
    "JAHGAFOCEAH": 28,
    "EIPHELDNGAL": [605],
    "HIIGKKBHEFH": "0,1.5,0",
    "JMGOPBAOOMC": "15.26,126.24,0",
    "DFPKGOICLDL": "-7.03,39.34,75.52",
    "JMKDEGNKBBC": "-1.6,0.39,-0.39,5,-3,3",
    "BLINMGCFNIK": "-9.87,39.82,76.70",
    "NHGNEELBEDE": "",
    "HKMPPNCPHPP": "",
    "DMHLNFGLOOF": "45"
  },
  {
    "JAHGAFOCEAH": 29,
    "EIPHELDNGAL": [205],
    "HIIGKKBHEFH": "0,1.5,0",
    "JMGOPBAOOMC": "331.73,194.58,0",
    "DFPKGOICLDL": "699.88,79.49,-134",
    "JMKDEGNKBBC": "-3,1.4,-5,5,-3,3",
    "BLINMGCFNIK": "700.81,79.61,-135.09",
    "NHGNEELBEDE": "",
    "HKMPPNCPHPP": "",
    "DMHLNFGLOOF": "45"
  },
  {
    "JAHGAFOCEAH": 30,
    "EIPHELDNGAL": [205],
    "HIIGKKBHEFH": "0,1.5,0",
    "JMGOPBAOOMC": "333.86,344.43,0",
    "DFPKGOICLDL": "699.85,79.62,-150.1",
    "JMKDEGNKBBC": "-3,3,-0.39,5,-3,3",
    "BLINMGCFNIK": "701.14,75.31,-150.32",
    "NHGNEELBEDE": "",
    "HKMPPNCPHPP": "",
    "DMHLNFGLOOF": "45"
  },
  {
    "JAHGAFOCEAH": 31,
    "EIPHELDNGAL": [404],
    "HIIGKKBHEFH": "0,1.5,0",
    "JMGOPBAOOMC": "356.01,338.66,0",
    "DFPKGOICLDL": "58.15,42.947,-40.614",
    "JMKDEGNKBBC": "-3,1,-0.457,5,-3,2.6",
    "BLINMGCFNIK": "58.05,43.051,-39.94",
    "NHGNEELBEDE": "-1,1,-0.457,2,-2,2.6",
    "HKMPPNCPHPP": "28.44794,43,-10.34",
    "DMHLNFGLOOF": "45"
  },
  {
    "JAHGAFOCEAH": 32,
    "EIPHELDNGAL": [405],
    "HIIGKKBHEFH": "0,1.5,0",
    "JMGOPBAOOMC": "359.65,7.5,0",
    "DFPKGOICLDL": "43.75,37.32,-35.7",
    "JMKDEGNKBBC": "-1.3,3,-1,5,-3,3",
    "BLINMGCFNIK": "40.79,37.927,-35.24",
    "NHGNEELBEDE": "",
    "HKMPPNCPHPP": "",
    "DMHLNFGLOOF": "45"
  },
  {
    "JAHGAFOCEAH": 33,
    "EIPHELDNGAL": [405],
    "HIIGKKBHEFH": "0,1.5,0",
    "JMGOPBAOOMC": "1.075,356.53,0",
    "DFPKGOICLDL": "55.82,38.86,-32.42",
    "JMKDEGNKBBC": "-3,1.6,-0.92,5,-3,3",
    "BLINMGCFNIK": "59.00,37.927,-35.28",
    "NHGNEELBEDE": "",
    "HKMPPNCPHPP": "",
    "DMHLNFGLOOF": "45"
  },
  {
    "JAHGAFOCEAH": 34,
    "EIPHELDNGAL": [305],
    "HIIGKKBHEFH": "0,1.5,0",
    "JMGOPBAOOMC": "20,20,0",
    "DFPKGOICLDL": "-5.32,84.79,22.38",
    "JMKDEGNKBBC": "-3,3,-5,5,-3,3",
    "BLINMGCFNIK": "-5.32,84.79,22.38",
    "NHGNEELBEDE": "",
    "HKMPPNCPHPP": "",
    "DMHLNFGLOOF": "45"
  },
  {
    "JAHGAFOCEAH": 35,
    "EIPHELDNGAL": [305],
    "HIIGKKBHEFH": "0,1.5,0",
    "JMGOPBAOOMC": "20,20,0",
    "DFPKGOICLDL": "-5.32,84.79,22.38",
    "JMKDEGNKBBC": "-3,3,-5,5,-3,3",
    "BLINMGCFNIK": "-5.32,84.79,22.38",
    "NHGNEELBEDE": "",
    "HKMPPNCPHPP": "",
    "DMHLNFGLOOF": "45"
  },
  {
    "JAHGAFOCEAH": 36,
    "EIPHELDNGAL": [305],
    "HIIGKKBHEFH": "0,1.5,0",
    "JMGOPBAOOMC": "337.12,89.49,0",
    "DFPKGOICLDL": "-3.81,86.49,22.19",
    "JMKDEGNKBBC": "-3,3,-0.19,5,-3,3",
    "BLINMGCFNIK": "-5.32,86.295,22.38",
    "NHGNEELBEDE": "",
    "HKMPPNCPHPP": "",
    "DMHLNFGLOOF": "45"
  }
]
