[
  {
    "taskID": 1,
    "ID": 351,
    "objectID": "quest1_1_351",
    "IBOOHHBGJAH": "1.5.0"
  },
  {
    "taskID": 1,
    "hidden": true,
    "ID": 352,
    "objectID": "quest1_1_352",
    "IBOOHHBGJAH": "1.5.0"
  },
  {
    "taskID": 1,
    "hidden": true,
    "ID": 353,
    "objectID": "quest1_1_353",
    "IBOOHHBGJAH": "1.5.0"
  },
  {
    "taskID": 1,
    "hidden": true,
    "ID": 355,
    "objectID": "quest1_1_355",
    "IBOOHHBGJAH": "1.5.0"
  },
  {
    "taskID": 1,
    "hidden": true,
    "ID": 354,
    "objectID": "quest1_1_354",
    "IBOOHHBGJAH": "1.5.0"
  },
  {
    "taskID": 1,
    "hidden": true,
    "ID": 360,
    "objectID": "quest1_1_360",
    "IBOOHHBGJAH": "1.5.0"
  },
  {
    "taskID": 1,
    "hidden": true,
    "ID": 356,
    "objectID": "quest1_1_356",
    "IBOOHHBGJAH": "1.5.0"
  },
  {
    "taskID": 1,
    "hidden": true,
    "ID": 357,
    "objectID": "quest1_1_357",
    "IBOOHHBGJAH": "1.5.0"
  },
  {
    "taskID": 1,
    "hidden": true,
    "ID": 358,
    "objectID": "quest1_1_358",
    "IBOOHHBGJAH": "1.5.0"
  },
  {
    "taskID": 1,
    "hidden": true,
    "ID": 306,
    "objectID": "quest1_1_306",
    "IBOOHHBGJAH": "1.5.0"
  },
  {
    "taskID": 1,
    "hidden": true,
    "ID": 307,
    "objectID": "quest1_1_307",
    "IBOOHHBGJAH": "1.5.0"
  },
  {
    "taskID": 1,
    "hidden": true,
    "ID": 308,
    "objectID": "quest1_1_308",
    "IBOOHHBGJAH": "1.5.0"
  },
  {
    "taskID": 2,
    "hidden": true,
    "ID": 370,
    "objectID": "quest1_2_370",
    "IBOOHHBGJAH": "1.5.0"
  },
  {
    "taskID": 2,
    "hidden": true,
    "ID": 371,
    "objectID": "quest1_2_371",
    "IBOOHHBGJAH": "1.5.0"
  },
  {
    "taskID": 2,
    "hidden": true,
    "ID": 372,
    "objectID": "quest1_2_372",
    "IBOOHHBGJAH": "1.5.0"
  },
  {
    "taskID": 2,
    "hidden": true,
    "ID": 373,
    "objectID": "quest1_2_373",
    "IBOOHHBGJAH": "1.5.0"
  },
  {
    "taskID": 2,
    "hidden": true,
    "ID": 374,
    "objectID": "quest1_2_374",
    "IBOOHHBGJAH": "1.5.0"
  },
  {
    "taskID": 2,
    "hidden": true,
    "ID": 375,
    "objectID": "quest1_2_375",
    "IBOOHHBGJAH": "1.5.0"
  },
  {
    "taskID": 2,
    "hidden": true,
    "ID": 376,
    "objectID": "quest1_2_376",
    "IBOOHHBGJAH": "1.5.0"
  },
  {
    "taskID": 2,
    "hidden": true,
    "ID": 377,
    "objectID": "quest1_2_377",
    "IBOOHHBGJAH": "1.5.0"
  },
  {
    "taskID": 2,
    "hidden": true,
    "ID": 20101,
    "objectID": "quest1_2_20101",
    "IBOOHHBGJAH": "1.5.0"
  },
  {
    "taskID": 2,
    "hidden": true,
    "ID": 379,
    "objectID": "quest1_2_379",
    "IBOOHHBGJAH": "1.5.0"
  },
  {
    "taskID": 2,
    "hidden": true,
    "ID": 380,
    "objectID": "quest1_2_380",
    "IBOOHHBGJAH": "1.5.0"
  },
  {
    "taskID": 2,
    "hidden": true,
    "ID": 381,
    "objectID": "quest1_2_381",
    "IBOOHHBGJAH": "1.5.0"
  },
  {
    "taskID": 2,
    "hidden": true,
    "ID": 382,
    "objectID": "quest1_2_382",
    "IBOOHHBGJAH": "1.5.0"
  },
  {
    "taskID": 2,
    "hidden": true,
    "ID": 383,
    "objectID": "quest1_2_383",
    "IBOOHHBGJAH": "1.5.0"
  },
  {
    "taskID": 2,
    "hidden": true,
    "ID": 384,
    "objectID": "quest1_2_384",
    "IBOOHHBGJAH": "1.5.0"
  },
  {
    "taskID": 3,
    "hidden": true,
    "ID": 397,
    "objectID": "quest1_3_397",
    "IBOOHHBGJAH": "1.5.0"
  },
  {
    "taskID": 3,
    "hidden": true,
    "ID": 388,
    "objectID": "quest1_3_388",
    "IBOOHHBGJAH": "1.5.0"
  },
  {
    "taskID": 3,
    "hidden": true,
    "ID": 389,
    "objectID": "quest1_3_389",
    "IBOOHHBGJAH": "1.5.0"
  },
  {
    "taskID": 3,
    "hidden": true,
    "ID": 390,
    "objectID": "quest1_3_390",
    "IBOOHHBGJAH": "1.5.0"
  },
  {
    "taskID": 3,
    "hidden": true,
    "ID": 393,
    "objectID": "quest1_3_393",
    "IBOOHHBGJAH": "1.5.0"
  },
  {
    "taskID": 3,
    "hidden": true,
    "ID": 394,
    "objectID": "quest1_3_394",
    "IBOOHHBGJAH": "1.5.0"
  },
  {
    "taskID": 3,
    "hidden": true,
    "ID": 398,
    "objectID": "quest1_3_398",
    "IBOOHHBGJAH": "1.5.0"
  },
  {
    "taskID": 4,
    "hidden": true,
    "ID": 1000,
    "objectID": "quest2_1_1000",
    "IBOOHHBGJAH": "1.5.0"
  },
  {
    "taskID": 4,
    "hidden": true,
    "ID": 1002,
    "objectID": "quest2_1_1002",
    "IBOOHHBGJAH": "1.5.0"
  },
  {
    "taskID": 4,
    "hidden": true,
    "ID": 1003,
    "objectID": "quest2_1_1003",
    "IBOOHHBGJAH": "1.5.0"
  },
  {
    "taskID": 4,
    "hidden": true,
    "ID": 1008,
    "objectID": "quest2_1_1008",
    "IBOOHHBGJAH": "1.5.0"
  },
  {
    "taskID": 4,
    "hidden": true,
    "ID": 1009,
    "objectID": "quest2_1_1009",
    "IBOOHHBGJAH": "1.5.0"
  },
  {
    "taskID": 4,
    "hidden": true,
    "ID": 1018,
    "objectID": "quest2_1_1018",
    "IBOOHHBGJAH": "1.5.0"
  },
  {
    "taskID": 5,
    "hidden": true,
    "ID": 1010,
    "objectID": "quest2_2_1010",
    "IBOOHHBGJAH": "1.5.0"
  },
  {
    "taskID": 5,
    "hidden": true,
    "ID": 1011,
    "objectID": "quest2_2_1011",
    "IBOOHHBGJAH": "1.5.0"
  },
  {
    "taskID": 5,
    "hidden": true,
    "ID": 1012,
    "objectID": "quest2_2_1012",
    "IBOOHHBGJAH": "1.5.0"
  },
  {
    "taskID": 5,
    "hidden": true,
    "ID": 1014,
    "objectID": "quest2_2_1014",
    "IBOOHHBGJAH": "1.5.0"
  },
  {
    "taskID": 5,
    "hidden": true,
    "ID": 1013,
    "objectID": "quest2_2_1013",
    "IBOOHHBGJAH": "1.5.0"
  },
  {
    "taskID": 5,
    "hidden": true,
    "ID": 1015,
    "objectID": "quest2_2_1015",
    "IBOOHHBGJAH": "1.5.0"
  },
  {
    "taskID": 5,
    "hidden": true,
    "ID": 1016,
    "objectID": "quest2_2_1016",
    "IBOOHHBGJAH": "1.5.0"
  },
  {
    "taskID": 6,
    "hidden": true,
    "ID": 1020,
    "objectID": "quest2_3_1020",
    "IBOOHHBGJAH": "1.5.0"
  },
  {
    "taskID": 6,
    "hidden": true,
    "ID": 1021,
    "objectID": "quest2_3_1021",
    "IBOOHHBGJAH": "1.5.0"
  },
  {
    "taskID": 6,
    "hidden": true,
    "ID": 1022,
    "objectID": "quest2_3_1022",
    "IBOOHHBGJAH": "1.5.0"
  },
  {
    "taskID": 6,
    "hidden": true,
    "ID": 1023,
    "objectID": "quest2_3_1023",
    "IBOOHHBGJAH": "1.5.0"
  },
  {
    "taskID": 6,
    "hidden": true,
    "ID": 1024,
    "objectID": "quest2_3_1024",
    "IBOOHHBGJAH": "1.5.0"
  },
  {
    "taskID": 6,
    "hidden": true,
    "ID": 1025,
    "objectID": "quest2_3_1025",
    "IBOOHHBGJAH": "1.5.0"
  },
  {
    "taskID": 7,
    "hidden": true,
    "ID": 8000,
    "objectID": "quest2_4_8000",
    "IBOOHHBGJAH": "1.5.0"
  },
  {
    "taskID": 7,
    "hidden": true,
    "ID": 8001,
    "objectID": "quest2_4_8001",
    "IBOOHHBGJAH": "1.5.0"
  },
  {
    "taskID": 7,
    "hidden": true,
    "ID": 8002,
    "objectID": "quest2_4_8002",
    "IBOOHHBGJAH": "1.5.0"
  },
  {
    "taskID": 7,
    "hidden": true,
    "ID": 8003,
    "objectID": "quest2_4_8003",
    "IBOOHHBGJAH": "1.5.0"
  },
  {
    "taskID": 8,
    "hidden": true,
    "ID": 2000,
    "objectID": "quest3_1_2000",
    "IBOOHHBGJAH": "1.6.0"
  },
  {
    "taskID": 8,
    "hidden": true,
    "ID": 2001,
    "objectID": "quest3_1_2001",
    "IBOOHHBGJAH": "1.6.0"
  },
  {
    "taskID": 8,
    "hidden": true,
    "ID": 2002,
    "objectID": "quest3_1_2002",
    "IBOOHHBGJAH": "1.6.0"
  },
  {
    "taskID": 9,
    "hidden": true,
    "ID": 2011,
    "objectID": "quest3_2_2011",
    "IBOOHHBGJAH": "2.0.0"
  },
  {
    "taskID": 9,
    "hidden": true,
    "ID": 2012,
    "objectID": "quest3_2_2012",
    "IBOOHHBGJAH": "2.0.0"
  },
  {
    "taskID": 9,
    "hidden": true,
    "ID": 2013,
    "objectID": "quest3_2_2013",
    "IBOOHHBGJAH": "2.0.0"
  },
  {
    "taskID": 9,
    "hidden": true,
    "ID": 2003,
    "objectID": "quest3_2_2003",
    "IBOOHHBGJAH": "2.0.0"
  },
  {
    "taskID": 9,
    "hidden": true,
    "ID": 2004,
    "objectID": "quest3_2_2004",
    "IBOOHHBGJAH": "2.0.0"
  },
  {
    "taskID": 9,
    "hidden": true,
    "ID": 2005,
    "objectID": "quest3_2_2005",
    "IBOOHHBGJAH": "2.0.0"
  },
  {
    "taskID": 9,
    "hidden": true,
    "ID": 2006,
    "objectID": "quest3_2_2006",
    "IBOOHHBGJAH": "2.0.0"
  },
  {
    "taskID": 9,
    "hidden": true,
    "ID": 2007,
    "objectID": "quest3_2_2007",
    "IBOOHHBGJAH": "2.0.0"
  },
  {
    "taskID": 10,
    "hidden": true,
    "ID": 2008,
    "objectID": "quest3_3_2008",
    "IBOOHHBGJAH": "2.0.0"
  },
  {
    "taskID": 10,
    "hidden": true,
    "ID": 2009,
    "objectID": "quest3_3_2009",
    "IBOOHHBGJAH": "2.0.0"
  },
  {
    "taskID": 11,
    "hidden": true,
    "ID": 2010,
    "objectID": "quest3_4_2010",
    "IBOOHHBGJAH": "2.1.0"
  },
  {
    "taskID": 11,
    "hidden": true,
    "ID": 2014,
    "objectID": "quest3_4_2014",
    "IBOOHHBGJAH": "2.1.0"
  },
  {
    "taskID": 11,
    "hidden": true,
    "ID": 2015,
    "objectID": "quest3_4_2015",
    "IBOOHHBGJAH": "2.1.0"
  },
  {
    "taskID": 11,
    "hidden": true,
    "ID": 2016,
    "objectID": "quest3_4_2016",
    "IBOOHHBGJAH": "2.1.0"
  },
  {
    "taskID": 11,
    "hidden": true,
    "ID": 2017,
    "objectID": "quest3_4_2017",
    "IBOOHHBGJAH": "2.1.0"
  },
  {
    "taskID": 11,
    "hidden": true,
    "ID": 2018,
    "objectID": "quest3_4_2018",
    "IBOOHHBGJAH": "2.1.0"
  },
  {
    "taskID": 11,
    "hidden": true,
    "ID": 2019,
    "objectID": "quest3_4_2019",
    "IBOOHHBGJAH": "2.1.0"
  },
  {
    "taskID": 11,
    "hidden": true,
    "ID": 2020,
    "objectID": "quest3_4_2020",
    "IBOOHHBGJAH": "2.1.0"
  },
  {
    "taskID": 11,
    "hidden": true,
    "ID": 2021,
    "objectID": "quest3_4_2021",
    "IBOOHHBGJAH": "2.1.0"
  },
  {
    "taskID": 12,
    "hidden": true,
    "ID": 8004,
    "objectID": "quest3_5_8004",
    "IBOOHHBGJAH": "2.6.0"
  },
  {
    "taskID": 12,
    "hidden": true,
    "ID": 8005,
    "objectID": "quest3_5_8005",
    "IBOOHHBGJAH": "2.6.0"
  },
  {
    "taskID": 12,
    "hidden": true,
    "ID": 8006,
    "objectID": "quest3_5_8006",
    "IBOOHHBGJAH": "2.6.0"
  },
  {
    "taskID": 12,
    "hidden": true,
    "ID": 8007,
    "objectID": "quest3_5_8007",
    "IBOOHHBGJAH": "2.6.0"
  },
  {
    "taskID": 13,
    "hidden": true,
    "ID": 3000,
    "objectID": "quest4_1_3000",
    "IBOOHHBGJAH": "3.0.0"
  },
  {
    "taskID": 13,
    "hidden": true,
    "ID": 3001,
    "objectID": "quest4_1_3001",
    "IBOOHHBGJAH": "3.0.0"
  },
  {
    "taskID": 13,
    "hidden": true,
    "ID": 3002,
    "objectID": "quest4_1_3002",
    "IBOOHHBGJAH": "3.0.0"
  },
  {
    "taskID": 13,
    "hidden": true,
    "ID": 3003,
    "objectID": "quest4_1_3003",
    "IBOOHHBGJAH": "3.0.0"
  },
  {
    "taskID": 13,
    "hidden": true,
    "ID": 3004,
    "objectID": "quest4_1_3004",
    "IBOOHHBGJAH": "3.0.0"
  },
  {
    "taskID": 13,
    "hidden": true,
    "ID": 3005,
    "objectID": "quest4_1_3005",
    "IBOOHHBGJAH": "3.0.0"
  },
  {
    "taskID": 13,
    "hidden": true,
    "ID": 3006,
    "objectID": "quest4_1_3006",
    "IBOOHHBGJAH": "3.0.0"
  },
  {
    "taskID": 14,
    "hidden": true,
    "ID": 3007,
    "objectID": "quest4_2_3007",
    "IBOOHHBGJAH": "3.0.0"
  },
  {
    "taskID": 14,
    "hidden": true,
    "ID": 3008,
    "objectID": "quest4_2_3008",
    "IBOOHHBGJAH": "3.0.0"
  },
  {
    "taskID": 14,
    "hidden": true,
    "ID": 3009,
    "objectID": "quest4_2_3009",
    "IBOOHHBGJAH": "3.0.0"
  },
  {
    "taskID": 14,
    "hidden": true,
    "ID": 3010,
    "objectID": "quest4_2_3010",
    "IBOOHHBGJAH": "3.0.0"
  },
  {
    "taskID": 14,
    "hidden": true,
    "ID": 3011,
    "objectID": "quest4_2_3011",
    "IBOOHHBGJAH": "3.0.0"
  },
  {
    "taskID": 14,
    "hidden": true,
    "ID": 3014,
    "objectID": "quest4_2_3014",
    "IBOOHHBGJAH": "3.0.0"
  },
  {
    "taskID": 14,
    "hidden": true,
    "ID": 3012,
    "objectID": "quest4_2_3012",
    "IBOOHHBGJAH": "3.0.0"
  },
  {
    "taskID": 14,
    "hidden": true,
    "ID": 3013,
    "objectID": "quest4_2_3013",
    "IBOOHHBGJAH": "3.0.0"
  },
  {
    "taskID": 15,
    "hidden": true,
    "ID": 3016,
    "objectID": "quest4_3_3016",
    "IBOOHHBGJAH": "3.1.0"
  },
  {
    "taskID": 15,
    "hidden": true,
    "ID": 3017,
    "objectID": "quest4_3_3017",
    "IBOOHHBGJAH": "3.1.0"
  },
  {
    "taskID": 15,
    "hidden": true,
    "ID": 3018,
    "objectID": "quest4_3_3018",
    "IBOOHHBGJAH": "3.1.0"
  },
  {
    "taskID": 16,
    "hidden": true,
    "ID": 3019,
    "objectID": "quest4_4_3019",
    "IBOOHHBGJAH": "3.1.0"
  },
  {
    "taskID": 16,
    "hidden": true,
    "ID": 3020,
    "objectID": "quest4_4_3020",
    "IBOOHHBGJAH": "3.1.0"
  },
  {
    "taskID": 16,
    "hidden": true,
    "ID": 3021,
    "objectID": "quest4_4_3021",
    "IBOOHHBGJAH": "3.1.0"
  },
  {
    "taskID": 17,
    "hidden": true,
    "ID": 3024,
    "objectID": "quest4_5_3024",
    "IBOOHHBGJAH": "3.2.0"
  },
  {
    "taskID": 17,
    "hidden": true,
    "ID": 3025,
    "objectID": "quest4_5_3025",
    "IBOOHHBGJAH": "3.2.0"
  },
  {
    "taskID": 17,
    "hidden": true,
    "ID": 3022,
    "objectID": "quest4_5_3022",
    "IBOOHHBGJAH": "3.2.0"
  },
  {
    "taskID": 17,
    "hidden": true,
    "ID": 3028,
    "objectID": "quest4_5_3028",
    "IBOOHHBGJAH": "3.2.0"
  },
  {
    "taskID": 17,
    "hidden": true,
    "ID": 3026,
    "objectID": "quest4_5_3026",
    "IBOOHHBGJAH": "3.2.0"
  },
  {
    "taskID": 18,
    "hidden": true,
    "ID": 8009,
    "objectID": "quest4_6_8009",
    "IBOOHHBGJAH": "3.5.0"
  },
  {
    "taskID": 18,
    "hidden": true,
    "ID": 8010,
    "objectID": "quest4_6_8010",
    "IBOOHHBGJAH": "3.5.0"
  },
  {
    "taskID": 18,
    "hidden": true,
    "ID": 8011,
    "objectID": "quest4_6_8011",
    "IBOOHHBGJAH": "3.5.0"
  },
  {
    "taskID": 18,
    "hidden": true,
    "ID": 8012,
    "objectID": "quest4_6_8012",
    "IBOOHHBGJAH": "3.5.0"
  }
]
