[
  {
    "Id": 10010001,
    "parentQuestId": 351,
    "chapterId": 1001,
    "SortOrder": 1,
    "isDisuse": true
  },
  {
    "Id": 10010002,
    "parentQuestId": 352,
    "chapterId": 1001,
    "SortOrder": 2
  },
  {
    "Id": 10010003,
    "parentQuestId": 353,
    "chapterId": 1001,
    "SortOrder": 3
  },
  {
    "Id": 10010005,
    "parentQuestId": 355,
    "chapterId": 1001,
    "SortOrder": 5
  },
  {
    "Id": 10010006,
    "parentQuestId": 354,
    "chapterId": 1001,
    "SortOrder": 6
  },
  {
    "Id": 10010007,
    "parentQuestId": 360,
    "chapterId": 1001,
    "SortOrder": 7
  },
  {
    "Id": 10010008,
    "parentQuestId": 356,
    "chapterId": 1001,
    "SortOrder": 8
  },
  {
    "Id": 10010009,
    "parentQuestId": 357,
    "chapterId": 1001,
    "SortOrder": 9
  },
  {
    "Id": 10010010,
    "parentQuestId": 358,
    "chapterId": 1001,
    "SortOrder": 10
  },
  {
    "Id": 10010011,
    "parentQuestId": 306,
    "chapterId": 1001,
    "SortOrder": 11
  },
  {
    "Id": 10010012,
    "parentQuestId": 307,
    "chapterId": 1001,
    "SortOrder": 12
  },
  {
    "Id": 10010013,
    "parentQuestId": 308,
    "chapterId": 1001,
    "SortOrder": 13
  },
  {
    "Id": 10020001,
    "parentQuestId": 370,
    "chapterId": 1002,
    "SortOrder": 14
  },
  {
    "Id": 10020002,
    "parentQuestId": 371,
    "chapterId": 1002,
    "SortOrder": 15
  },
  {
    "Id": 10020003,
    "parentQuestId": 372,
    "chapterId": 1002,
    "SortOrder": 16
  },
  {
    "Id": 10020004,
    "parentQuestId": 373,
    "chapterId": 1002,
    "SortOrder": 17
  },
  {
    "Id": 10020005,
    "parentQuestId": 374,
    "chapterId": 1002,
    "SortOrder": 18
  },
  {
    "Id": 10020006,
    "parentQuestId": 375,
    "chapterId": 1002,
    "SortOrder": 19
  },
  {
    "Id": 10020007,
    "parentQuestId": 376,
    "chapterId": 1002,
    "SortOrder": 20
  },
  {
    "Id": 10020008,
    "parentQuestId": 377,
    "chapterId": 1002,
    "SortOrder": 21
  },
  {
    "Id": 10020009,
    "parentQuestId": 20101,
    "chapterId": 1002,
    "SortOrder": 22
  },
  {
    "Id": 10020010,
    "parentQuestId": 379,
    "chapterId": 1002,
    "SortOrder": 23
  },
  {
    "Id": 10020011,
    "parentQuestId": 380,
    "chapterId": 1002,
    "SortOrder": 24
  },
  {
    "Id": 10020012,
    "parentQuestId": 381,
    "chapterId": 1002,
    "SortOrder": 25
  },
  {
    "Id": 10020013,
    "parentQuestId": 382,
    "chapterId": 1002,
    "SortOrder": 26
  },
  {
    "Id": 10020014,
    "parentQuestId": 383,
    "chapterId": 1002,
    "SortOrder": 27
  },
  {
    "Id": 10020015,
    "parentQuestId": 384,
    "chapterId": 1002,
    "SortOrder": 28
  },
  {
    "Id": 10030001,
    "parentQuestId": 397,
    "chapterId": 1003,
    "SortOrder": 29
  },
  {
    "Id": 10030002,
    "parentQuestId": 388,
    "chapterId": 1003,
    "SortOrder": 30
  },
  {
    "Id": 10030003,
    "parentQuestId": 389,
    "chapterId": 1003,
    "SortOrder": 31
  },
  {
    "Id": 10030004,
    "parentQuestId": 390,
    "chapterId": 1003,
    "SortOrder": 32
  },
  {
    "Id": 10030005,
    "parentQuestId": 393,
    "chapterId": 1003,
    "SortOrder": 33
  },
  {
    "Id": 10030006,
    "parentQuestId": 394,
    "chapterId": 1003,
    "SortOrder": 34
  },
  {
    "Id": 10030007,
    "parentQuestId": 398,
    "chapterId": 1003,
    "SortOrder": 35
  },
  {
    "Id": 10030008,
    "parentQuestId": 396,
    "chapterId": 1003,
    "SortOrder": 36
  },
  {
    "Id": 10050001,
    "parentQuestId": 481,
    "chapterId": 2003,
    "SortOrder": 1001
  },
  {
    "Id": 10050002,
    "parentQuestId": 480,
    "chapterId": 2003,
    "SortOrder": 1002
  },
  {
    "Id": 10050003,
    "parentQuestId": 427,
    "chapterId": 2003,
    "SortOrder": 1003
  },
  {
    "Id": 10050004,
    "parentQuestId": 484,
    "chapterId": 2003,
    "SortOrder": 1004
  },
  {
    "Id": 10050005,
    "parentQuestId": 485,
    "chapterId": 2003,
    "SortOrder": 1005
  },
  {
    "Id": 10060001,
    "parentQuestId": 10100,
    "chapterId": 2004,
    "SortOrder": 1041
  },
  {
    "Id": 10060002,
    "parentQuestId": 10101,
    "chapterId": 2004,
    "SortOrder": 1042
  },
  {
    "Id": 10080001,
    "parentQuestId": 451,
    "chapterId": 2005,
    "SortOrder": 1061
  },
  {
    "Id": 10080002,
    "parentQuestId": 452,
    "chapterId": 2005,
    "SortOrder": 1062
  },
  {
    "Id": 10080003,
    "parentQuestId": 453,
    "chapterId": 2005,
    "SortOrder": 1063
  },
  {
    "Id": 10080004,
    "parentQuestId": 454,
    "chapterId": 2005,
    "SortOrder": 1064
  },
  {
    "Id": 10090001,
    "parentQuestId": 10200,
    "chapterId": 2009,
    "SortOrder": 1101
  },
  {
    "Id": 10090002,
    "parentQuestId": 10201,
    "chapterId": 2009,
    "SortOrder": 1102
  },
  {
    "Id": 10090003,
    "parentQuestId": 10202,
    "chapterId": 2009,
    "SortOrder": 1103
  },
  {
    "Id": 10110001,
    "parentQuestId": 10110,
    "chapterId": 2013,
    "SortOrder": 1141
  },
  {
    "Id": 10110002,
    "parentQuestId": 10111,
    "chapterId": 2013,
    "SortOrder": 1142
  },
  {
    "Id": 10110003,
    "parentQuestId": 10112,
    "chapterId": 2013,
    "SortOrder": 1143
  },
  {
    "Id": 10110004,
    "parentQuestId": 10113,
    "chapterId": 2013,
    "SortOrder": 1144
  },
  {
    "Id": 10120001,
    "parentQuestId": 10500,
    "chapterId": 2010,
    "SortOrder": 1161
  },
  {
    "Id": 10120002,
    "parentQuestId": 10501,
    "chapterId": 2010,
    "SortOrder": 1162
  },
  {
    "Id": 10120003,
    "parentQuestId": 10502,
    "chapterId": 2010,
    "SortOrder": 1163
  },
  {
    "Id": 10130001,
    "parentQuestId": 1000,
    "chapterId": 1101,
    "SortOrder": 101
  },
  {
    "Id": 10130002,
    "parentQuestId": 1002,
    "chapterId": 1101,
    "SortOrder": 102
  },
  {
    "Id": 10130003,
    "parentQuestId": 1003,
    "chapterId": 1101,
    "SortOrder": 103
  },
  {
    "Id": 10130004,
    "parentQuestId": 1008,
    "chapterId": 1101,
    "SortOrder": 104
  },
  {
    "Id": 10130005,
    "parentQuestId": 1009,
    "chapterId": 1101,
    "SortOrder": 105
  },
  {
    "Id": 10130006,
    "parentQuestId": 1018,
    "chapterId": 1101,
    "SortOrder": 106
  },
  {
    "Id": 10140001,
    "parentQuestId": 1010,
    "chapterId": 1102,
    "SortOrder": 107
  },
  {
    "Id": 10140002,
    "parentQuestId": 1011,
    "chapterId": 1102,
    "SortOrder": 108
  },
  {
    "Id": 10140003,
    "parentQuestId": 1012,
    "chapterId": 1102,
    "SortOrder": 109
  },
  {
    "Id": 10140004,
    "parentQuestId": 1014,
    "chapterId": 1102,
    "SortOrder": 110
  },
  {
    "Id": 10140005,
    "parentQuestId": 1013,
    "chapterId": 1102,
    "SortOrder": 111
  },
  {
    "Id": 10140006,
    "parentQuestId": 1015,
    "chapterId": 1102,
    "SortOrder": 112
  },
  {
    "Id": 10140007,
    "parentQuestId": 1016,
    "chapterId": 1102,
    "SortOrder": 113
  },
  {
    "Id": 10150001,
    "parentQuestId": 1020,
    "chapterId": 1103,
    "SortOrder": 114
  },
  {
    "Id": 10150002,
    "parentQuestId": 1021,
    "chapterId": 1103,
    "SortOrder": 115
  },
  {
    "Id": 10150003,
    "parentQuestId": 1022,
    "chapterId": 1103,
    "SortOrder": 116
  },
  {
    "Id": 10150004,
    "parentQuestId": 1023,
    "chapterId": 1103,
    "SortOrder": 117
  },
  {
    "Id": 10150005,
    "parentQuestId": 1024,
    "chapterId": 1103,
    "SortOrder": 118
  },
  {
    "Id": 10150006,
    "parentQuestId": 1025,
    "chapterId": 1103,
    "SortOrder": 119
  },
  {
    "Id": 10160001,
    "parentQuestId": 11000,
    "chapterId": 2007,
    "SortOrder": 2001
  },
  {
    "Id": 10160002,
    "parentQuestId": 11001,
    "chapterId": 2007,
    "SortOrder": 2002
  },
  {
    "Id": 10160003,
    "parentQuestId": 11002,
    "chapterId": 2007,
    "SortOrder": 2003
  },
  {
    "Id": 10160004,
    "parentQuestId": 11003,
    "chapterId": 2007,
    "SortOrder": 2004
  },
  {
    "Id": 10160005,
    "parentQuestId": 11004,
    "chapterId": 2007,
    "SortOrder": 2005
  },
  {
    "Id": 10160006,
    "parentQuestId": 11005,
    "chapterId": 2007,
    "SortOrder": 2006
  },
  {
    "Id": 10170001,
    "parentQuestId": 12000,
    "chapterId": 2008,
    "SortOrder": 2021
  },
  {
    "Id": 10170002,
    "parentQuestId": 12001,
    "chapterId": 2008,
    "SortOrder": 2022
  },
  {
    "Id": 10170003,
    "parentQuestId": 12002,
    "chapterId": 2008,
    "SortOrder": 2023
  },
  {
    "Id": 10170004,
    "parentQuestId": 12003,
    "chapterId": 2008,
    "SortOrder": 2024
  },
  {
    "Id": 10180001,
    "parentQuestId": 11010,
    "chapterId": 2012,
    "SortOrder": 2041
  },
  {
    "Id": 10180002,
    "parentQuestId": 11011,
    "chapterId": 2012,
    "SortOrder": 2042
  },
  {
    "Id": 10180003,
    "parentQuestId": 11012,
    "chapterId": 2012,
    "SortOrder": 2043
  },
  {
    "Id": 10190001,
    "parentQuestId": 461,
    "chapterId": 2001,
    "SortOrder": 1021
  },
  {
    "Id": 10190002,
    "parentQuestId": 462,
    "chapterId": 2001,
    "SortOrder": 1022
  },
  {
    "Id": 10190003,
    "parentQuestId": 463,
    "chapterId": 2001,
    "SortOrder": 1023
  },
  {
    "Id": 10200001,
    "parentQuestId": 486,
    "chapterId": 2006,
    "SortOrder": 1121
  },
  {
    "Id": 10200002,
    "parentQuestId": 487,
    "chapterId": 2006,
    "SortOrder": 1122
  },
  {
    "Id": 10200003,
    "parentQuestId": 488,
    "chapterId": 2006,
    "SortOrder": 1123
  },
  {
    "Id": 10200004,
    "parentQuestId": 489,
    "chapterId": 2006,
    "SortOrder": 1124
  },
  {
    "Id": 10200005,
    "parentQuestId": 490,
    "chapterId": 2006,
    "SortOrder": 1125
  },
  {
    "Id": 10210001,
    "parentQuestId": 11200,
    "chapterId": 2015,
    "SortOrder": 10000,
    "isDisuse": true
  },
  {
    "Id": 10210002,
    "parentQuestId": 11201,
    "chapterId": 2015,
    "SortOrder": 10001,
    "isDisuse": true
  },
  {
    "Id": 10210003,
    "parentQuestId": 11202,
    "chapterId": 2015,
    "SortOrder": 10002,
    "isDisuse": true
  },
  {
    "Id": 10220001,
    "parentQuestId": 11020,
    "chapterId": 2014,
    "SortOrder": 2061
  },
  {
    "Id": 10220002,
    "parentQuestId": 11021,
    "chapterId": 2014,
    "SortOrder": 2062
  },
  {
    "Id": 10220003,
    "parentQuestId": 11022,
    "chapterId": 2014,
    "SortOrder": 2063
  },
  {
    "Id": 10220004,
    "parentQuestId": 11023,
    "chapterId": 2014,
    "SortOrder": 2064
  },
  {
    "Id": 10220005,
    "parentQuestId": 11024,
    "chapterId": 2014,
    "SortOrder": 2065
  },
  {
    "Id": 10230001,
    "parentQuestId": 11100,
    "chapterId": 2011,
    "SortOrder": 2101
  },
  {
    "Id": 10230002,
    "parentQuestId": 11101,
    "chapterId": 2011,
    "SortOrder": 2102
  },
  {
    "Id": 10230003,
    "parentQuestId": 11102,
    "chapterId": 2011,
    "SortOrder": 2103
  },
  {
    "Id": 10230004,
    "parentQuestId": 11103,
    "chapterId": 2011,
    "SortOrder": 2104
  },
  {
    "Id": 10240001,
    "parentQuestId": 41111,
    "chapterId": 10006,
    "SortOrder": 10003,
    "isDisuse": true
  },
  {
    "Id": 10250001,
    "parentQuestId": 41112,
    "chapterId": 10007,
    "SortOrder": 10004,
    "isDisuse": true
  },
  {
    "Id": 10260001,
    "parentQuestId": 41113,
    "chapterId": 10008,
    "SortOrder": 10005,
    "isDisuse": true
  },
  {
    "Id": 10270001,
    "parentQuestId": 41114,
    "chapterId": 10009,
    "SortOrder": 10006,
    "isDisuse": true
  },
  {
    "Id": 10280001,
    "parentQuestId": 11030,
    "chapterId": 2016,
    "SortOrder": 2081
  },
  {
    "Id": 10280002,
    "parentQuestId": 11031,
    "chapterId": 2016,
    "SortOrder": 2082
  },
  {
    "Id": 10280003,
    "parentQuestId": 11032,
    "chapterId": 2016,
    "SortOrder": 2083
  },
  {
    "Id": 10290001,
    "parentQuestId": 464,
    "chapterId": 2002,
    "SortOrder": 1081
  },
  {
    "Id": 10290002,
    "parentQuestId": 465,
    "chapterId": 2002,
    "SortOrder": 1082
  },
  {
    "Id": 10290003,
    "parentQuestId": 466,
    "chapterId": 2002,
    "SortOrder": 1083
  },
  {
    "Id": 10300001,
    "parentQuestId": 11040,
    "chapterId": 2017,
    "SortOrder": 1181
  },
  {
    "Id": 10300002,
    "parentQuestId": 11041,
    "chapterId": 2017,
    "SortOrder": 1182
  },
  {
    "Id": 10300003,
    "parentQuestId": 11042,
    "chapterId": 2017,
    "SortOrder": 1183
  },
  {
    "Id": 10300004,
    "parentQuestId": 11044,
    "chapterId": 2017,
    "SortOrder": 1184
  },
  {
    "Id": 10300005,
    "parentQuestId": 11043,
    "chapterId": 2017,
    "SortOrder": 1185
  },
  {
    "Id": 10300006,
    "parentQuestId": 11045,
    "chapterId": 2017,
    "SortOrder": 1186
  },
  {
    "Id": 10310001,
    "parentQuestId": 11110,
    "chapterId": 2018,
    "SortOrder": 2121
  },
  {
    "Id": 10310002,
    "parentQuestId": 11111,
    "chapterId": 2018,
    "SortOrder": 2122
  },
  {
    "Id": 10310003,
    "parentQuestId": 11112,
    "chapterId": 2018,
    "SortOrder": 2123
  },
  {
    "Id": 10310004,
    "parentQuestId": 11113,
    "chapterId": 2018,
    "SortOrder": 2124
  },
  {
    "Id": 10320001,
    "parentQuestId": 8000,
    "chapterId": 1104,
    "SortOrder": 201
  },
  {
    "Id": 10320002,
    "parentQuestId": 8001,
    "chapterId": 1104,
    "SortOrder": 202
  },
  {
    "Id": 10320003,
    "parentQuestId": 8002,
    "chapterId": 1104,
    "SortOrder": 203
  },
  {
    "Id": 10320004,
    "parentQuestId": 8003,
    "chapterId": 1104,
    "SortOrder": 204
  },
  {
    "Id": 10330001,
    "parentQuestId": 11120,
    "chapterId": 2020,
    "SortOrder": 2066
  },
  {
    "Id": 10330002,
    "parentQuestId": 11121,
    "chapterId": 2020,
    "SortOrder": 2067
  },
  {
    "Id": 10330003,
    "parentQuestId": 11122,
    "chapterId": 2020,
    "SortOrder": 2068
  },
  {
    "Id": 10330004,
    "parentQuestId": 11123,
    "chapterId": 2020,
    "SortOrder": 2069
  },
  {
    "Id": 10334001,
    "parentQuestId": 10120,
    "chapterId": 2019,
    "SortOrder": 1201
  },
  {
    "Id": 10334002,
    "parentQuestId": 10121,
    "chapterId": 2019,
    "SortOrder": 1202
  },
  {
    "Id": 10334003,
    "parentQuestId": 10122,
    "chapterId": 2019,
    "SortOrder": 1203
  },
  {
    "Id": 10350001,
    "parentQuestId": 2000,
    "chapterId": 1201,
    "SortOrder": 301
  },
  {
    "Id": 10350002,
    "parentQuestId": 2001,
    "chapterId": 1201,
    "SortOrder": 302
  },
  {
    "Id": 10350003,
    "parentQuestId": 2002,
    "chapterId": 1201,
    "SortOrder": 303
  },
  {
    "Id": 10360001,
    "parentQuestId": 12010,
    "chapterId": 2021,
    "SortOrder": 3021
  },
  {
    "Id": 10360002,
    "parentQuestId": 12011,
    "chapterId": 2021,
    "SortOrder": 3022
  },
  {
    "Id": 10360003,
    "parentQuestId": 12012,
    "chapterId": 2021,
    "SortOrder": 3023
  },
  {
    "Id": 10360004,
    "parentQuestId": 12013,
    "chapterId": 2021,
    "SortOrder": 3024
  },
  {
    "Id": 10370001,
    "parentQuestId": 12004,
    "chapterId": 2022,
    "SortOrder": 3001
  },
  {
    "Id": 10370002,
    "parentQuestId": 12005,
    "chapterId": 2022,
    "SortOrder": 3002
  },
  {
    "Id": 10370003,
    "parentQuestId": 12006,
    "chapterId": 2022,
    "SortOrder": 3003
  },
  {
    "Id": 10370004,
    "parentQuestId": 12007,
    "chapterId": 2022,
    "SortOrder": 3004
  },
  {
    "Id": 10370005,
    "parentQuestId": 12008,
    "chapterId": 2022,
    "SortOrder": 3005
  },
  {
    "Id": 10400001,
    "parentQuestId": 2011,
    "chapterId": 1202,
    "SortOrder": 401
  },
  {
    "Id": 10400002,
    "parentQuestId": 2012,
    "chapterId": 1202,
    "SortOrder": 402
  },
  {
    "Id": 10400003,
    "parentQuestId": 2013,
    "chapterId": 1202,
    "SortOrder": 403
  },
  {
    "Id": 10400004,
    "parentQuestId": 2003,
    "chapterId": 1202,
    "SortOrder": 404
  },
  {
    "Id": 10400005,
    "parentQuestId": 2004,
    "chapterId": 1202,
    "SortOrder": 405
  },
  {
    "Id": 10400006,
    "parentQuestId": 2005,
    "chapterId": 1202,
    "SortOrder": 406
  },
  {
    "Id": 10400007,
    "parentQuestId": 2006,
    "chapterId": 1202,
    "SortOrder": 407
  },
  {
    "Id": 10400008,
    "parentQuestId": 2007,
    "chapterId": 1202,
    "SortOrder": 408
  },
  {
    "Id": 10400009,
    "parentQuestId": 2008,
    "chapterId": 1203,
    "SortOrder": 409
  },
  {
    "Id": 10400010,
    "parentQuestId": 2009,
    "chapterId": 1203,
    "SortOrder": 410
  },
  {
    "Id": 10400011,
    "parentQuestId": 2010,
    "chapterId": 1204,
    "SortOrder": 411
  },
  {
    "Id": 10400012,
    "parentQuestId": 2014,
    "chapterId": 1204,
    "SortOrder": 412
  },
  {
    "Id": 10400013,
    "parentQuestId": 2015,
    "chapterId": 1204,
    "SortOrder": 413
  },
  {
    "Id": 10400014,
    "parentQuestId": 2016,
    "chapterId": 1204,
    "SortOrder": 414
  },
  {
    "Id": 10400015,
    "parentQuestId": 2017,
    "chapterId": 1204,
    "SortOrder": 415
  },
  {
    "Id": 10400016,
    "parentQuestId": 2018,
    "chapterId": 1204,
    "SortOrder": 416
  },
  {
    "Id": 10400017,
    "parentQuestId": 2019,
    "chapterId": 1204,
    "SortOrder": 417
  },
  {
    "Id": 10400018,
    "parentQuestId": 2020,
    "chapterId": 1204,
    "SortOrder": 418
  },
  {
    "Id": 10400019,
    "parentQuestId": 2021,
    "chapterId": 1204,
    "SortOrder": 419
  },
  {
    "Id": 10410001,
    "parentQuestId": 12020,
    "chapterId": 2024,
    "SortOrder": 3061
  },
  {
    "Id": 10410002,
    "parentQuestId": 12021,
    "chapterId": 2024,
    "SortOrder": 3062
  },
  {
    "Id": 10410003,
    "parentQuestId": 12022,
    "chapterId": 2024,
    "SortOrder": 3063
  },
  {
    "Id": 10410004,
    "parentQuestId": 12023,
    "chapterId": 2024,
    "SortOrder": 3064
  },
  {
    "Id": 10410005,
    "parentQuestId": 12024,
    "chapterId": 2024,
    "SortOrder": 3065
  },
  {
    "Id": 10420001,
    "parentQuestId": 12015,
    "chapterId": 2023,
    "SortOrder": 3041
  },
  {
    "Id": 10420002,
    "parentQuestId": 12016,
    "chapterId": 2023,
    "SortOrder": 3042
  },
  {
    "Id": 10420003,
    "parentQuestId": 12017,
    "chapterId": 2023,
    "SortOrder": 3043
  },
  {
    "Id": 10420004,
    "parentQuestId": 12018,
    "chapterId": 2023,
    "SortOrder": 3044
  },
  {
    "Id": 10430001,
    "parentQuestId": 12009,
    "chapterId": 2026,
    "SortOrder": 3081
  },
  {
    "Id": 10430002,
    "parentQuestId": 12025,
    "chapterId": 2026,
    "SortOrder": 3082
  },
  {
    "Id": 10430003,
    "parentQuestId": 12026,
    "chapterId": 2026,
    "SortOrder": 3083
  },
  {
    "Id": 10440001,
    "parentQuestId": 11009,
    "chapterId": 1205,
    "SortOrder": 441
  },
  {
    "Id": 10440002,
    "parentQuestId": 11013,
    "chapterId": 1205,
    "SortOrder": 442
  },
  {
    "Id": 10440003,
    "parentQuestId": 11014,
    "chapterId": 1205,
    "SortOrder": 443
  },
  {
    "Id": 10440004,
    "parentQuestId": 11015,
    "chapterId": 1205,
    "SortOrder": 444
  },
  {
    "Id": 10450001,
    "parentQuestId": 12028,
    "chapterId": 2025,
    "SortOrder": 3101
  },
  {
    "Id": 10450002,
    "parentQuestId": 12029,
    "chapterId": 2025,
    "SortOrder": 3102
  },
  {
    "Id": 10450003,
    "parentQuestId": 12030,
    "chapterId": 2025,
    "SortOrder": 3103
  },
  {
    "Id": 10450004,
    "parentQuestId": 12031,
    "chapterId": 2025,
    "SortOrder": 3104
  },
  {
    "Id": 10460001,
    "parentQuestId": 12040,
    "chapterId": 2027,
    "SortOrder": 3045
  },
  {
    "Id": 10460002,
    "parentQuestId": 12041,
    "chapterId": 2027,
    "SortOrder": 3046
  },
  {
    "Id": 10460003,
    "parentQuestId": 12042,
    "chapterId": 2027,
    "SortOrder": 3047
  },
  {
    "Id": 10470001,
    "parentQuestId": 12033,
    "chapterId": 2028,
    "SortOrder": 3121
  },
  {
    "Id": 10470002,
    "parentQuestId": 12034,
    "chapterId": 2028,
    "SortOrder": 3122
  },
  {
    "Id": 10470003,
    "parentQuestId": 12035,
    "chapterId": 2028,
    "SortOrder": 3123
  },
  {
    "Id": 10480001,
    "parentQuestId": 8004,
    "chapterId": 1206,
    "SortOrder": 461
  },
  {
    "Id": 10480002,
    "parentQuestId": 8005,
    "chapterId": 1206,
    "SortOrder": 462
  },
  {
    "Id": 10480003,
    "parentQuestId": 8006,
    "chapterId": 1206,
    "SortOrder": 463
  },
  {
    "Id": 10480004,
    "parentQuestId": 8007,
    "chapterId": 1206,
    "SortOrder": 464
  },
  {
    "Id": 10490001,
    "parentQuestId": 11018,
    "chapterId": 2029,
    "SortOrder": 2141
  },
  {
    "Id": 10490002,
    "parentQuestId": 11019,
    "chapterId": 2029,
    "SortOrder": 2142
  },
  {
    "Id": 10490003,
    "parentQuestId": 11026,
    "chapterId": 2029,
    "SortOrder": 2143
  },
  {
    "Id": 10500001,
    "parentQuestId": 1019,
    "chapterId": 1207,
    "SortOrder": 471
  },
  {
    "Id": 10500002,
    "parentQuestId": 1028,
    "chapterId": 1207,
    "SortOrder": 472
  },
  {
    "Id": 10500003,
    "parentQuestId": 1029,
    "chapterId": 1207,
    "SortOrder": 473
  },
  {
    "Id": 10500004,
    "parentQuestId": 1030,
    "chapterId": 1207,
    "SortOrder": 474
  },
  {
    "Id": 10500005,
    "parentQuestId": 1031,
    "chapterId": 1207,
    "SortOrder": 475
  },
  {
    "Id": 10510001,
    "parentQuestId": 12037,
    "chapterId": 2031,
    "SortOrder": 3141
  },
  {
    "Id": 10520002,
    "parentQuestId": 12038,
    "chapterId": 2031,
    "SortOrder": 3142
  },
  {
    "Id": 10530003,
    "parentQuestId": 12039,
    "chapterId": 2031,
    "SortOrder": 3143
  },
  {
    "Id": 10540001,
    "parentQuestId": 13000,
    "chapterId": 2030,
    "SortOrder": 4001
  },
  {
    "Id": 10540002,
    "parentQuestId": 13001,
    "chapterId": 2030,
    "SortOrder": 4002
  },
  {
    "Id": 10540003,
    "parentQuestId": 13002,
    "chapterId": 2030,
    "SortOrder": 4003
  },
  {
    "Id": 10540004,
    "parentQuestId": 13003,
    "chapterId": 2030,
    "SortOrder": 4004
  },
  {
    "Id": 10550001,
    "parentQuestId": 3000,
    "chapterId": 1301,
    "SortOrder": 501
  },
  {
    "Id": 10550002,
    "parentQuestId": 3001,
    "chapterId": 1301,
    "SortOrder": 502
  },
  {
    "Id": 10550003,
    "parentQuestId": 3002,
    "chapterId": 1301,
    "SortOrder": 503
  },
  {
    "Id": 10550004,
    "parentQuestId": 3003,
    "chapterId": 1301,
    "SortOrder": 504
  },
  {
    "Id": 10550005,
    "parentQuestId": 3004,
    "chapterId": 1301,
    "SortOrder": 505
  },
  {
    "Id": 10550006,
    "parentQuestId": 3005,
    "chapterId": 1301,
    "SortOrder": 506
  },
  {
    "Id": 10550007,
    "parentQuestId": 3006,
    "chapterId": 1301,
    "SortOrder": 507
  },
  {
    "Id": 10550008,
    "parentQuestId": 3007,
    "chapterId": 1302,
    "SortOrder": 508
  },
  {
    "Id": 10550009,
    "parentQuestId": 3008,
    "chapterId": 1302,
    "SortOrder": 509
  },
  {
    "Id": 10550010,
    "parentQuestId": 3009,
    "chapterId": 1302,
    "SortOrder": 510
  },
  {
    "Id": 10550011,
    "parentQuestId": 3010,
    "chapterId": 1302,
    "SortOrder": 511
  },
  {
    "Id": 10550012,
    "parentQuestId": 3011,
    "chapterId": 1302,
    "SortOrder": 512
  },
  {
    "Id": 10550013,
    "parentQuestId": 3014,
    "chapterId": 1302,
    "SortOrder": 513
  },
  {
    "Id": 10550014,
    "parentQuestId": 3012,
    "chapterId": 1302,
    "SortOrder": 514
  },
  {
    "Id": 10560001,
    "parentQuestId": 3016,
    "chapterId": 1303,
    "SortOrder": 516
  },
  {
    "Id": 10560002,
    "parentQuestId": 3017,
    "chapterId": 1303,
    "SortOrder": 517
  },
  {
    "Id": 10560003,
    "parentQuestId": 3018,
    "chapterId": 1303,
    "SortOrder": 518
  },
  {
    "Id": 10570001,
    "parentQuestId": 13006,
    "chapterId": 2033,
    "SortOrder": 4021
  },
  {
    "Id": 10570002,
    "parentQuestId": 13007,
    "chapterId": 2033,
    "SortOrder": 4022
  },
  {
    "Id": 10570003,
    "parentQuestId": 13008,
    "chapterId": 2033,
    "SortOrder": 4023
  },
  {
    "Id": 10580001,
    "parentQuestId": 3019,
    "chapterId": 1304,
    "SortOrder": 519
  },
  {
    "Id": 10580002,
    "parentQuestId": 3020,
    "chapterId": 1304,
    "SortOrder": 520
  },
  {
    "Id": 10580003,
    "parentQuestId": 3021,
    "chapterId": 1304,
    "SortOrder": 521
  },
  {
    "Id": 10590001,
    "parentQuestId": 13009,
    "chapterId": 2032,
    "SortOrder": 4041
  },
  {
    "Id": 10590002,
    "parentQuestId": 13010,
    "chapterId": 2032,
    "SortOrder": 4042
  },
  {
    "Id": 10590003,
    "parentQuestId": 13011,
    "chapterId": 2032,
    "SortOrder": 4043
  },
  {
    "Id": 10600001,
    "parentQuestId": 3024,
    "chapterId": 1305,
    "SortOrder": 522
  },
  {
    "Id": 10600002,
    "parentQuestId": 3025,
    "chapterId": 1305,
    "SortOrder": 523
  },
  {
    "Id": 10600003,
    "parentQuestId": 3022,
    "chapterId": 1305,
    "SortOrder": 524
  },
  {
    "Id": 10600004,
    "parentQuestId": 3028,
    "chapterId": 1305,
    "SortOrder": 525
  },
  {
    "Id": 10600005,
    "parentQuestId": 3026,
    "chapterId": 1305,
    "SortOrder": 526
  },
  {
    "Id": 10610001,
    "parentQuestId": 13013,
    "chapterId": 2034,
    "SortOrder": 4061
  },
  {
    "Id": 10610002,
    "parentQuestId": 13014,
    "chapterId": 2034,
    "SortOrder": 4062
  },
  {
    "Id": 10610003,
    "parentQuestId": 13015,
    "chapterId": 2034,
    "SortOrder": 4063
  },
  {
    "Id": 10620001,
    "parentQuestId": 3029,
    "chapterId": 1307,
    "SortOrder": 527
  },
  {
    "Id": 10620002,
    "parentQuestId": 3030,
    "chapterId": 1307,
    "SortOrder": 528
  },
  {
    "Id": 10620003,
    "parentQuestId": 3031,
    "chapterId": 1307,
    "SortOrder": 529
  },
  {
    "Id": 10620004,
    "parentQuestId": 3032,
    "chapterId": 1307,
    "SortOrder": 530
  },
  {
    "Id": 10630001,
    "parentQuestId": 13020,
    "chapterId": 2035,
    "SortOrder": 4081
  },
  {
    "Id": 10630002,
    "parentQuestId": 13021,
    "chapterId": 2035,
    "SortOrder": 4082
  },
  {
    "Id": 10630003,
    "parentQuestId": 13022,
    "chapterId": 2035,
    "SortOrder": 4083
  },
  {
    "Id": 10640001,
    "parentQuestId": 8009,
    "chapterId": 1308,
    "SortOrder": 531
  },
  {
    "Id": 10640002,
    "parentQuestId": 8010,
    "chapterId": 1308,
    "SortOrder": 532
  },
  {
    "Id": 10640003,
    "parentQuestId": 8011,
    "chapterId": 1308,
    "SortOrder": 533
  },
  {
    "Id": 10640004,
    "parentQuestId": 8012,
    "chapterId": 1308,
    "SortOrder": 534
  },
  {
    "Id": 10650001,
    "parentQuestId": 13024,
    "chapterId": 2036,
    "SortOrder": 4101
  },
  {
    "Id": 10650002,
    "parentQuestId": 13025,
    "chapterId": 2036,
    "SortOrder": 4102
  },
  {
    "Id": 10650003,
    "parentQuestId": 13026,
    "chapterId": 2036,
    "SortOrder": 4103
  },
  {
    "Id": 10660001,
    "parentQuestId": 11027,
    "chapterId": 2037,
    "SortOrder": 2161
  },
  {
    "Id": 10660002,
    "parentQuestId": 11028,
    "chapterId": 2037,
    "SortOrder": 2162
  },
  {
    "Id": 10660003,
    "parentQuestId": 11029,
    "chapterId": 2037,
    "SortOrder": 2163
  },
  {
    "Id": 10670001,
    "parentQuestId": 13019,
    "chapterId": 2039,
    "SortOrder": 4064
  },
  {
    "Id": 10670002,
    "parentQuestId": 13027,
    "chapterId": 2039,
    "SortOrder": 4065
  }
]
