[
  {
    "id": 1,
    "AHNENHIEIPF": "<color=#00E1FFFF>{0}</color>"
  },
  {
    "id": 2,
    "AHNENHIEIPF": "<color=#37FFFF>{0}</color>"
  },
  {
    "id": 3,
    "AHNENHIEIPF": "<color=#FFCC33FF>{0}</color>"
  }
]
