[
  {
    "id": 1,
    "ILKHEKIIBOB": 1,
    "weight": 40,
    "JNFMNDBBKEA": 30
  },
  {
    "id": 2,
    "ILKHEKIIBOB": 2,
    "weight": 50,
    "JNFMNDBBKEA": 35
  },
  {
    "id": 3,
    "ILKHEKIIBOB": 3,
    "weight": 10,
    "JNFMNDBBKEA": 25
  },
  {
    "id": 4,
    "ILKHEKIIBOB": 4,
    "JNFMNDBBKEA": 10
  }
]
