[
  {
    "id": 1,
    "stageId": 1,
    "level": 1,
    "BLHNBPHMBKM": [60, 80],
    "EGLLGFFGBFO": [60],
    "MHPBGNOOEAF": [40]
  },
  {
    "id": 2,
    "stageId": 1,
    "level": 1,
    "AJBDLLMKJDO": "ROGUE_MONSTER_DIFFICULTY_ELITE_EASY",
    "BLHNBPHMBKM": [80, 100],
    "EGLLGFFGBFO": [120],
    "MHPBGNOOEAF": [80]
  },
  {
    "id": 3,
    "stageId": 1,
    "level": 1,
    "AJBDLLMKJDO": "ROGUE_MONSTER_DIFFICULTY_ELITE_HARD",
    "BLHNBPHMBKM": [100, 120],
    "EGLLGFFGBFO": [180],
    "MHPBGNOOEAF": [120]
  },
  {
    "id": 4,
    "stageId": 1,
    "level": 1,
    "AJBDLLMKJDO": "ROGUE_MONSTER_DIFFICULTY_BOSS",
    "BLHNBPHMBKM": [180, 270],
    "EGLLGFFGBFO": [450],
    "MHPBGNOOEAF": [300]
  },
  {
    "id": 5,
    "stageId": 1,
    "level": 2,
    "BLHNBPHMBKM": [60, 80],
    "EGLLGFFGBFO": [90],
    "MHPBGNOOEAF": [60]
  },
  {
    "id": 6,
    "stageId": 1,
    "level": 2,
    "AJBDLLMKJDO": "ROGUE_MONSTER_DIFFICULTY_ELITE_EASY",
    "BLHNBPHMBKM": [80, 100],
    "EGLLGFFGBFO": [180],
    "MHPBGNOOEAF": [120]
  },
  {
    "id": 7,
    "stageId": 1,
    "level": 2,
    "AJBDLLMKJDO": "ROGUE_MONSTER_DIFFICULTY_ELITE_HARD",
    "BLHNBPHMBKM": [100, 120],
    "EGLLGFFGBFO": [270],
    "MHPBGNOOEAF": [180]
  },
  {
    "id": 8,
    "stageId": 1,
    "level": 2,
    "AJBDLLMKJDO": "ROGUE_MONSTER_DIFFICULTY_BOSS",
    "BLHNBPHMBKM": [180, 270],
    "EGLLGFFGBFO": [600],
    "MHPBGNOOEAF": [400]
  },
  {
    "id": 9,
    "stageId": 2,
    "level": 1,
    "BLHNBPHMBKM": [60, 80],
    "EGLLGFFGBFO": [60],
    "MHPBGNOOEAF": [40]
  },
  {
    "id": 10,
    "stageId": 2,
    "level": 1,
    "AJBDLLMKJDO": "ROGUE_MONSTER_DIFFICULTY_ELITE_EASY",
    "BLHNBPHMBKM": [80, 100],
    "EGLLGFFGBFO": [120],
    "MHPBGNOOEAF": [80]
  },
  {
    "id": 11,
    "stageId": 2,
    "level": 1,
    "AJBDLLMKJDO": "ROGUE_MONSTER_DIFFICULTY_ELITE_HARD",
    "BLHNBPHMBKM": [100, 120],
    "EGLLGFFGBFO": [180],
    "MHPBGNOOEAF": [120]
  },
  {
    "id": 12,
    "stageId": 2,
    "level": 1,
    "AJBDLLMKJDO": "ROGUE_MONSTER_DIFFICULTY_BOSS",
    "BLHNBPHMBKM": [180, 270],
    "EGLLGFFGBFO": [450],
    "MHPBGNOOEAF": [300]
  },
  {
    "id": 13,
    "stageId": 2,
    "level": 2,
    "BLHNBPHMBKM": [60, 80],
    "EGLLGFFGBFO": [90],
    "MHPBGNOOEAF": [60]
  },
  {
    "id": 14,
    "stageId": 2,
    "level": 2,
    "AJBDLLMKJDO": "ROGUE_MONSTER_DIFFICULTY_ELITE_EASY",
    "BLHNBPHMBKM": [80, 100],
    "EGLLGFFGBFO": [180],
    "MHPBGNOOEAF": [120]
  },
  {
    "id": 15,
    "stageId": 2,
    "level": 2,
    "AJBDLLMKJDO": "ROGUE_MONSTER_DIFFICULTY_ELITE_HARD",
    "BLHNBPHMBKM": [100, 120],
    "EGLLGFFGBFO": [270],
    "MHPBGNOOEAF": [180]
  },
  {
    "id": 16,
    "stageId": 2,
    "level": 2,
    "AJBDLLMKJDO": "ROGUE_MONSTER_DIFFICULTY_BOSS",
    "BLHNBPHMBKM": [180, 270],
    "EGLLGFFGBFO": [600],
    "MHPBGNOOEAF": [400]
  },
  {
    "id": 17,
    "stageId": 3,
    "level": 1,
    "BLHNBPHMBKM": [60, 80],
    "EGLLGFFGBFO": [60],
    "MHPBGNOOEAF": [40]
  },
  {
    "id": 18,
    "stageId": 3,
    "level": 1,
    "AJBDLLMKJDO": "ROGUE_MONSTER_DIFFICULTY_ELITE_EASY",
    "BLHNBPHMBKM": [80, 100],
    "EGLLGFFGBFO": [120],
    "MHPBGNOOEAF": [80]
  },
  {
    "id": 19,
    "stageId": 3,
    "level": 1,
    "AJBDLLMKJDO": "ROGUE_MONSTER_DIFFICULTY_ELITE_HARD",
    "BLHNBPHMBKM": [100, 120],
    "EGLLGFFGBFO": [180],
    "MHPBGNOOEAF": [120]
  },
  {
    "id": 20,
    "stageId": 3,
    "level": 1,
    "AJBDLLMKJDO": "ROGUE_MONSTER_DIFFICULTY_BOSS",
    "BLHNBPHMBKM": [180, 270],
    "EGLLGFFGBFO": [450],
    "MHPBGNOOEAF": [300]
  },
  {
    "id": 21,
    "stageId": 3,
    "level": 2,
    "BLHNBPHMBKM": [60, 80],
    "EGLLGFFGBFO": [90],
    "MHPBGNOOEAF": [60]
  },
  {
    "id": 22,
    "stageId": 3,
    "level": 2,
    "AJBDLLMKJDO": "ROGUE_MONSTER_DIFFICULTY_ELITE_EASY",
    "BLHNBPHMBKM": [80, 100],
    "EGLLGFFGBFO": [180],
    "MHPBGNOOEAF": [120]
  },
  {
    "id": 23,
    "stageId": 3,
    "level": 2,
    "AJBDLLMKJDO": "ROGUE_MONSTER_DIFFICULTY_ELITE_HARD",
    "BLHNBPHMBKM": [100, 120],
    "EGLLGFFGBFO": [270],
    "MHPBGNOOEAF": [180]
  },
  {
    "id": 24,
    "stageId": 3,
    "level": 2,
    "AJBDLLMKJDO": "ROGUE_MONSTER_DIFFICULTY_BOSS",
    "BLHNBPHMBKM": [180, 270],
    "EGLLGFFGBFO": [600],
    "MHPBGNOOEAF": [400]
  },
  {
    "id": 25,
    "stageId": 4,
    "level": 1,
    "BLHNBPHMBKM": [60, 80],
    "EGLLGFFGBFO": [60],
    "MHPBGNOOEAF": [40]
  },
  {
    "id": 26,
    "stageId": 4,
    "level": 1,
    "AJBDLLMKJDO": "ROGUE_MONSTER_DIFFICULTY_ELITE_EASY",
    "BLHNBPHMBKM": [80, 100],
    "EGLLGFFGBFO": [120],
    "MHPBGNOOEAF": [80]
  },
  {
    "id": 27,
    "stageId": 4,
    "level": 1,
    "AJBDLLMKJDO": "ROGUE_MONSTER_DIFFICULTY_ELITE_HARD",
    "BLHNBPHMBKM": [100, 120],
    "EGLLGFFGBFO": [180],
    "MHPBGNOOEAF": [120]
  },
  {
    "id": 28,
    "stageId": 4,
    "level": 1,
    "AJBDLLMKJDO": "ROGUE_MONSTER_DIFFICULTY_BOSS",
    "BLHNBPHMBKM": [180, 270],
    "EGLLGFFGBFO": [450],
    "MHPBGNOOEAF": [300]
  },
  {
    "id": 29,
    "stageId": 4,
    "level": 2,
    "BLHNBPHMBKM": [60, 80],
    "EGLLGFFGBFO": [90],
    "MHPBGNOOEAF": [60]
  },
  {
    "id": 30,
    "stageId": 4,
    "level": 2,
    "AJBDLLMKJDO": "ROGUE_MONSTER_DIFFICULTY_ELITE_EASY",
    "BLHNBPHMBKM": [80, 100],
    "EGLLGFFGBFO": [180],
    "MHPBGNOOEAF": [120]
  },
  {
    "id": 31,
    "stageId": 4,
    "level": 2,
    "AJBDLLMKJDO": "ROGUE_MONSTER_DIFFICULTY_ELITE_HARD",
    "BLHNBPHMBKM": [100, 120],
    "EGLLGFFGBFO": [270],
    "MHPBGNOOEAF": [180]
  },
  {
    "id": 32,
    "stageId": 4,
    "level": 2,
    "AJBDLLMKJDO": "ROGUE_MONSTER_DIFFICULTY_BOSS",
    "BLHNBPHMBKM": [180, 270],
    "EGLLGFFGBFO": [600],
    "MHPBGNOOEAF": [400]
  },
  {
    "id": 33,
    "stageId": 5,
    "level": 1,
    "BLHNBPHMBKM": [60, 80],
    "EGLLGFFGBFO": [0],
    "MHPBGNOOEAF": [0]
  },
  {
    "id": 34,
    "stageId": 5,
    "level": 1,
    "AJBDLLMKJDO": "ROGUE_MONSTER_DIFFICULTY_ELITE_EASY",
    "BLHNBPHMBKM": [80, 100],
    "EGLLGFFGBFO": [0],
    "MHPBGNOOEAF": [0]
  },
  {
    "id": 35,
    "stageId": 5,
    "level": 1,
    "AJBDLLMKJDO": "ROGUE_MONSTER_DIFFICULTY_ELITE_HARD",
    "BLHNBPHMBKM": [100, 120],
    "EGLLGFFGBFO": [0],
    "MHPBGNOOEAF": [0]
  },
  {
    "id": 36,
    "stageId": 5,
    "level": 1,
    "AJBDLLMKJDO": "ROGUE_MONSTER_DIFFICULTY_BOSS",
    "BLHNBPHMBKM": [180, 270],
    "EGLLGFFGBFO": [0],
    "MHPBGNOOEAF": [0]
  },
  {
    "id": 37,
    "stageId": 5,
    "level": 2,
    "BLHNBPHMBKM": [60, 80],
    "EGLLGFFGBFO": [0],
    "MHPBGNOOEAF": [0]
  },
  {
    "id": 38,
    "stageId": 5,
    "level": 2,
    "AJBDLLMKJDO": "ROGUE_MONSTER_DIFFICULTY_ELITE_EASY",
    "BLHNBPHMBKM": [80, 100],
    "EGLLGFFGBFO": [0],
    "MHPBGNOOEAF": [0]
  },
  {
    "id": 39,
    "stageId": 5,
    "level": 2,
    "AJBDLLMKJDO": "ROGUE_MONSTER_DIFFICULTY_ELITE_HARD",
    "BLHNBPHMBKM": [100, 120],
    "EGLLGFFGBFO": [0],
    "MHPBGNOOEAF": [0]
  },
  {
    "id": 40,
    "stageId": 5,
    "level": 2,
    "AJBDLLMKJDO": "ROGUE_MONSTER_DIFFICULTY_BOSS",
    "BLHNBPHMBKM": [180, 270],
    "EGLLGFFGBFO": [0],
    "MHPBGNOOEAF": [0]
  }
]
