[
  {
    "dungeonId": 7601,
    "groupList": [246201001, 246201002, 246201003, 246201004],
    "MKBDGDOJKOA": [
      {
        "ODMPJHDLJBK": 3,
        "DPIJKPNCJHP": [1001],
        "NAFMIFKPHAF": 10
      },
      {
        "ODMPJHDLJBK": 3,
        "DPIJKPNCJHP": [1002, 1003],
        "NAFMIFKPHAF": 10
      },
      {
        "ODMPJHDLJBK": 3,
        "DPIJKPNCJHP": [1044, 1045],
        "NAFMIFKPHAF": 10
      }
    ]
  },
  {
    "dungeonId": 7602,
    "groupList": [
      246202001, 246202002, 246202003, 246202005, 246202006, 246202007
    ],
    "MKBDGDOJKOA": [
      {
        "ODMPJHDLJBK": 3,
        "DPIJKPNCJHP": [1006],
        "NAFMIFKPHAF": 10
      },
      {
        "ODMPJHDLJBK": 3,
        "DPIJKPNCJHP": [1002, 1005],
        "NAFMIFKPHAF": 10
      },
      {
        "ODMPJHDLJBK": 3,
        "DPIJKPNCJHP": [1046, 1047, 1048],
        "NAFMIFKPHAF": 10
      }
    ]
  },
  {
    "dungeonId": 7603,
    "groupList": [246203001, 246203002, 246203003, 246203004],
    "MKBDGDOJKOA": [
      {
        "ODMPJHDLJBK": 3,
        "DPIJKPNCJHP": [1007, 1008, 1009],
        "NAFMIFKPHAF": 10
      },
      {
        "ODMPJHDLJBK": 3,
        "DPIJKPNCJHP": [1003, 1004],
        "NAFMIFKPHAF": 10
      },
      {
        "ODMPJHDLJBK": 3,
        "DPIJKPNCJHP": [1038, 1041, 1049],
        "NAFMIFKPHAF": 10
      }
    ]
  },
  {
    "dungeonId": 7604,
    "groupList": [246201001, 246201002, 246201003, 246201004],
    "MKBDGDOJKOA": [
      {
        "ODMPJHDLJBK": 3,
        "DPIJKPNCJHP": [1001, 1002, 1003],
        "NAFMIFKPHAF": 10
      },
      {
        "ODMPJHDLJBK": 3,
        "DPIJKPNCJHP": [1009, 1012, 1016],
        "NAFMIFKPHAF": 10
      },
      {
        "ODMPJHDLJBK": 3,
        "DPIJKPNCJHP": [1071, 1072, 1064],
        "NAFMIFKPHAF": 10
      }
    ]
  },
  {
    "dungeonId": 7605,
    "groupList": [
      246202001, 246202002, 246202003, 246202005, 246202006, 246202007
    ],
    "MKBDGDOJKOA": [
      {
        "ODMPJHDLJBK": 3,
        "DPIJKPNCJHP": [1001, 1006, 1007],
        "NAFMIFKPHAF": 10
      },
      {
        "ODMPJHDLJBK": 3,
        "DPIJKPNCJHP": [1002, 1004, 1011],
        "NAFMIFKPHAF": 10
      },
      {
        "ODMPJHDLJBK": 3,
        "DPIJKPNCJHP": [1063, 1064, 1065, 1066],
        "NAFMIFKPHAF": 10
      }
    ]
  },
  {
    "dungeonId": 7606,
    "groupList": [246203001, 246203002, 246203003, 246203004],
    "MKBDGDOJKOA": [
      {
        "ODMPJHDLJBK": 3,
        "DPIJKPNCJHP": [1008, 1009, 1010],
        "NAFMIFKPHAF": 10
      },
      {
        "ODMPJHDLJBK": 3,
        "DPIJKPNCJHP": [1003, 1005, 1015],
        "NAFMIFKPHAF": 10
      },
      {
        "ODMPJHDLJBK": 3,
        "DPIJKPNCJHP": [1055, 1056, 1057, 1058, 1067],
        "NAFMIFKPHAF": 10
      }
    ]
  },
  {
    "dungeonId": 7616,
    "groupList": [246201001, 246201002, 246201003, 246201004],
    "MKBDGDOJKOA": [
      {
        "ODMPJHDLJBK": 3,
        "DPIJKPNCJHP": [1001, 1002, 1003],
        "NAFMIFKPHAF": 10
      },
      {
        "ODMPJHDLJBK": 3,
        "DPIJKPNCJHP": [1009, 1012, 1016],
        "NAFMIFKPHAF": 10
      },
      {
        "ODMPJHDLJBK": 3,
        "DPIJKPNCJHP": [1071, 1072, 1064],
        "NAFMIFKPHAF": 10
      }
    ]
  },
  {
    "dungeonId": 7617,
    "groupList": [
      246202001, 246202002, 246202003, 246202005, 246202006, 246202007
    ],
    "MKBDGDOJKOA": [
      {
        "ODMPJHDLJBK": 3,
        "DPIJKPNCJHP": [1017, 1006, 1007],
        "NAFMIFKPHAF": 10
      },
      {
        "ODMPJHDLJBK": 3,
        "DPIJKPNCJHP": [1002, 1004, 1011],
        "NAFMIFKPHAF": 10
      },
      {
        "ODMPJHDLJBK": 3,
        "DPIJKPNCJHP": [1063, 1064, 1065, 1066],
        "NAFMIFKPHAF": 10
      }
    ]
  },
  {
    "dungeonId": 7618,
    "groupList": [246203001, 246203002, 246203003, 246203004],
    "MKBDGDOJKOA": [
      {
        "ODMPJHDLJBK": 3,
        "DPIJKPNCJHP": [1008, 1014, 1010],
        "NAFMIFKPHAF": 10
      },
      {
        "ODMPJHDLJBK": 3,
        "DPIJKPNCJHP": [1003, 1005, 1015],
        "NAFMIFKPHAF": 10
      },
      {
        "ODMPJHDLJBK": 3,
        "DPIJKPNCJHP": [1055, 1056, 1057, 1058, 1067],
        "NAFMIFKPHAF": 10
      }
    ]
  },
  {
    "dungeonId": 7607,
    "groupList": [246201001, 246201002, 246201003, 246201004],
    "MKBDGDOJKOA": [
      {
        "ODMPJHDLJBK": 3,
        "DPIJKPNCJHP": [1090, 1073, 1074],
        "NAFMIFKPHAF": 10
      },
      {
        "ODMPJHDLJBK": 3,
        "DPIJKPNCJHP": [1077, 1078, 1079],
        "NAFMIFKPHAF": 10
      },
      {
        "DPIJKPNCJHP": []
      }
    ]
  },
  {
    "dungeonId": 7608,
    "groupList": [
      246202001, 246202002, 246202003, 246202005, 246202006, 246202007
    ],
    "MKBDGDOJKOA": [
      {
        "ODMPJHDLJBK": 3,
        "DPIJKPNCJHP": [1091, 1075, 1076],
        "NAFMIFKPHAF": 10
      },
      {
        "ODMPJHDLJBK": 3,
        "DPIJKPNCJHP": [1084, 1085, 1086, 1087, 1088],
        "NAFMIFKPHAF": 10
      },
      {
        "DPIJKPNCJHP": []
      }
    ]
  },
  {
    "dungeonId": 7609,
    "groupList": [246203001, 246203002, 246203003, 246203004],
    "MKBDGDOJKOA": [
      {
        "ODMPJHDLJBK": 3,
        "DPIJKPNCJHP": [1080, 1081, 1089],
        "NAFMIFKPHAF": 10
      },
      {
        "ODMPJHDLJBK": 3,
        "DPIJKPNCJHP": [1059, 1060, 1061, 1062, 1069, 1070],
        "NAFMIFKPHAF": 10
      },
      {
        "DPIJKPNCJHP": []
      }
    ]
  },
  {
    "dungeonId": 7610,
    "groupList": [246201001, 246201002, 246201003, 246201004],
    "MKBDGDOJKOA": [
      {
        "ODMPJHDLJBK": 3,
        "DPIJKPNCJHP": [1090, 1073, 1074],
        "NAFMIFKPHAF": 10
      },
      {
        "ODMPJHDLJBK": 3,
        "DPIJKPNCJHP": [1077, 1078, 1079],
        "NAFMIFKPHAF": 10
      },
      {
        "DPIJKPNCJHP": []
      }
    ]
  },
  {
    "dungeonId": 7611,
    "groupList": [
      246202001, 246202002, 246202003, 246202005, 246202006, 246202007
    ],
    "MKBDGDOJKOA": [
      {
        "ODMPJHDLJBK": 3,
        "DPIJKPNCJHP": [1091, 1075, 1076],
        "NAFMIFKPHAF": 10
      },
      {
        "ODMPJHDLJBK": 3,
        "DPIJKPNCJHP": [1084, 1085, 1086, 1087, 1088],
        "NAFMIFKPHAF": 10
      },
      {
        "DPIJKPNCJHP": []
      }
    ]
  },
  {
    "dungeonId": 7612,
    "groupList": [246203001, 246203002, 246203003, 246203004],
    "MKBDGDOJKOA": [
      {
        "ODMPJHDLJBK": 3,
        "DPIJKPNCJHP": [1080, 1081, 1089],
        "NAFMIFKPHAF": 10
      },
      {
        "ODMPJHDLJBK": 3,
        "DPIJKPNCJHP": [1059, 1060, 1061, 1062, 1069, 1070],
        "NAFMIFKPHAF": 10
      },
      {
        "DPIJKPNCJHP": []
      }
    ]
  },
  {
    "dungeonId": 7613,
    "groupList": [246201001, 246201002, 246201003, 246201004],
    "MKBDGDOJKOA": [
      {
        "ODMPJHDLJBK": 3,
        "DPIJKPNCJHP": [1073, 1074],
        "NAFMIFKPHAF": 10
      },
      {
        "ODMPJHDLJBK": 3,
        "DPIJKPNCJHP": [1077, 1078, 1079],
        "NAFMIFKPHAF": 10
      },
      {
        "DPIJKPNCJHP": []
      }
    ]
  },
  {
    "dungeonId": 7614,
    "groupList": [
      246202001, 246202002, 246202003, 246202005, 246202006, 246202007
    ],
    "MKBDGDOJKOA": [
      {
        "ODMPJHDLJBK": 3,
        "DPIJKPNCJHP": [1091, 1075, 1076],
        "NAFMIFKPHAF": 10
      },
      {
        "ODMPJHDLJBK": 3,
        "DPIJKPNCJHP": [1084, 1085, 1086, 1087, 1088],
        "NAFMIFKPHAF": 10
      },
      {
        "DPIJKPNCJHP": []
      }
    ]
  },
  {
    "dungeonId": 7615,
    "groupList": [246203001, 246203002, 246203003, 246203004],
    "MKBDGDOJKOA": [
      {
        "ODMPJHDLJBK": 3,
        "DPIJKPNCJHP": [1080, 1081, 1089],
        "NAFMIFKPHAF": 10
      },
      {
        "ODMPJHDLJBK": 3,
        "DPIJKPNCJHP": [1059, 1060, 1061, 1062, 1069, 1070],
        "NAFMIFKPHAF": 10
      },
      {
        "DPIJKPNCJHP": []
      }
    ]
  }
]
