[
  {
    "goodsId": 201013,
    "MPBMOKAPOIJ": 300
  },
  {
    "goodsId": 301016,
    "MPBMOKAPOIJ": 300
  },
  {
    "goodsId": 405015,
    "MPBMOKAPOIJ": 300
  },
  {
    "goodsId": 102506,
    "MPBMOKAPOIJ": 100
  }
]
