[
  {
    "shopId": 101,
    "shopType": "SHOP_TYPE_VIRTUAL_SHOP",
    "openStateType": "OPEN_STATE_SHOP_TYPE_VIRTUAL_SHOP"
  },
  {
    "shopId": 102,
    "shopType": "SHOP_TYPE_PAIMON",
    "refreshType": "SHOP_REFRESH_MONTHLY",
    "refreshParam": 1,
    "openStateType": "OPEN_STATE_SHOP_TYPE_PAIMON"
  },
  {
    "shopId": 103,
    "shopType": "SHOP_TYPE_PACKAGE",
    "openStateType": "OPEN_STATE_SHOP_TYPE_GIFTPACKAGE"
  },
  {
    "shopId": 104,
    "shopType": "SHOP_TYPE_RECOMMEND",
    "openStateType": "OPEN_STATE_SHOP_TYPE_RECOMMANDED"
  },
  {
    "shopId": 105,
    "shopType": "SHOP_TYPE_MCOIN",
    "openStateType": "OPEN_STATE_SHOP_TYPE_GENESISCRYSTAL"
  },
  {
    "shopId": 106,
    "shopType": "SHOP_TYPE_COSTUME"
  },
  {
    "shopId": 201,
    "shopType": "SHOP_TYPE_CITY",
    "openStateType": "OPEN_STATE_SHOP_TYPE_CITY"
  },
  {
    "shopId": 202,
    "shopType": "SHOP_TYPE_BLACKSMITH",
    "openStateType": "OPEN_STATE_SHOP_TYPE_BLACKSMITH"
  },
  {
    "shopId": 203,
    "shopType": "SHOP_TYPE_GROCERY",
    "openStateType": "OPEN_STATE_SHOP_TYPE_GROCERY",
    "cityId": 1,
    "cityDiscountLevel": 4,
    "scoinDiscountRate": 90,
    "vipFuncID": 1002
  },
  {
    "shopId": 204,
    "shopType": "SHOP_TYPE_FOOD",
    "openStateType": "OPEN_STATE_SHOP_TYPE_FOOD",
    "cityId": 1,
    "cityDiscountLevel": 4,
    "scoinDiscountRate": 90,
    "vipFuncID": 1002
  },
  {
    "shopId": 205,
    "shopType": "SHOP_TYPE_NPC_Flora"
  },
  {
    "shopId": 206,
    "shopType": "SHOP_TYPE_NPC_Charles"
  },
  {
    "shopId": 207,
    "shopType": "SHOP_TYPE_NPC_Shiliu"
  },
  {
    "shopId": 208,
    "shopType": "SHOP_TYPE_NPC_Schulz"
  },
  {
    "shopId": 209,
    "shopType": "SHOP_TYPE_NPC_Brook"
  },
  {
    "shopId": 210,
    "shopType": "SHOP_TYPE_NPC_Hopkins"
  },
  {
    "shopId": 211,
    "shopType": "SHOP_TYPE_NPC_Draff"
  },
  {
    "shopId": 212,
    "shopType": "SHOP_TYPE_NPC_Chloris"
  },
  {
    "shopId": 213,
    "shopType": "SHOP_TYPE_HOME",
    "openStateType": "OPEN_STATE_HOME"
  },
  {
    "shopId": 214,
    "shopType": "SHOP_TYPE_HOME_LIMIT",
    "openStateType": "OPEN_STATE_HOME"
  },
  {
    "shopId": 215,
    "shopType": "SHOP_TYPE_FISH"
  },
  {
    "shopId": 216,
    "shopType": "SHOP_TYPE_EXPIRED_WIDGET_MENGDE"
  },
  {
    "shopId": 217,
    "shopType": "SHOP_TYPE_GCG_CARD"
  },
  {
    "shopId": 218,
    "shopType": "SHOP_TYPE_GCG_CARD_FACE"
  },
  {
    "shopId": 219,
    "shopType": "SHOP_TYPE_GCG_APPEARANCE"
  },
  {
    "shopId": 220,
    "shopType": "SHOP_TYPE_GCG_EXCHANGE"
  },
  {
    "shopId": 301,
    "shopType": "SHOP_TYPE_LIYUE_SOUVENIR",
    "openStateType": "OPEN_STATE_SHOP_TYPE_LIYUE_SOUVENIR"
  },
  {
    "shopId": 302,
    "shopType": "SHOP_TYPE_LIYUE_GROCERY",
    "openStateType": "OPEN_STATE_SHOP_TYPE_LIYUE_GROCERY",
    "cityId": 2,
    "cityDiscountLevel": 4,
    "scoinDiscountRate": 90,
    "vipFuncID": 2002
  },
  {
    "shopId": 303,
    "shopType": "SHOP_TYPE_LIYUE_RESTAURANT",
    "openStateType": "OPEN_STATE_SHOP_TYPE_LIYUE_RESTAURANT",
    "cityId": 2,
    "cityDiscountLevel": 4,
    "scoinDiscountRate": 90,
    "vipFuncID": 2002
  },
  {
    "shopId": 304,
    "shopType": "SHOP_TYPE_NPC_Licai"
  },
  {
    "shopId": 305,
    "shopType": "SHOP_TYPE_NPC_Yueshu"
  },
  {
    "shopId": 306,
    "shopType": "SHOP_TYPE_NPC_Gui"
  },
  {
    "shopId": 307,
    "shopType": "SHOP_TYPE_NPC_Gao"
  },
  {
    "shopId": 308,
    "shopType": "SHOP_TYPE_NPC_Sun"
  },
  {
    "shopId": 309,
    "shopType": "SHOP_TYPE_NPC_Qiming"
  },
  {
    "shopId": 310,
    "shopType": "SHOP_TYPE_NPC_Zhangshun"
  },
  {
    "shopId": 311,
    "shopType": "SHOP_TYPE_NPC_Chen"
  },
  {
    "shopId": 312,
    "shopType": "SHOP_TYPE_NPC_ErNiang"
  },
  {
    "shopId": 313,
    "shopType": "SHOP_TYPE_NPC_Shitou"
  },
  {
    "shopId": 314,
    "shopType": "SHOP_TYPE_NPC_Jifang"
  },
  {
    "shopId": 315,
    "shopType": "SHOP_TYPE_NPC_Zhu"
  },
  {
    "shopId": 316,
    "shopType": "SHOP_TYPE_NPC_Bai"
  },
  {
    "shopId": 317,
    "shopType": "SHOP_TYPE_NPC_Kai"
  },
  {
    "shopId": 318,
    "shopType": "SHOP_TYPE_NPC_Linglang"
  },
  {
    "shopId": 319,
    "shopType": "SHOP_TYPE_NPC_VerrGoldet"
  },
  {
    "shopId": 320,
    "shopType": "SHOP_TYPE_NPC_Zhou"
  },
  {
    "shopId": 321,
    "shopType": "SHOP_TYPE_TASK_Ekaterina"
  },
  {
    "shopId": 322,
    "shopType": "SHOP_TYPE_TASK_Tartaglia"
  },
  {
    "shopId": 323,
    "shopType": "SHOP_TYPE_NPC_Harris"
  },
  {
    "shopId": 324,
    "shopType": "SHOP_TYPE_FISH_LIYUE"
  },
  {
    "shopId": 401,
    "shopType": "SHOP_TYPE_NPC_Obata"
  },
  {
    "shopId": 402,
    "shopType": "SHOP_TYPE_NPC_Qiuyue"
  },
  {
    "shopId": 403,
    "shopType": "SHOP_TYPE_NPC_Ryouko"
  },
  {
    "shopId": 404,
    "shopType": "SHOP_TYPE_INAZUMA_GROCERY",
    "cityId": 3,
    "cityDiscountLevel": 4,
    "scoinDiscountRate": 90,
    "vipFuncID": 3002
  },
  {
    "shopId": 405,
    "shopType": "SHOP_TYPE_INAZUMA_SOUVENIR",
    "openStateType": "OPEN_STATE_SHOP_TYPE_INAZUMA_SOUVENIR"
  },
  {
    "shopId": 406,
    "shopType": "SHOP_TYPE_INAZUMA_RESTAURANT",
    "cityId": 3,
    "cityDiscountLevel": 4,
    "scoinDiscountRate": 90,
    "vipFuncID": 3002
  },
  {
    "shopId": 407,
    "shopType": "SHOP_TYPE_NPC_Kuroda"
  },
  {
    "shopId": 408,
    "shopType": "SHOP_TYPE_NPC_KiminamiAnna"
  },
  {
    "shopId": 409,
    "shopType": "SHOP_TYPE_NPC_Tomoki",
    "openStateType": "OPEN_STATE_SHOP_TYPE_NPC_TOMOKI"
  },
  {
    "shopId": 410,
    "shopType": "SHOP_TYPE_NPC_Karpillia"
  },
  {
    "shopId": 411,
    "shopType": "SHOP_TYPE_BLACKSMITH_INAZUMA",
    "openStateType": "OPEN_STATE_SHOP_TYPE_BLACKSMITH"
  },
  {
    "shopId": 412,
    "shopType": "SHOP_TYPE_FISH_INAZUMA"
  },
  {
    "shopId": 413,
    "shopType": "SHOP_TYPE_NPC_Kiyoko"
  },
  {
    "shopId": 414,
    "shopType": "SHOP_TYPE_CAPTURE_ANIMAL_SHOP"
  },
  {
    "shopId": 415,
    "shopType": "SHOP_TYPE_NPC_YamashiroKenta"
  },
  {
    "shopId": 416,
    "shopType": "SHOP_TYPE_EXPIRED_WIDGET_INAZUMA"
  },
  {
    "shopId": 501,
    "shopType": "SHOP_TYPE_FISH_SUMERU"
  },
  {
    "shopId": 502,
    "shopType": "SHOP_TYPE_NPC_Pam"
  },
  {
    "shopId": 503,
    "shopType": "SHOP_TYPE_NPC_Lambad",
    "cityId": 4,
    "cityDiscountLevel": 4,
    "scoinDiscountRate": 90,
    "vipFuncID": 4002
  },
  {
    "shopId": 504,
    "shopType": "SHOP_TYPE_NPC_Hamawi",
    "cityId": 4,
    "cityDiscountLevel": 4,
    "scoinDiscountRate": 90,
    "vipFuncID": 4002
  },
  {
    "shopId": 505,
    "shopType": "SHOP_TYPE_NPC_Khalid"
  },
  {
    "shopId": 506,
    "shopType": "SHOP_TYPE_NPC_Ahangar"
  },
  {
    "shopId": 507,
    "shopType": "SHOP_TYPE_NPC_Afshin"
  },
  {
    "shopId": 508,
    "shopType": "SHOP_TYPE_NPC_Jut"
  },
  {
    "shopId": 509,
    "shopType": "SHOP_TYPE_NPC_Butrus"
  },
  {
    "shopId": 510,
    "shopType": "SHOP_TYPE_NPC_Jahangir"
  },
  {
    "shopId": 511,
    "shopType": "SHOP_TYPE_NPC_Qiuwei"
  },
  {
    "shopId": 512,
    "shopType": "SHOP_TYPE_NPC_Babak"
  },
  {
    "shopId": 513,
    "shopType": "SHOP_TYPE_NPC_Rama"
  },
  {
    "shopId": 514,
    "shopType": "SHOP_TYPE_NPC_Ashpazi"
  },
  {
    "shopId": 515,
    "shopType": "SHOP_TYPE_NPC_Aramani"
  },
  {
    "shopId": 516,
    "shopType": "SHOP_TYPE_NPC_Aravinay"
  },
  {
    "shopId": 517,
    "shopType": "SHOP_TYPE_NPC_Enteka"
  },
  {
    "shopId": 518,
    "shopType": "SHOP_TYPE_NPC_Azalai"
  },
  {
    "shopId": 1001,
    "shopType": "SHOP_TYPE_SEA_LAMP",
    "openStateType": "OPEN_STATE_SHOP_TYPE_SEA_LAMP"
  },
  {
    "shopId": 1002,
    "shopType": "SHOP_TYPE_ACTIVITY_ASTER"
  },
  {
    "shopId": 1003,
    "shopType": "SHOP_TYPE_ACTIVITY_TREASURE_MAP"
  },
  {
    "shopId": 1004,
    "shopType": "SHOP_TYPE_ACTIVITY_DRAGON_SPINE"
  },
  {
    "shopId": 1005,
    "shopType": "SHOP_TYPE_ACTIVITY_SEA_LAMP"
  },
  {
    "shopId": 1044,
    "shopType": "SHOP_TYPE_ACTIVITY_FLEUR_FAIR"
  },
  {
    "shopId": 1042,
    "shopType": "SHOP_TYPE_NPC_Yinian"
  },
  {
    "shopId": 1045,
    "shopType": "SHOP_TYPE_NPC_Changshun"
  },
  {
    "shopId": 1046,
    "shopType": "SHOP_TYPE_NPC_Bolai"
  },
  {
    "shopId": 1047,
    "shopType": "SHOP_TYPE_NPC_Ashanpo",
    "JAJLDGELJGN": true
  },
  {
    "shopId": 1050,
    "shopType": "SHOP_TYPE_NPC_MasterLu"
  },
  {
    "shopId": 1051,
    "shopType": "SHOP_TYPE_NPC_Goth"
  },
  {
    "shopId": 1052,
    "shopType": "SHOP_TYPE_ACTIVITY_VINTAGE_ANGEL_S_SHARE"
  },
  {
    "shopId": 15001,
    "shopType": "SHOP_TYPE_ACTIVITY_CHANNELLER_SLAB"
  },
  {
    "shopId": 16001,
    "shopType": "SHOP_TYPE_ACTIVITY_SUMMER_TIME"
  },
  {
    "shopId": 16002,
    "shopType": "SHOP_TYPE_ACTIVITY_BOUNCE_CONJURING"
  },
  {
    "shopId": 20001,
    "shopType": "SHOP_TYPE_ACTIVITY_BLITZ_RUSH"
  },
  {
    "shopId": 20002,
    "shopType": "SHOP_TYPE_ACTIVITY_CHESS"
  },
  {
    "shopId": 22001,
    "shopType": "SHOP_TYPE_ACTIVITY_ROGUELIKE_DUNGEON"
  },
  {
    "shopId": 20003,
    "shopType": "SHOP_TYPE_ACTIVITY_WINTER_CAMP"
  },
  {
    "shopId": 20005,
    "shopType": "SHOP_TYPE_ACTIVITY_LANTERN_RITE"
  },
  {
    "shopId": 27001,
    "shopType": "SHOP_TYPE_ACTIVITY_ROGUE_DIARY"
  },
  {
    "shopId": 28001,
    "shopType": "SHOP_TYPE_ACTIVITY_SUMMER_TIME_V2"
  },
  {
    "shopId": 30001,
    "shopType": "SHOP_TYPE_ACTIVITY_GRAVEN_INNOCENCE"
  },
  {
    "shopId": 32001,
    "shopType": "SHOP_TYPE_ACTIVITY_FUNGUS_FIGHTER"
  },
  {
    "shopId": 32002,
    "shopType": "SHOP_TYPE_ACTIVITY_EFFIGY_V2"
  },
  {
    "shopId": 33001,
    "shopType": "SHOP_TYPE_ACTIVITY_BRICK_BREAKER"
  },
  {
    "shopId": 35001,
    "shopType": "SHOP_TYPE_ACTIVITY_FLEURFAIR_V2"
  }
]
