[
  {
    "BEEGHHODFLD": 1,
    "FFONGCLPOJP": 1,
    "KOCIDGIKEPH": 39,
    "descTextMapHash": 2583884040
  },
  {
    "BEEGHHODFLD": 2,
    "FFONGCLPOJP": 2,
    "KOCIDGIKEPH": 69,
    "descTextMapHash": 2543625056
  },
  {
    "BEEGHHODFLD": 3,
    "FFONGCLPOJP": 4,
    "KOCIDGIKEPH": 89,
    "descTextMapHash": 57733808
  }
]
