[
  {
    "sceneId": 3,
    "pointId": 3,
    "rewardId": 220311,
    "MNGLFLKHIDK": [],
    "groupIdVec": []
  },
  {
    "sceneId": 3,
    "pointId": 6,
    "rewardId": 220310,
    "MNGLFLKHIDK": [],
    "groupIdVec": []
  },
  {
    "sceneId": 3,
    "pointId": 4,
    "rewardId": 220311,
    "MNGLFLKHIDK": [],
    "groupIdVec": []
  },
  {
    "sceneId": 3,
    "pointId": 5,
    "rewardId": 220311,
    "MNGLFLKHIDK": [],
    "groupIdVec": []
  },
  {
    "sceneId": 3,
    "pointId": 7,
    "rewardId": 220311,
    "MNGLFLKHIDK": [],
    "groupIdVec": []
  },
  {
    "sceneId": 3,
    "pointId": 8,
    "rewardId": 220311,
    "MNGLFLKHIDK": [],
    "groupIdVec": []
  },
  {
    "sceneId": 3,
    "pointId": 10,
    "rewardId": 220311,
    "MNGLFLKHIDK": [],
    "groupIdVec": []
  },
  {
    "sceneId": 3,
    "pointId": 11,
    "rewardId": 220311,
    "MNGLFLKHIDK": [],
    "groupIdVec": []
  },
  {
    "sceneId": 3,
    "pointId": 12,
    "rewardId": 220311,
    "MNGLFLKHIDK": [],
    "groupIdVec": []
  },
  {
    "sceneId": 3,
    "pointId": 13,
    "rewardId": 220311,
    "MNGLFLKHIDK": [],
    "groupIdVec": []
  },
  {
    "sceneId": 3,
    "pointId": 14,
    "rewardId": 220311,
    "MNGLFLKHIDK": [],
    "groupIdVec": []
  },
  {
    "sceneId": 3,
    "pointId": 15,
    "rewardId": 220311,
    "MNGLFLKHIDK": [],
    "groupIdVec": []
  },
  {
    "sceneId": 3,
    "pointId": 29,
    "rewardId": 220311,
    "MNGLFLKHIDK": [],
    "groupIdVec": []
  },
  {
    "sceneId": 3,
    "pointId": 33,
    "rewardId": 220311,
    "MNGLFLKHIDK": [],
    "groupIdVec": []
  },
  {
    "sceneId": 3,
    "pointId": 34,
    "rewardId": 220311,
    "MNGLFLKHIDK": [],
    "groupIdVec": []
  },
  {
    "sceneId": 3,
    "pointId": 35,
    "rewardId": 220311,
    "MNGLFLKHIDK": [],
    "groupIdVec": []
  },
  {
    "sceneId": 3,
    "pointId": 36,
    "rewardId": 220311,
    "MNGLFLKHIDK": [],
    "groupIdVec": []
  },
  {
    "sceneId": 3,
    "pointId": 37,
    "rewardId": 220311,
    "MNGLFLKHIDK": [],
    "groupIdVec": []
  },
  {
    "sceneId": 3,
    "pointId": 57,
    "rewardId": 220311,
    "MNGLFLKHIDK": [],
    "groupIdVec": []
  },
  {
    "sceneId": 3,
    "pointId": 58,
    "rewardId": 220311,
    "MNGLFLKHIDK": [],
    "groupIdVec": []
  },
  {
    "sceneId": 3,
    "pointId": 59,
    "rewardId": 220311,
    "MNGLFLKHIDK": [],
    "groupIdVec": []
  },
  {
    "sceneId": 3,
    "pointId": 60,
    "rewardId": 220311,
    "MNGLFLKHIDK": [],
    "groupIdVec": []
  },
  {
    "sceneId": 3,
    "pointId": 61,
    "rewardId": 220311,
    "MNGLFLKHIDK": [],
    "groupIdVec": []
  },
  {
    "sceneId": 3,
    "pointId": 69,
    "rewardId": 220311,
    "MNGLFLKHIDK": [],
    "groupIdVec": []
  },
  {
    "sceneId": 3,
    "pointId": 72,
    "rewardId": 220311,
    "MNGLFLKHIDK": [],
    "groupIdVec": []
  },
  {
    "sceneId": 3,
    "pointId": 73,
    "rewardId": 220311,
    "MNGLFLKHIDK": [],
    "groupIdVec": []
  },
  {
    "sceneId": 3,
    "pointId": 74,
    "rewardId": 220311,
    "MNGLFLKHIDK": [],
    "groupIdVec": []
  },
  {
    "sceneId": 3,
    "pointId": 75,
    "rewardId": 220311,
    "MNGLFLKHIDK": [],
    "groupIdVec": []
  },
  {
    "sceneId": 3,
    "pointId": 76,
    "rewardId": 220311,
    "MNGLFLKHIDK": [],
    "groupIdVec": []
  },
  {
    "sceneId": 3,
    "pointId": 77,
    "rewardId": 220311,
    "MNGLFLKHIDK": [],
    "groupIdVec": []
  },
  {
    "sceneId": 3,
    "pointId": 78,
    "rewardId": 220311,
    "MNGLFLKHIDK": [],
    "groupIdVec": []
  },
  {
    "sceneId": 3,
    "pointId": 79,
    "rewardId": 220311,
    "MNGLFLKHIDK": [],
    "groupIdVec": []
  },
  {
    "sceneId": 3,
    "pointId": 81,
    "rewardId": 220311,
    "MNGLFLKHIDK": [],
    "groupIdVec": []
  },
  {
    "sceneId": 3,
    "pointId": 82,
    "rewardId": 220311,
    "MNGLFLKHIDK": [],
    "groupIdVec": []
  },
  {
    "sceneId": 3,
    "pointId": 84,
    "rewardId": 220311,
    "MNGLFLKHIDK": [],
    "groupIdVec": []
  },
  {
    "sceneId": 3,
    "pointId": 85,
    "rewardId": 220311,
    "MNGLFLKHIDK": [],
    "groupIdVec": []
  },
  {
    "sceneId": 3,
    "pointId": 86,
    "rewardId": 220311,
    "MNGLFLKHIDK": [],
    "groupIdVec": []
  },
  {
    "sceneId": 3,
    "pointId": 87,
    "rewardId": 220311,
    "MNGLFLKHIDK": [],
    "groupIdVec": []
  },
  {
    "sceneId": 3,
    "pointId": 91,
    "rewardId": 220311,
    "MNGLFLKHIDK": [],
    "groupIdVec": []
  },
  {
    "sceneId": 3,
    "pointId": 92,
    "rewardId": 220311,
    "MNGLFLKHIDK": [],
    "groupIdVec": []
  },
  {
    "sceneId": 3,
    "pointId": 93,
    "rewardId": 220311,
    "MNGLFLKHIDK": [],
    "groupIdVec": []
  },
  {
    "sceneId": 3,
    "pointId": 95,
    "rewardId": 220311,
    "MNGLFLKHIDK": [],
    "groupIdVec": []
  },
  {
    "sceneId": 3,
    "pointId": 96,
    "rewardId": 220311,
    "MNGLFLKHIDK": [],
    "groupIdVec": []
  },
  {
    "sceneId": 3,
    "pointId": 97,
    "rewardId": 220311,
    "MNGLFLKHIDK": [],
    "groupIdVec": []
  },
  {
    "sceneId": 3,
    "pointId": 99,
    "rewardId": 220311,
    "MNGLFLKHIDK": [],
    "groupIdVec": []
  },
  {
    "sceneId": 3,
    "pointId": 100,
    "rewardId": 220311,
    "MNGLFLKHIDK": [],
    "groupIdVec": []
  },
  {
    "sceneId": 3,
    "pointId": 103,
    "rewardId": 220311,
    "MNGLFLKHIDK": [],
    "groupIdVec": []
  },
  {
    "sceneId": 3,
    "pointId": 104,
    "rewardId": 220311,
    "MNGLFLKHIDK": [],
    "groupIdVec": []
  },
  {
    "sceneId": 3,
    "pointId": 105,
    "rewardId": 220311,
    "MNGLFLKHIDK": [],
    "groupIdVec": []
  },
  {
    "sceneId": 3,
    "pointId": 114,
    "rewardId": 220311,
    "MNGLFLKHIDK": [],
    "groupIdVec": []
  },
  {
    "sceneId": 3,
    "pointId": 116,
    "rewardId": 220311,
    "MNGLFLKHIDK": [],
    "groupIdVec": []
  },
  {
    "sceneId": 3,
    "pointId": 121,
    "rewardId": 220311,
    "MNGLFLKHIDK": [],
    "groupIdVec": []
  },
  {
    "sceneId": 3,
    "pointId": 122,
    "rewardId": 220311,
    "MNGLFLKHIDK": [],
    "groupIdVec": []
  },
  {
    "sceneId": 3,
    "pointId": 127,
    "rewardId": 220311,
    "MNGLFLKHIDK": [],
    "groupIdVec": []
  },
  {
    "sceneId": 3,
    "pointId": 128,
    "rewardId": 220311,
    "MNGLFLKHIDK": [],
    "groupIdVec": []
  },
  {
    "sceneId": 3,
    "pointId": 152,
    "rewardId": 220311,
    "MNGLFLKHIDK": [],
    "groupIdVec": []
  },
  {
    "sceneId": 3,
    "pointId": 153,
    "rewardId": 220311,
    "MNGLFLKHIDK": [],
    "groupIdVec": []
  },
  {
    "sceneId": 3,
    "pointId": 154,
    "rewardId": 220311,
    "MNGLFLKHIDK": [],
    "groupIdVec": []
  },
  {
    "sceneId": 3,
    "pointId": 155,
    "rewardId": 220311,
    "MNGLFLKHIDK": [],
    "groupIdVec": []
  },
  {
    "sceneId": 3,
    "pointId": 156,
    "rewardId": 220311,
    "MNGLFLKHIDK": [],
    "groupIdVec": []
  },
  {
    "sceneId": 3,
    "pointId": 162,
    "rewardId": 220311,
    "MNGLFLKHIDK": [],
    "groupIdVec": []
  },
  {
    "sceneId": 3,
    "pointId": 165,
    "rewardId": 220311,
    "MNGLFLKHIDK": [],
    "groupIdVec": []
  },
  {
    "sceneId": 3,
    "pointId": 166,
    "rewardId": 220311,
    "MNGLFLKHIDK": [],
    "groupIdVec": []
  },
  {
    "sceneId": 3,
    "pointId": 167,
    "rewardId": 220311,
    "MNGLFLKHIDK": [],
    "groupIdVec": []
  },
  {
    "sceneId": 3,
    "pointId": 168,
    "rewardId": 220311,
    "MNGLFLKHIDK": [],
    "groupIdVec": []
  },
  {
    "sceneId": 3,
    "pointId": 180,
    "rewardId": 220311,
    "MNGLFLKHIDK": [],
    "groupIdVec": []
  },
  {
    "sceneId": 3,
    "pointId": 181,
    "rewardId": 220311,
    "MNGLFLKHIDK": [],
    "groupIdVec": []
  },
  {
    "sceneId": 3,
    "pointId": 182,
    "rewardId": 220311,
    "MNGLFLKHIDK": [],
    "groupIdVec": []
  },
  {
    "sceneId": 3,
    "pointId": 197,
    "rewardId": 220311,
    "MNGLFLKHIDK": [],
    "groupIdVec": []
  },
  {
    "sceneId": 3,
    "pointId": 200,
    "rewardId": 220311,
    "MNGLFLKHIDK": [],
    "groupIdVec": []
  },
  {
    "sceneId": 3,
    "pointId": 204,
    "rewardId": 220311,
    "MNGLFLKHIDK": [],
    "groupIdVec": []
  },
  {
    "sceneId": 3,
    "pointId": 205,
    "rewardId": 220311,
    "MNGLFLKHIDK": [],
    "groupIdVec": []
  },
  {
    "sceneId": 3,
    "pointId": 206,
    "rewardId": 220311,
    "MNGLFLKHIDK": [],
    "groupIdVec": []
  },
  {
    "sceneId": 3,
    "pointId": 208,
    "rewardId": 220311,
    "MNGLFLKHIDK": [],
    "groupIdVec": []
  },
  {
    "sceneId": 3,
    "pointId": 209,
    "rewardId": 220311,
    "MNGLFLKHIDK": [],
    "groupIdVec": []
  },
  {
    "sceneId": 3,
    "pointId": 210,
    "rewardId": 220311,
    "MNGLFLKHIDK": [],
    "groupIdVec": []
  },
  {
    "sceneId": 3,
    "pointId": 211,
    "rewardId": 220311,
    "MNGLFLKHIDK": [],
    "groupIdVec": []
  },
  {
    "sceneId": 3,
    "pointId": 212,
    "rewardId": 220311,
    "MNGLFLKHIDK": [],
    "groupIdVec": []
  },
  {
    "sceneId": 3,
    "pointId": 213,
    "rewardId": 220311,
    "MNGLFLKHIDK": [],
    "groupIdVec": []
  },
  {
    "sceneId": 3,
    "pointId": 214,
    "rewardId": 220311,
    "MNGLFLKHIDK": [],
    "groupIdVec": []
  },
  {
    "sceneId": 3,
    "pointId": 222,
    "rewardId": 220311,
    "MNGLFLKHIDK": [],
    "groupIdVec": []
  },
  {
    "sceneId": 3,
    "pointId": 225,
    "rewardId": 220311,
    "MNGLFLKHIDK": [],
    "groupIdVec": []
  },
  {
    "sceneId": 3,
    "pointId": 228,
    "rewardId": 220311,
    "MNGLFLKHIDK": [],
    "groupIdVec": []
  },
  {
    "sceneId": 3,
    "pointId": 234,
    "rewardId": 220311,
    "MNGLFLKHIDK": [],
    "groupIdVec": []
  },
  {
    "sceneId": 3,
    "pointId": 235,
    "rewardId": 220311,
    "MNGLFLKHIDK": [],
    "groupIdVec": []
  },
  {
    "sceneId": 3,
    "pointId": 236,
    "rewardId": 220311,
    "MNGLFLKHIDK": [],
    "groupIdVec": []
  },
  {
    "sceneId": 3,
    "pointId": 241,
    "rewardId": 220311,
    "MNGLFLKHIDK": [],
    "groupIdVec": [16]
  },
  {
    "sceneId": 3,
    "pointId": 242,
    "rewardId": 220311,
    "MNGLFLKHIDK": [],
    "groupIdVec": []
  },
  {
    "sceneId": 3,
    "pointId": 244,
    "rewardId": 220311,
    "MNGLFLKHIDK": [],
    "groupIdVec": []
  },
  {
    "sceneId": 3,
    "pointId": 245,
    "rewardId": 220311,
    "MNGLFLKHIDK": [],
    "groupIdVec": []
  },
  {
    "sceneId": 3,
    "pointId": 246,
    "rewardId": 220311,
    "MNGLFLKHIDK": [],
    "groupIdVec": []
  },
  {
    "sceneId": 3,
    "pointId": 296,
    "rewardId": 220311,
    "MNGLFLKHIDK": [],
    "groupIdVec": []
  },
  {
    "sceneId": 3,
    "pointId": 298,
    "rewardId": 220311,
    "MNGLFLKHIDK": [],
    "groupIdVec": []
  },
  {
    "sceneId": 3,
    "pointId": 301,
    "rewardId": 220311,
    "MNGLFLKHIDK": [],
    "groupIdVec": []
  },
  {
    "sceneId": 3,
    "pointId": 302,
    "rewardId": 220311,
    "MNGLFLKHIDK": [],
    "groupIdVec": []
  },
  {
    "sceneId": 3,
    "pointId": 304,
    "rewardId": 220311,
    "MNGLFLKHIDK": [],
    "groupIdVec": []
  },
  {
    "sceneId": 3,
    "pointId": 305,
    "rewardId": 220311,
    "MNGLFLKHIDK": [],
    "groupIdVec": []
  },
  {
    "sceneId": 3,
    "pointId": 306,
    "rewardId": 220311,
    "MNGLFLKHIDK": [],
    "groupIdVec": []
  },
  {
    "sceneId": 3,
    "pointId": 331,
    "rewardId": 220311,
    "MNGLFLKHIDK": [],
    "groupIdVec": []
  },
  {
    "sceneId": 3,
    "pointId": 247,
    "rewardId": 220311,
    "MNGLFLKHIDK": [],
    "groupIdVec": []
  },
  {
    "sceneId": 3,
    "pointId": 248,
    "rewardId": 220311,
    "MNGLFLKHIDK": [],
    "groupIdVec": []
  },
  {
    "sceneId": 3,
    "pointId": 249,
    "rewardId": 220311,
    "MNGLFLKHIDK": [],
    "groupIdVec": []
  },
  {
    "sceneId": 3,
    "pointId": 250,
    "rewardId": 220311,
    "MNGLFLKHIDK": [],
    "groupIdVec": []
  },
  {
    "sceneId": 3,
    "pointId": 251,
    "rewardId": 220311,
    "MNGLFLKHIDK": [],
    "groupIdVec": []
  },
  {
    "sceneId": 3,
    "pointId": 252,
    "rewardId": 220311,
    "MNGLFLKHIDK": [],
    "groupIdVec": []
  },
  {
    "sceneId": 3,
    "pointId": 253,
    "rewardId": 220311,
    "MNGLFLKHIDK": [],
    "groupIdVec": []
  },
  {
    "sceneId": 3,
    "pointId": 254,
    "rewardId": 220311,
    "MNGLFLKHIDK": [],
    "groupIdVec": []
  },
  {
    "sceneId": 3,
    "pointId": 255,
    "rewardId": 220311,
    "MNGLFLKHIDK": [],
    "groupIdVec": []
  },
  {
    "sceneId": 3,
    "pointId": 256,
    "rewardId": 220311,
    "MNGLFLKHIDK": [],
    "groupIdVec": []
  },
  {
    "sceneId": 3,
    "pointId": 257,
    "rewardId": 220311,
    "MNGLFLKHIDK": [],
    "groupIdVec": []
  },
  {
    "sceneId": 3,
    "pointId": 258,
    "rewardId": 220311,
    "MNGLFLKHIDK": [],
    "groupIdVec": []
  },
  {
    "sceneId": 4,
    "pointId": 1,
    "rewardId": 220311,
    "MNGLFLKHIDK": [],
    "groupIdVec": []
  },
  {
    "sceneId": 4,
    "pointId": 2,
    "rewardId": 220311,
    "MNGLFLKHIDK": [],
    "groupIdVec": [100]
  },
  {
    "sceneId": 4,
    "pointId": 3,
    "rewardId": 220311,
    "MNGLFLKHIDK": [],
    "groupIdVec": []
  },
  {
    "sceneId": 4,
    "pointId": 5,
    "rewardId": 220311,
    "MNGLFLKHIDK": [],
    "groupIdVec": []
  },
  {
    "sceneId": 4,
    "pointId": 6,
    "rewardId": 220311,
    "MNGLFLKHIDK": [],
    "groupIdVec": []
  },
  {
    "sceneId": 4,
    "pointId": 8,
    "rewardId": 220311,
    "MNGLFLKHIDK": [],
    "groupIdVec": [101]
  },
  {
    "sceneId": 4,
    "pointId": 9,
    "rewardId": 220311,
    "MNGLFLKHIDK": [],
    "groupIdVec": [102]
  },
  {
    "sceneId": 4,
    "pointId": 10,
    "rewardId": 220311,
    "MNGLFLKHIDK": [],
    "groupIdVec": [103]
  },
  {
    "sceneId": 4,
    "pointId": 28,
    "rewardId": 220311,
    "MNGLFLKHIDK": [],
    "groupIdVec": []
  },
  {
    "sceneId": 4,
    "pointId": 29,
    "rewardId": 220311,
    "MNGLFLKHIDK": [],
    "groupIdVec": []
  },
  {
    "sceneId": 4,
    "pointId": 30,
    "rewardId": 220311,
    "MNGLFLKHIDK": [],
    "groupIdVec": []
  },
  {
    "sceneId": 3,
    "pointId": 293,
    "rewardId": 220311,
    "MNGLFLKHIDK": [],
    "groupIdVec": []
  },
  {
    "sceneId": 3,
    "pointId": 307,
    "rewardId": 220311,
    "MNGLFLKHIDK": [],
    "groupIdVec": []
  },
  {
    "sceneId": 3,
    "pointId": 314,
    "rewardId": 220311,
    "MNGLFLKHIDK": [],
    "groupIdVec": []
  },
  {
    "sceneId": 3,
    "pointId": 318,
    "rewardId": 220311,
    "MNGLFLKHIDK": [],
    "groupIdVec": []
  },
  {
    "sceneId": 3,
    "pointId": 319,
    "rewardId": 220311,
    "MNGLFLKHIDK": [],
    "groupIdVec": []
  },
  {
    "sceneId": 3,
    "pointId": 320,
    "rewardId": 220311,
    "MNGLFLKHIDK": [],
    "groupIdVec": []
  },
  {
    "sceneId": 3,
    "pointId": 321,
    "rewardId": 220311,
    "MNGLFLKHIDK": [],
    "groupIdVec": []
  },
  {
    "sceneId": 3,
    "pointId": 322,
    "rewardId": 220311,
    "MNGLFLKHIDK": [],
    "groupIdVec": []
  },
  {
    "sceneId": 3,
    "pointId": 316,
    "rewardId": 220311,
    "MNGLFLKHIDK": [],
    "groupIdVec": []
  },
  {
    "sceneId": 3,
    "pointId": 324,
    "rewardId": 220311,
    "MNGLFLKHIDK": [],
    "groupIdVec": []
  },
  {
    "sceneId": 3,
    "pointId": 325,
    "rewardId": 220311,
    "MNGLFLKHIDK": [],
    "groupIdVec": []
  },
  {
    "sceneId": 3,
    "pointId": 326,
    "rewardId": 220311,
    "MNGLFLKHIDK": [],
    "groupIdVec": []
  },
  {
    "sceneId": 3,
    "pointId": 327,
    "rewardId": 220311,
    "MNGLFLKHIDK": [],
    "groupIdVec": []
  },
  {
    "sceneId": 3,
    "pointId": 328,
    "rewardId": 220311,
    "MNGLFLKHIDK": [],
    "groupIdVec": []
  },
  {
    "sceneId": 3,
    "pointId": 329,
    "rewardId": 220311,
    "MNGLFLKHIDK": [],
    "groupIdVec": []
  },
  {
    "sceneId": 3,
    "pointId": 330,
    "rewardId": 220311,
    "MNGLFLKHIDK": [],
    "groupIdVec": []
  },
  {
    "sceneId": 3,
    "pointId": 332,
    "rewardId": 220311,
    "MNGLFLKHIDK": [],
    "groupIdVec": []
  },
  {
    "sceneId": 3,
    "pointId": 365,
    "rewardId": 220311,
    "MNGLFLKHIDK": [],
    "groupIdVec": []
  },
  {
    "sceneId": 3,
    "pointId": 366,
    "rewardId": 220311,
    "MNGLFLKHIDK": [],
    "groupIdVec": []
  },
  {
    "sceneId": 3,
    "pointId": 380,
    "rewardId": 220311,
    "MNGLFLKHIDK": [],
    "groupIdVec": []
  },
  {
    "sceneId": 3,
    "pointId": 381,
    "rewardId": 220311,
    "MNGLFLKHIDK": [],
    "groupIdVec": []
  },
  {
    "sceneId": 3,
    "pointId": 382,
    "rewardId": 220311,
    "MNGLFLKHIDK": [],
    "groupIdVec": []
  },
  {
    "sceneId": 3,
    "pointId": 383,
    "rewardId": 220311,
    "MNGLFLKHIDK": [],
    "groupIdVec": []
  },
  {
    "sceneId": 3,
    "pointId": 384,
    "rewardId": 220311,
    "MNGLFLKHIDK": [],
    "groupIdVec": []
  },
  {
    "sceneId": 3,
    "pointId": 432,
    "rewardId": 220311,
    "MNGLFLKHIDK": [],
    "groupIdVec": []
  },
  {
    "sceneId": 3,
    "pointId": 435,
    "rewardId": 220311,
    "MNGLFLKHIDK": [],
    "groupIdVec": []
  },
  {
    "sceneId": 5,
    "pointId": 1,
    "rewardId": 220311,
    "MNGLFLKHIDK": [],
    "groupIdVec": []
  },
  {
    "sceneId": 5,
    "pointId": 2,
    "rewardId": 220311,
    "MNGLFLKHIDK": [],
    "groupIdVec": []
  },
  {
    "sceneId": 5,
    "pointId": 3,
    "rewardId": 220311,
    "MNGLFLKHIDK": [],
    "groupIdVec": []
  },
  {
    "sceneId": 5,
    "pointId": 4,
    "rewardId": 220311,
    "MNGLFLKHIDK": [],
    "groupIdVec": []
  },
  {
    "sceneId": 5,
    "pointId": 6,
    "rewardId": 220311,
    "MNGLFLKHIDK": [],
    "groupIdVec": []
  },
  {
    "sceneId": 5,
    "pointId": 9,
    "rewardId": 220311,
    "MNGLFLKHIDK": [],
    "groupIdVec": []
  },
  {
    "sceneId": 5,
    "pointId": 10,
    "rewardId": 220311,
    "MNGLFLKHIDK": [],
    "groupIdVec": []
  },
  {
    "sceneId": 5,
    "pointId": 12,
    "rewardId": 220311,
    "MNGLFLKHIDK": [],
    "groupIdVec": []
  },
  {
    "sceneId": 5,
    "pointId": 14,
    "rewardId": 220311,
    "MNGLFLKHIDK": [],
    "groupIdVec": []
  },
  {
    "sceneId": 5,
    "pointId": 17,
    "rewardId": 220311,
    "MNGLFLKHIDK": [],
    "groupIdVec": []
  },
  {
    "sceneId": 5,
    "pointId": 20,
    "rewardId": 220311,
    "MNGLFLKHIDK": [],
    "groupIdVec": []
  },
  {
    "sceneId": 5,
    "pointId": 21,
    "rewardId": 220311,
    "MNGLFLKHIDK": [],
    "groupIdVec": []
  },
  {
    "sceneId": 5,
    "pointId": 22,
    "rewardId": 220311,
    "MNGLFLKHIDK": [],
    "groupIdVec": []
  },
  {
    "sceneId": 5,
    "pointId": 24,
    "rewardId": 220311,
    "MNGLFLKHIDK": [],
    "groupIdVec": []
  },
  {
    "sceneId": 5,
    "pointId": 25,
    "rewardId": 220311,
    "MNGLFLKHIDK": [],
    "groupIdVec": []
  },
  {
    "sceneId": 5,
    "pointId": 26,
    "rewardId": 220311,
    "MNGLFLKHIDK": [],
    "groupIdVec": []
  },
  {
    "sceneId": 5,
    "pointId": 27,
    "rewardId": 220311,
    "MNGLFLKHIDK": [],
    "groupIdVec": []
  },
  {
    "sceneId": 5,
    "pointId": 29,
    "rewardId": 220311,
    "MNGLFLKHIDK": [],
    "groupIdVec": []
  },
  {
    "sceneId": 5,
    "pointId": 30,
    "rewardId": 220311,
    "MNGLFLKHIDK": [],
    "groupIdVec": []
  },
  {
    "sceneId": 5,
    "pointId": 31,
    "rewardId": 220311,
    "MNGLFLKHIDK": [],
    "groupIdVec": []
  },
  {
    "sceneId": 5,
    "pointId": 32,
    "rewardId": 220311,
    "MNGLFLKHIDK": [],
    "groupIdVec": []
  },
  {
    "sceneId": 5,
    "pointId": 33,
    "rewardId": 220311,
    "MNGLFLKHIDK": [],
    "groupIdVec": []
  },
  {
    "sceneId": 5,
    "pointId": 34,
    "rewardId": 220311,
    "MNGLFLKHIDK": [],
    "groupIdVec": []
  },
  {
    "sceneId": 5,
    "pointId": 39,
    "rewardId": 220311,
    "MNGLFLKHIDK": [],
    "groupIdVec": []
  },
  {
    "sceneId": 5,
    "pointId": 35,
    "rewardId": 220311,
    "MNGLFLKHIDK": [],
    "groupIdVec": []
  },
  {
    "sceneId": 7,
    "pointId": 2,
    "rewardId": 220312,
    "MNGLFLKHIDK": [],
    "groupIdVec": []
  },
  {
    "sceneId": 7,
    "pointId": 3,
    "rewardId": 220312,
    "MNGLFLKHIDK": [],
    "groupIdVec": []
  },
  {
    "sceneId": 7,
    "pointId": 10,
    "rewardId": 220312,
    "MNGLFLKHIDK": [],
    "groupIdVec": []
  },
  {
    "sceneId": 7,
    "pointId": 7,
    "rewardId": 220312,
    "MNGLFLKHIDK": [],
    "groupIdVec": []
  },
  {
    "sceneId": 7,
    "pointId": 5,
    "rewardId": 220312,
    "MNGLFLKHIDK": [],
    "groupIdVec": []
  },
  {
    "sceneId": 7,
    "pointId": 8,
    "rewardId": 220312,
    "MNGLFLKHIDK": [],
    "groupIdVec": []
  },
  {
    "sceneId": 7,
    "pointId": 9,
    "rewardId": 220312,
    "MNGLFLKHIDK": [],
    "groupIdVec": []
  },
  {
    "sceneId": 7,
    "pointId": 15,
    "rewardId": 220312,
    "MNGLFLKHIDK": [],
    "groupIdVec": []
  },
  {
    "sceneId": 7,
    "pointId": 16,
    "rewardId": 220312,
    "MNGLFLKHIDK": [],
    "groupIdVec": []
  },
  {
    "sceneId": 7,
    "pointId": 17,
    "rewardId": 220312,
    "MNGLFLKHIDK": [],
    "groupIdVec": []
  },
  {
    "sceneId": 3,
    "pointId": 462,
    "rewardId": 220314,
    "MNGLFLKHIDK": [],
    "groupIdVec": []
  },
  {
    "sceneId": 3,
    "pointId": 463,
    "rewardId": 220314,
    "MNGLFLKHIDK": [],
    "groupIdVec": []
  },
  {
    "sceneId": 3,
    "pointId": 464,
    "rewardId": 220314,
    "MNGLFLKHIDK": [],
    "groupIdVec": []
  },
  {
    "sceneId": 3,
    "pointId": 465,
    "rewardId": 220314,
    "MNGLFLKHIDK": [],
    "groupIdVec": []
  },
  {
    "sceneId": 3,
    "pointId": 471,
    "rewardId": 220314,
    "MNGLFLKHIDK": [],
    "groupIdVec": []
  },
  {
    "sceneId": 3,
    "pointId": 472,
    "rewardId": 220314,
    "MNGLFLKHIDK": [],
    "groupIdVec": []
  },
  {
    "sceneId": 3,
    "pointId": 480,
    "rewardId": 220314,
    "MNGLFLKHIDK": [],
    "groupIdVec": []
  },
  {
    "sceneId": 3,
    "pointId": 481,
    "rewardId": 220314,
    "MNGLFLKHIDK": [],
    "groupIdVec": []
  },
  {
    "sceneId": 3,
    "pointId": 482,
    "rewardId": 220314,
    "MNGLFLKHIDK": [],
    "groupIdVec": []
  },
  {
    "sceneId": 3,
    "pointId": 483,
    "rewardId": 220314,
    "MNGLFLKHIDK": [],
    "groupIdVec": []
  },
  {
    "sceneId": 3,
    "pointId": 484,
    "rewardId": 220314,
    "MNGLFLKHIDK": [],
    "groupIdVec": []
  },
  {
    "sceneId": 3,
    "pointId": 485,
    "rewardId": 220314,
    "MNGLFLKHIDK": [],
    "groupIdVec": []
  },
  {
    "sceneId": 3,
    "pointId": 486,
    "rewardId": 220314,
    "MNGLFLKHIDK": [],
    "groupIdVec": []
  },
  {
    "sceneId": 3,
    "pointId": 487,
    "rewardId": 220314,
    "MNGLFLKHIDK": [],
    "groupIdVec": []
  },
  {
    "sceneId": 3,
    "pointId": 488,
    "rewardId": 220314,
    "MNGLFLKHIDK": [],
    "groupIdVec": []
  },
  {
    "sceneId": 3,
    "pointId": 489,
    "rewardId": 220314,
    "MNGLFLKHIDK": [],
    "groupIdVec": []
  },
  {
    "sceneId": 3,
    "pointId": 490,
    "rewardId": 220314,
    "MNGLFLKHIDK": [],
    "groupIdVec": []
  },
  {
    "sceneId": 3,
    "pointId": 491,
    "rewardId": 220314,
    "MNGLFLKHIDK": [],
    "groupIdVec": []
  },
  {
    "sceneId": 3,
    "pointId": 492,
    "rewardId": 220314,
    "MNGLFLKHIDK": [],
    "groupIdVec": []
  },
  {
    "sceneId": 3,
    "pointId": 493,
    "rewardId": 220314,
    "MNGLFLKHIDK": [],
    "groupIdVec": []
  },
  {
    "sceneId": 3,
    "pointId": 494,
    "rewardId": 220314,
    "MNGLFLKHIDK": [],
    "groupIdVec": []
  },
  {
    "sceneId": 3,
    "pointId": 495,
    "rewardId": 220314,
    "MNGLFLKHIDK": [],
    "groupIdVec": []
  },
  {
    "sceneId": 3,
    "pointId": 496,
    "rewardId": 220314,
    "MNGLFLKHIDK": [],
    "groupIdVec": []
  },
  {
    "sceneId": 3,
    "pointId": 497,
    "rewardId": 220314,
    "MNGLFLKHIDK": [],
    "groupIdVec": []
  },
  {
    "sceneId": 3,
    "pointId": 498,
    "rewardId": 220314,
    "MNGLFLKHIDK": [],
    "groupIdVec": []
  },
  {
    "sceneId": 3,
    "pointId": 499,
    "rewardId": 220314,
    "MNGLFLKHIDK": [],
    "groupIdVec": []
  },
  {
    "sceneId": 3,
    "pointId": 500,
    "rewardId": 220314,
    "MNGLFLKHIDK": [],
    "groupIdVec": []
  },
  {
    "sceneId": 3,
    "pointId": 501,
    "rewardId": 220314,
    "MNGLFLKHIDK": [],
    "groupIdVec": []
  },
  {
    "sceneId": 3,
    "pointId": 502,
    "rewardId": 220314,
    "MNGLFLKHIDK": [],
    "groupIdVec": []
  },
  {
    "sceneId": 3,
    "pointId": 575,
    "rewardId": 220314,
    "MNGLFLKHIDK": [],
    "groupIdVec": []
  },
  {
    "sceneId": 3,
    "pointId": 586,
    "rewardId": 220314,
    "MNGLFLKHIDK": [],
    "groupIdVec": []
  },
  {
    "sceneId": 3,
    "pointId": 587,
    "rewardId": 220314,
    "MNGLFLKHIDK": [],
    "groupIdVec": []
  },
  {
    "sceneId": 3,
    "pointId": 588,
    "rewardId": 220314,
    "MNGLFLKHIDK": [],
    "groupIdVec": []
  },
  {
    "sceneId": 3,
    "pointId": 589,
    "rewardId": 220314,
    "MNGLFLKHIDK": [],
    "groupIdVec": []
  },
  {
    "sceneId": 3,
    "pointId": 598,
    "rewardId": 220314,
    "MNGLFLKHIDK": [],
    "groupIdVec": []
  },
  {
    "sceneId": 3,
    "pointId": 604,
    "rewardId": 220314,
    "MNGLFLKHIDK": [],
    "groupIdVec": []
  },
  {
    "sceneId": 3,
    "pointId": 605,
    "rewardId": 220314,
    "MNGLFLKHIDK": [],
    "groupIdVec": []
  },
  {
    "sceneId": 3,
    "pointId": 606,
    "rewardId": 220314,
    "MNGLFLKHIDK": [],
    "groupIdVec": []
  },
  {
    "sceneId": 3,
    "pointId": 615,
    "rewardId": 220314,
    "MNGLFLKHIDK": [],
    "groupIdVec": []
  },
  {
    "sceneId": 3,
    "pointId": 616,
    "rewardId": 220314,
    "MNGLFLKHIDK": [],
    "groupIdVec": []
  },
  {
    "sceneId": 3,
    "pointId": 676,
    "rewardId": 220311,
    "MNGLFLKHIDK": [],
    "groupIdVec": []
  },
  {
    "sceneId": 6,
    "pointId": 1,
    "rewardId": 220311,
    "MNGLFLKHIDK": [],
    "groupIdVec": []
  },
  {
    "sceneId": 6,
    "pointId": 2,
    "rewardId": 220311,
    "MNGLFLKHIDK": [],
    "groupIdVec": []
  },
  {
    "sceneId": 6,
    "pointId": 3,
    "rewardId": 220311,
    "MNGLFLKHIDK": [],
    "groupIdVec": []
  },
  {
    "sceneId": 6,
    "pointId": 4,
    "rewardId": 220311,
    "MNGLFLKHIDK": [],
    "groupIdVec": []
  },
  {
    "sceneId": 6,
    "pointId": 5,
    "rewardId": 220311,
    "MNGLFLKHIDK": [],
    "groupIdVec": []
  },
  {
    "sceneId": 6,
    "pointId": 6,
    "rewardId": 220311,
    "MNGLFLKHIDK": [],
    "groupIdVec": []
  },
  {
    "sceneId": 6,
    "pointId": 7,
    "rewardId": 220311,
    "MNGLFLKHIDK": [],
    "groupIdVec": []
  },
  {
    "sceneId": 6,
    "pointId": 8,
    "rewardId": 220311,
    "MNGLFLKHIDK": [],
    "groupIdVec": []
  },
  {
    "sceneId": 6,
    "pointId": 9,
    "rewardId": 220311,
    "MNGLFLKHIDK": [],
    "groupIdVec": []
  },
  {
    "sceneId": 6,
    "pointId": 10,
    "rewardId": 220311,
    "MNGLFLKHIDK": [],
    "groupIdVec": []
  },
  {
    "sceneId": 6,
    "pointId": 11,
    "rewardId": 220311,
    "MNGLFLKHIDK": [],
    "groupIdVec": []
  },
  {
    "sceneId": 6,
    "pointId": 12,
    "rewardId": 220311,
    "MNGLFLKHIDK": [],
    "groupIdVec": []
  },
  {
    "sceneId": 6,
    "pointId": 13,
    "rewardId": 220311,
    "MNGLFLKHIDK": [],
    "groupIdVec": []
  },
  {
    "sceneId": 6,
    "pointId": 14,
    "rewardId": 220311,
    "MNGLFLKHIDK": [],
    "groupIdVec": []
  },
  {
    "sceneId": 6,
    "pointId": 17,
    "rewardId": 220311,
    "MNGLFLKHIDK": [],
    "groupIdVec": []
  },
  {
    "sceneId": 3,
    "pointId": 442,
    "rewardId": 220311,
    "MNGLFLKHIDK": [],
    "groupIdVec": []
  },
  {
    "sceneId": 3,
    "pointId": 443,
    "rewardId": 220311,
    "MNGLFLKHIDK": [],
    "groupIdVec": []
  },
  {
    "sceneId": 3,
    "pointId": 444,
    "rewardId": 220311,
    "MNGLFLKHIDK": [],
    "groupIdVec": []
  },
  {
    "sceneId": 3,
    "pointId": 445,
    "rewardId": 220311,
    "MNGLFLKHIDK": [],
    "groupIdVec": []
  },
  {
    "sceneId": 3,
    "pointId": 446,
    "rewardId": 220311,
    "MNGLFLKHIDK": [],
    "groupIdVec": []
  },
  {
    "sceneId": 3,
    "pointId": 438,
    "rewardId": 220311,
    "MNGLFLKHIDK": [],
    "groupIdVec": []
  },
  {
    "sceneId": 9,
    "pointId": 1,
    "rewardId": 220313,
    "MNGLFLKHIDK": [],
    "groupIdVec": []
  },
  {
    "sceneId": 9,
    "pointId": 2,
    "rewardId": 220313,
    "MNGLFLKHIDK": [],
    "groupIdVec": []
  },
  {
    "sceneId": 9,
    "pointId": 3,
    "rewardId": 220313,
    "MNGLFLKHIDK": [],
    "groupIdVec": []
  },
  {
    "sceneId": 9,
    "pointId": 4,
    "rewardId": 220313,
    "MNGLFLKHIDK": [],
    "groupIdVec": []
  },
  {
    "sceneId": 9,
    "pointId": 5,
    "rewardId": 220313,
    "MNGLFLKHIDK": [],
    "groupIdVec": [400]
  },
  {
    "sceneId": 9,
    "pointId": 6,
    "rewardId": 220313,
    "MNGLFLKHIDK": [],
    "groupIdVec": [401]
  },
  {
    "sceneId": 9,
    "pointId": 62,
    "rewardId": 220313,
    "MNGLFLKHIDK": [],
    "groupIdVec": []
  },
  {
    "sceneId": 9,
    "pointId": 7,
    "rewardId": 220313,
    "MNGLFLKHIDK": [],
    "groupIdVec": [402]
  },
  {
    "sceneId": 9,
    "pointId": 8,
    "rewardId": 220313,
    "MNGLFLKHIDK": [],
    "groupIdVec": []
  },
  {
    "sceneId": 9,
    "pointId": 33,
    "rewardId": 220313,
    "MNGLFLKHIDK": [],
    "groupIdVec": [403]
  },
  {
    "sceneId": 9,
    "pointId": 34,
    "rewardId": 220313,
    "MNGLFLKHIDK": [],
    "groupIdVec": []
  },
  {
    "sceneId": 9,
    "pointId": 35,
    "rewardId": 220313,
    "MNGLFLKHIDK": [],
    "groupIdVec": []
  },
  {
    "sceneId": 9,
    "pointId": 56,
    "rewardId": 220313,
    "MNGLFLKHIDK": [],
    "groupIdVec": []
  },
  {
    "sceneId": 9,
    "pointId": 60,
    "rewardId": 220313,
    "MNGLFLKHIDK": [],
    "groupIdVec": []
  },
  {
    "sceneId": 3,
    "pointId": 534,
    "rewardId": 220314,
    "MNGLFLKHIDK": [],
    "groupIdVec": []
  },
  {
    "sceneId": 3,
    "pointId": 535,
    "rewardId": 220314,
    "MNGLFLKHIDK": [],
    "groupIdVec": []
  },
  {
    "sceneId": 3,
    "pointId": 536,
    "rewardId": 220314,
    "MNGLFLKHIDK": [],
    "groupIdVec": []
  },
  {
    "sceneId": 3,
    "pointId": 537,
    "rewardId": 220314,
    "MNGLFLKHIDK": [],
    "groupIdVec": []
  },
  {
    "sceneId": 3,
    "pointId": 538,
    "rewardId": 220314,
    "MNGLFLKHIDK": [],
    "groupIdVec": []
  },
  {
    "sceneId": 3,
    "pointId": 539,
    "rewardId": 220314,
    "MNGLFLKHIDK": [],
    "groupIdVec": []
  },
  {
    "sceneId": 3,
    "pointId": 540,
    "rewardId": 220314,
    "MNGLFLKHIDK": [],
    "groupIdVec": []
  },
  {
    "sceneId": 3,
    "pointId": 541,
    "rewardId": 220314,
    "MNGLFLKHIDK": [],
    "groupIdVec": []
  },
  {
    "sceneId": 3,
    "pointId": 542,
    "rewardId": 220314,
    "MNGLFLKHIDK": [],
    "groupIdVec": []
  },
  {
    "sceneId": 3,
    "pointId": 543,
    "rewardId": 220314,
    "MNGLFLKHIDK": [],
    "groupIdVec": []
  },
  {
    "sceneId": 3,
    "pointId": 544,
    "rewardId": 220314,
    "MNGLFLKHIDK": [],
    "groupIdVec": []
  },
  {
    "sceneId": 3,
    "pointId": 545,
    "rewardId": 220314,
    "MNGLFLKHIDK": [],
    "groupIdVec": []
  },
  {
    "sceneId": 3,
    "pointId": 546,
    "rewardId": 220314,
    "MNGLFLKHIDK": [],
    "groupIdVec": []
  },
  {
    "sceneId": 3,
    "pointId": 547,
    "rewardId": 220314,
    "MNGLFLKHIDK": [],
    "groupIdVec": []
  },
  {
    "sceneId": 3,
    "pointId": 548,
    "rewardId": 220314,
    "MNGLFLKHIDK": [],
    "groupIdVec": []
  },
  {
    "sceneId": 3,
    "pointId": 549,
    "rewardId": 220314,
    "MNGLFLKHIDK": [],
    "groupIdVec": []
  },
  {
    "sceneId": 3,
    "pointId": 550,
    "rewardId": 220314,
    "MNGLFLKHIDK": [],
    "groupIdVec": []
  },
  {
    "sceneId": 3,
    "pointId": 551,
    "rewardId": 220314,
    "MNGLFLKHIDK": [],
    "groupIdVec": []
  },
  {
    "sceneId": 3,
    "pointId": 552,
    "rewardId": 220314,
    "MNGLFLKHIDK": [],
    "groupIdVec": []
  },
  {
    "sceneId": 3,
    "pointId": 553,
    "rewardId": 220314,
    "MNGLFLKHIDK": [],
    "groupIdVec": []
  },
  {
    "sceneId": 3,
    "pointId": 555,
    "rewardId": 220314,
    "MNGLFLKHIDK": [],
    "groupIdVec": []
  },
  {
    "sceneId": 3,
    "pointId": 557,
    "rewardId": 220314,
    "MNGLFLKHIDK": [],
    "groupIdVec": []
  },
  {
    "sceneId": 3,
    "pointId": 558,
    "rewardId": 220314,
    "MNGLFLKHIDK": [],
    "groupIdVec": []
  },
  {
    "sceneId": 3,
    "pointId": 626,
    "rewardId": 220314,
    "MNGLFLKHIDK": [],
    "groupIdVec": []
  },
  {
    "sceneId": 3,
    "pointId": 653,
    "rewardId": 220314,
    "MNGLFLKHIDK": [],
    "groupIdVec": []
  },
  {
    "sceneId": 3,
    "pointId": 629,
    "rewardId": 220314,
    "MNGLFLKHIDK": [],
    "groupIdVec": []
  },
  {
    "sceneId": 3,
    "pointId": 517,
    "rewardId": 220314,
    "MNGLFLKHIDK": [],
    "groupIdVec": []
  },
  {
    "sceneId": 3,
    "pointId": 518,
    "rewardId": 220314,
    "MNGLFLKHIDK": [],
    "groupIdVec": []
  },
  {
    "sceneId": 3,
    "pointId": 519,
    "rewardId": 220314,
    "MNGLFLKHIDK": [],
    "groupIdVec": []
  },
  {
    "sceneId": 3,
    "pointId": 577,
    "rewardId": 220314,
    "MNGLFLKHIDK": [],
    "groupIdVec": []
  },
  {
    "sceneId": 3,
    "pointId": 599,
    "rewardId": 220314,
    "MNGLFLKHIDK": [],
    "groupIdVec": []
  },
  {
    "sceneId": 3,
    "pointId": 602,
    "rewardId": 220314,
    "MNGLFLKHIDK": [],
    "groupIdVec": []
  },
  {
    "sceneId": 3,
    "pointId": 603,
    "rewardId": 220314,
    "MNGLFLKHIDK": [],
    "groupIdVec": []
  },
  {
    "sceneId": 3,
    "pointId": 612,
    "rewardId": 220314,
    "MNGLFLKHIDK": [],
    "groupIdVec": []
  },
  {
    "sceneId": 3,
    "pointId": 623,
    "rewardId": 220314,
    "MNGLFLKHIDK": [],
    "groupIdVec": []
  },
  {
    "sceneId": 3,
    "pointId": 625,
    "rewardId": 220314,
    "MNGLFLKHIDK": [],
    "groupIdVec": []
  },
  {
    "sceneId": 3,
    "pointId": 652,
    "rewardId": 220314,
    "MNGLFLKHIDK": [],
    "groupIdVec": []
  },
  {
    "sceneId": 3,
    "pointId": 655,
    "rewardId": 220314,
    "MNGLFLKHIDK": [],
    "groupIdVec": []
  },
  {
    "sceneId": 3,
    "pointId": 665,
    "rewardId": 220314,
    "MNGLFLKHIDK": [],
    "groupIdVec": []
  },
  {
    "sceneId": 3,
    "pointId": 631,
    "rewardId": 220314,
    "MNGLFLKHIDK": [],
    "groupIdVec": []
  },
  {
    "sceneId": 3,
    "pointId": 632,
    "rewardId": 220314,
    "MNGLFLKHIDK": [],
    "groupIdVec": []
  },
  {
    "sceneId": 3,
    "pointId": 633,
    "rewardId": 220314,
    "MNGLFLKHIDK": [],
    "groupIdVec": []
  },
  {
    "sceneId": 3,
    "pointId": 634,
    "rewardId": 220314,
    "MNGLFLKHIDK": [],
    "groupIdVec": []
  },
  {
    "sceneId": 3,
    "pointId": 635,
    "rewardId": 220314,
    "MNGLFLKHIDK": [],
    "groupIdVec": []
  },
  {
    "sceneId": 3,
    "pointId": 636,
    "rewardId": 220314,
    "MNGLFLKHIDK": [],
    "groupIdVec": []
  },
  {
    "sceneId": 3,
    "pointId": 637,
    "rewardId": 220314,
    "MNGLFLKHIDK": [],
    "groupIdVec": []
  },
  {
    "sceneId": 3,
    "pointId": 638,
    "rewardId": 220314,
    "MNGLFLKHIDK": [],
    "groupIdVec": []
  },
  {
    "sceneId": 3,
    "pointId": 639,
    "rewardId": 220314,
    "MNGLFLKHIDK": [],
    "groupIdVec": []
  },
  {
    "sceneId": 3,
    "pointId": 640,
    "rewardId": 220314,
    "MNGLFLKHIDK": [],
    "groupIdVec": []
  },
  {
    "sceneId": 3,
    "pointId": 641,
    "rewardId": 220314,
    "MNGLFLKHIDK": [],
    "groupIdVec": []
  },
  {
    "sceneId": 3,
    "pointId": 642,
    "rewardId": 220314,
    "MNGLFLKHIDK": [],
    "groupIdVec": []
  },
  {
    "sceneId": 3,
    "pointId": 643,
    "rewardId": 220314,
    "MNGLFLKHIDK": [],
    "groupIdVec": []
  },
  {
    "sceneId": 3,
    "pointId": 644,
    "rewardId": 220314,
    "MNGLFLKHIDK": [],
    "groupIdVec": []
  },
  {
    "sceneId": 3,
    "pointId": 645,
    "rewardId": 220314,
    "MNGLFLKHIDK": [],
    "groupIdVec": []
  },
  {
    "sceneId": 3,
    "pointId": 666,
    "rewardId": 220314,
    "MNGLFLKHIDK": [],
    "groupIdVec": []
  },
  {
    "sceneId": 3,
    "pointId": 667,
    "rewardId": 220314,
    "MNGLFLKHIDK": [],
    "groupIdVec": []
  },
  {
    "sceneId": 3,
    "pointId": 668,
    "rewardId": 220314,
    "MNGLFLKHIDK": [],
    "groupIdVec": []
  },
  {
    "sceneId": 3,
    "pointId": 691,
    "rewardId": 220314,
    "MNGLFLKHIDK": [],
    "groupIdVec": []
  },
  {
    "sceneId": 3,
    "pointId": 702,
    "rewardId": 220314,
    "MNGLFLKHIDK": [],
    "groupIdVec": []
  },
  {
    "sceneId": 3,
    "pointId": 703,
    "rewardId": 220314,
    "MNGLFLKHIDK": [],
    "groupIdVec": []
  },
  {
    "sceneId": 3,
    "pointId": 706,
    "rewardId": 220314,
    "MNGLFLKHIDK": [],
    "groupIdVec": []
  },
  {
    "sceneId": 3,
    "pointId": 782,
    "rewardId": 220314,
    "MNGLFLKHIDK": [],
    "groupIdVec": []
  },
  {
    "sceneId": 3,
    "pointId": 783,
    "rewardId": 220314,
    "MNGLFLKHIDK": [],
    "groupIdVec": []
  },
  {
    "sceneId": 3,
    "pointId": 784,
    "rewardId": 220314,
    "MNGLFLKHIDK": [],
    "groupIdVec": []
  }
]
