[
  {
    "avatarId": 10000022,
    "BPOGONGMAIN": 111,
    "BLHCNGIKBMH": {
      "paramList": [39604]
    }
  },
  {
    "avatarId": 10000030,
    "BPOGONGMAIN": 118,
    "BLHCNGIKBMH": {
      "paramList": [102510]
    }
  },
  {
    "avatarId": 10000052,
    "BPOGONGMAIN": 139,
    "BLHCNGIKBMH": {
      "condType": "TRIAL_FETTER_CONDITION_LEVEL",
      "paramList": [1]
    }
  },
  {
    "avatarId": 10000073,
    "BPOGONGMAIN": 73600,
    "BLHCNGIKBMH": {
      "condType": "TRIAL_FETTER_CONDITION_LEVEL",
      "paramList": [1]
    }
  }
]
