[
  {
    "id": 1001,
    "triggerType": "VINTAGE_MARKET_EVENT_TRIGGER_ROUND",
    "AGNAJFOOLMF": "2",
    "KFOGGEMLJFE": "VINTAGE_MARKET_EVENT_NPC",
    "HCKBELDPEND": 301
  },
  {
    "id": 1002,
    "triggerType": "VINTAGE_MARKET_EVENT_TRIGGER_ROUND",
    "AGNAJFOOLMF": "4",
    "KFOGGEMLJFE": "VINTAGE_MARKET_EVENT_ENV",
    "HCKBELDPEND": 201
  },
  {
    "id": 1003,
    "triggerType": "VINTAGE_MARKET_EVENT_TRIGGER_ROUND",
    "AGNAJFOOLMF": "5",
    "KFOGGEMLJFE": "VINTAGE_MARKET_EVENT_NPC",
    "HCKBELDPEND": 302
  },
  {
    "id": 1004,
    "triggerType": "VINTAGE_MARKET_EVENT_TRIGGER_ROUND",
    "AGNAJFOOLMF": "7",
    "KFOGGEMLJFE": "VINTAGE_MARKET_EVENT_ENV",
    "HCKBELDPEND": 202
  },
  {
    "id": 1005,
    "triggerType": "VINTAGE_MARKET_EVENT_TRIGGER_ROUND",
    "AGNAJFOOLMF": "8",
    "KFOGGEMLJFE": "VINTAGE_MARKET_EVENT_NPC",
    "HCKBELDPEND": 303
  },
  {
    "id": 1006,
    "triggerType": "VINTAGE_MARKET_EVENT_TRIGGER_ROUND",
    "AGNAJFOOLMF": "12",
    "KFOGGEMLJFE": "VINTAGE_MARKET_EVENT_NPC",
    "HCKBELDPEND": 304
  },
  {
    "id": 1007,
    "triggerType": "VINTAGE_MARKET_EVENT_TRIGGER_ROUND",
    "AGNAJFOOLMF": "14",
    "KFOGGEMLJFE": "VINTAGE_MARKET_EVENT_ENV",
    "HCKBELDPEND": 203
  },
  {
    "id": 1008,
    "triggerType": "VINTAGE_MARKET_EVENT_TRIGGER_ROUND",
    "AGNAJFOOLMF": "15",
    "KFOGGEMLJFE": "VINTAGE_MARKET_EVENT_NPC",
    "HCKBELDPEND": 305
  },
  {
    "id": 1009,
    "triggerType": "VINTAGE_MARKET_EVENT_TRIGGER_ROUND",
    "AGNAJFOOLMF": "17",
    "KFOGGEMLJFE": "VINTAGE_MARKET_EVENT_ENV",
    "HCKBELDPEND": 204
  },
  {
    "id": 1010,
    "triggerType": "VINTAGE_MARKET_EVENT_TRIGGER_ROUND",
    "AGNAJFOOLMF": "18",
    "KFOGGEMLJFE": "VINTAGE_MARKET_EVENT_NPC",
    "HCKBELDPEND": 306
  }
]
