[
  {
    "id": 201,
    "duration": 1,
    "effectList": [
      {
        "type": "VINTAGE_MARKET_EFFECT_AIM_ATTR_ADD_FIXED",
        "param": "1;1;20"
      },
      {
        "param": ""
      },
      {
        "param": ""
      }
    ],
    "GEIGCKPALNJ": 3442844427
  },
  {
    "id": 202,
    "duration": 1,
    "effectList": [
      {
        "type": "VINTAGE_MARKET_EFFECT_AIM_ATTR_ADD_FIXED",
        "param": "1;1;40"
      },
      {
        "param": ""
      },
      {
        "param": ""
      }
    ],
    "GEIGCKPALNJ": 4064453595
  },
  {
    "id": 203,
    "duration": 1,
    "effectList": [
      {
        "type": "VINTAGE_MARKET_EFFECT_AIM_ATTR_ADD_FIXED",
        "param": "2;2;40"
      },
      {
        "type": "VINTAGE_MARKET_EFFECT_AIM_ATTR_ADD_FIXED",
        "param": "3;3;40"
      },
      {
        "param": ""
      }
    ],
    "GEIGCKPALNJ": 104923339
  },
  {
    "id": 204,
    "duration": 1,
    "effectList": [
      {
        "type": "VINTAGE_MARKET_EFFECT_AIM_ATTR_ADD_FIXED",
        "param": "1;1;40"
      },
      {
        "type": "VINTAGE_MARKET_EFFECT_AIM_ATTR_ADD_FIXED",
        "param": "2;2;40"
      },
      {
        "type": "VINTAGE_MARKET_EFFECT_AIM_ATTR_ADD_FIXED",
        "param": "3;3;40"
      }
    ],
    "GEIGCKPALNJ": 2615093779
  }
]
