[
  {
    "GMOLHDJMJPO": 1,
    "DDCFPBBLBLA": 1,
    "showType": "SHOW_TYPE_GOAL",
    "GPALKHLPFEH": [3, 5, 6],
    "titleTextMapHash": 4078243605,
    "MKJICHDMOHJ": 4265370155,
    "JIKLJDAEBGK": 1139993203
  },
  {
    "GMOLHDJMJPO": 2,
    "DDCFPBBLBLA": 1,
    "showType": "SHOW_TYPE_GOAL",
    "GPALKHLPFEH": [3, 4],
    "titleTextMapHash": 908839229,
    "MKJICHDMOHJ": 3839456987,
    "JIKLJDAEBGK": 2998250971
  },
  {
    "GMOLHDJMJPO": 3,
    "DDCFPBBLBLA": 25,
    "showType": "SHOW_TYPE_COIN",
    "GPALKHLPFEH": [],
    "titleTextMapHash": 3125199941,
    "MKJICHDMOHJ": 4083689019,
    "JIKLJDAEBGK": 3321720091
  },
  {
    "GMOLHDJMJPO": 4,
    "DDCFPBBLBLA": 3,
    "showType": "SHOW_TYPE_WIND",
    "GPALKHLPFEH": [],
    "titleTextMapHash": 3627460269,
    "MKJICHDMOHJ": 3887473715,
    "JIKLJDAEBGK": 1202179635
  },
  {
    "GMOLHDJMJPO": 5,
    "CCAPNGDPOHJ": 20,
    "showType": "SHOW_TYPE_WIND_TIME",
    "GPALKHLPFEH": [],
    "titleTextMapHash": 4186613405,
    "MKJICHDMOHJ": 4256680483,
    "JIKLJDAEBGK": 2017136555
  },
  {
    "GMOLHDJMJPO": 6,
    "showType": "SHOW_TYPE_WIND_PROGRESS",
    "GPALKHLPFEH": [],
    "titleTextMapHash": 2871755869,
    "MKJICHDMOHJ": 1878908843,
    "JIKLJDAEBGK": 1303653619
  },
  {
    "GMOLHDJMJPO": 7,
    "DDCFPBBLBLA": 1,
    "showType": "SHOW_TYPE_GOAL",
    "GPALKHLPFEH": [9, 11, 12],
    "titleTextMapHash": 3843185869,
    "MKJICHDMOHJ": 82345067,
    "JIKLJDAEBGK": 614515627
  },
  {
    "GMOLHDJMJPO": 8,
    "DDCFPBBLBLA": 1,
    "showType": "SHOW_TYPE_GOAL",
    "GPALKHLPFEH": [9, 10],
    "titleTextMapHash": 186284293,
    "MKJICHDMOHJ": 2454124059,
    "JIKLJDAEBGK": 717345363
  },
  {
    "GMOLHDJMJPO": 9,
    "DDCFPBBLBLA": 25,
    "showType": "SHOW_TYPE_COIN",
    "GPALKHLPFEH": [],
    "titleTextMapHash": 1318582037,
    "MKJICHDMOHJ": 1442264795,
    "JIKLJDAEBGK": 3708255867
  },
  {
    "GMOLHDJMJPO": 10,
    "DDCFPBBLBLA": 3,
    "showType": "SHOW_TYPE_WIND",
    "GPALKHLPFEH": [],
    "titleTextMapHash": 2433883597,
    "MKJICHDMOHJ": 4233259619,
    "JIKLJDAEBGK": 3639902699
  },
  {
    "GMOLHDJMJPO": 11,
    "CCAPNGDPOHJ": 30,
    "showType": "SHOW_TYPE_WIND_TIME",
    "GPALKHLPFEH": [],
    "titleTextMapHash": 432015357,
    "MKJICHDMOHJ": 3268582571,
    "JIKLJDAEBGK": 3989289163
  },
  {
    "GMOLHDJMJPO": 12,
    "showType": "SHOW_TYPE_WIND_PROGRESS",
    "GPALKHLPFEH": [],
    "titleTextMapHash": 2623355133,
    "MKJICHDMOHJ": 692408659,
    "JIKLJDAEBGK": 2106524331
  },
  {
    "GMOLHDJMJPO": 13,
    "DDCFPBBLBLA": 1,
    "showType": "SHOW_TYPE_GOAL",
    "GPALKHLPFEH": [15, 17, 18],
    "titleTextMapHash": 662585805,
    "MKJICHDMOHJ": 1967576003,
    "JIKLJDAEBGK": 830665755
  },
  {
    "GMOLHDJMJPO": 14,
    "DDCFPBBLBLA": 1,
    "showType": "SHOW_TYPE_GOAL",
    "GPALKHLPFEH": [15, 16],
    "titleTextMapHash": 1999819661,
    "MKJICHDMOHJ": 2601930227,
    "JIKLJDAEBGK": 2431314755
  },
  {
    "GMOLHDJMJPO": 15,
    "DDCFPBBLBLA": 25,
    "showType": "SHOW_TYPE_COIN",
    "GPALKHLPFEH": [],
    "titleTextMapHash": 1907858453,
    "MKJICHDMOHJ": 4143756283,
    "JIKLJDAEBGK": 3195748819
  },
  {
    "GMOLHDJMJPO": 16,
    "DDCFPBBLBLA": 3,
    "showType": "SHOW_TYPE_WIND",
    "GPALKHLPFEH": [],
    "titleTextMapHash": 1403358309,
    "MKJICHDMOHJ": 2711233107,
    "JIKLJDAEBGK": 994130435
  },
  {
    "GMOLHDJMJPO": 17,
    "CCAPNGDPOHJ": 40,
    "showType": "SHOW_TYPE_WIND_TIME",
    "GPALKHLPFEH": [],
    "titleTextMapHash": 1075259693,
    "MKJICHDMOHJ": 4216916331,
    "JIKLJDAEBGK": 2699821395
  },
  {
    "GMOLHDJMJPO": 18,
    "showType": "SHOW_TYPE_WIND_PROGRESS",
    "GPALKHLPFEH": [],
    "titleTextMapHash": 2908805685,
    "MKJICHDMOHJ": 2703488187,
    "JIKLJDAEBGK": 1483824043
  },
  {
    "GMOLHDJMJPO": 19,
    "DDCFPBBLBLA": 1,
    "showType": "SHOW_TYPE_GOAL",
    "GPALKHLPFEH": [21, 23, 24],
    "titleTextMapHash": 173470677,
    "MKJICHDMOHJ": 673324715,
    "JIKLJDAEBGK": 3266872539
  },
  {
    "GMOLHDJMJPO": 20,
    "DDCFPBBLBLA": 1,
    "showType": "SHOW_TYPE_GOAL",
    "GPALKHLPFEH": [21, 22],
    "titleTextMapHash": 1434349413,
    "MKJICHDMOHJ": 2008944011,
    "JIKLJDAEBGK": 3065801731
  },
  {
    "GMOLHDJMJPO": 21,
    "DDCFPBBLBLA": 25,
    "showType": "SHOW_TYPE_COIN",
    "GPALKHLPFEH": [],
    "titleTextMapHash": 20219077,
    "MKJICHDMOHJ": 200477051,
    "JIKLJDAEBGK": 527631691
  },
  {
    "GMOLHDJMJPO": 22,
    "DDCFPBBLBLA": 3,
    "showType": "SHOW_TYPE_WIND",
    "GPALKHLPFEH": [],
    "titleTextMapHash": 1007765429,
    "MKJICHDMOHJ": 1831502339,
    "JIKLJDAEBGK": 813802075
  },
  {
    "GMOLHDJMJPO": 23,
    "CCAPNGDPOHJ": 50,
    "showType": "SHOW_TYPE_WIND_TIME",
    "GPALKHLPFEH": [],
    "titleTextMapHash": 2566118333,
    "MKJICHDMOHJ": 1184690347,
    "JIKLJDAEBGK": 2365870387
  },
  {
    "GMOLHDJMJPO": 24,
    "showType": "SHOW_TYPE_WIND_PROGRESS",
    "GPALKHLPFEH": [],
    "titleTextMapHash": 93238101,
    "MKJICHDMOHJ": 3228543795,
    "JIKLJDAEBGK": 3429688483
  },
  {
    "GMOLHDJMJPO": 25,
    "CCAPNGDPOHJ": 60,
    "showType": "SHOW_TYPE_TATAKAI",
    "GPALKHLPFEH": [26],
    "titleTextMapHash": 1334253349,
    "MKJICHDMOHJ": 3272467043,
    "JIKLJDAEBGK": 4186293667
  },
  {
    "GMOLHDJMJPO": 26,
    "DDCFPBBLBLA": 15,
    "showType": "SHOW_TYPE_COIN",
    "GPALKHLPFEH": [],
    "titleTextMapHash": 3272602261,
    "MKJICHDMOHJ": 47089691,
    "JIKLJDAEBGK": 1191974251
  },
  {
    "GMOLHDJMJPO": 27,
    "CCAPNGDPOHJ": 90,
    "showType": "SHOW_TYPE_TATAKAI",
    "GPALKHLPFEH": [28],
    "titleTextMapHash": 2478652021,
    "MKJICHDMOHJ": 1447351075,
    "JIKLJDAEBGK": 170620083
  },
  {
    "GMOLHDJMJPO": 28,
    "DDCFPBBLBLA": 8,
    "showType": "SHOW_TYPE_DEFEAT_MONSTER",
    "GPALKHLPFEH": [],
    "titleTextMapHash": 1598182733,
    "MKJICHDMOHJ": 760097411,
    "JIKLJDAEBGK": 1216780539
  },
  {
    "GMOLHDJMJPO": 29,
    "CCAPNGDPOHJ": 60,
    "showType": "SHOW_TYPE_TATAKAI",
    "GPALKHLPFEH": [30],
    "titleTextMapHash": 2085419925,
    "MKJICHDMOHJ": 479560859,
    "JIKLJDAEBGK": 4263815611
  },
  {
    "GMOLHDJMJPO": 30,
    "DDCFPBBLBLA": 15,
    "showType": "SHOW_TYPE_COIN",
    "GPALKHLPFEH": [],
    "titleTextMapHash": 1361381509,
    "MKJICHDMOHJ": 1960824275,
    "JIKLJDAEBGK": 1254718643
  },
  {
    "GMOLHDJMJPO": 31,
    "CCAPNGDPOHJ": 90,
    "showType": "SHOW_TYPE_TATAKAI",
    "GPALKHLPFEH": [32],
    "titleTextMapHash": 1248145845,
    "MKJICHDMOHJ": 3550367955,
    "JIKLJDAEBGK": 3341581083
  },
  {
    "GMOLHDJMJPO": 32,
    "DDCFPBBLBLA": 7,
    "showType": "SHOW_TYPE_DEFEAT_MONSTER",
    "GPALKHLPFEH": [],
    "titleTextMapHash": 2644765533,
    "MKJICHDMOHJ": 899417819,
    "JIKLJDAEBGK": 487562475
  },
  {
    "GMOLHDJMJPO": 33,
    "CCAPNGDPOHJ": 90,
    "showType": "SHOW_TYPE_TATAKAI",
    "GPALKHLPFEH": [34],
    "titleTextMapHash": 231912101,
    "MKJICHDMOHJ": 693493371,
    "JIKLJDAEBGK": 2289768443
  },
  {
    "GMOLHDJMJPO": 34,
    "DDCFPBBLBLA": 11,
    "showType": "SHOW_TYPE_DEFEAT_MONSTER",
    "GPALKHLPFEH": [],
    "titleTextMapHash": 3457096733,
    "MKJICHDMOHJ": 3311631507,
    "JIKLJDAEBGK": 2831184979
  }
]
