{
    "abilities": [
        {
            "abilityID": "",
            "abilityName": "Avatar_Kaveh_FallingAnthem"
        },
        {
            "abilityID": "",
            "abilityName": "Avatar_Kaveh_ExtraAttack"
        },
        {
            "abilityID": "",
            "abilityName": "Avatar_Kaveh_Chest_Handler"
        },
        {
            "abilityID": "",
            "abilityName": "Avatar_Kaveh_Weapon_Handler"
        },
        {
            "abilityID": "",
            "abilityName": "Avatar_Kaveh_ElementalArt"
        },
        {
            "abilityID": "",
            "abilityName": "Avatar_Kaveh_ElementalBurst"
        },
        {
            "abilityID": "",
            "abilityName": "Avatar_Kaveh_OvergrowSeed_Trigger"
        },
        {
            "abilityID": "",
            "abilityName": "Avatar_Kaveh_NormalAttack_DamageHandler"
        }
    ]
}