{
  "PlayerBoy_Grass_SkillUpgrade_1": [
    {
      "$type": "ModifyAbility",
      "abilityName": "Avatar_PlayerBoy_NormalAttack_DamageHandler",
      "paramSpecial": "NormalAttack_01_DamagePercentage",
      "paramDelta": "%1"
    },
    {
      "$type": "ModifyAbility",
      "abilityName": "Avatar_PlayerBoy_NormalAttack_DamageHandler",
      "paramSpecial": "NormalAttack_02_DamagePercentage",
      "paramDelta": "%2"
    },
    {
      "$type": "ModifyAbility",
      "abilityName": "Avatar_PlayerBoy_NormalAttack_DamageHandler",
      "paramSpecial": "NormalAttack_03_DamagePercentage",
      "paramDelta": "%3"
    },
    {
      "$type": "ModifyAbility",
      "abilityName": "Avatar_PlayerBoy_NormalAttack_DamageHandler",
      "paramSpecial": "NormalAttack_04_DamagePercentage",
      "paramDelta": "%4"
    },
    {
      "$type": "ModifyAbility",
      "abilityName": "Avatar_PlayerBoy_NormalAttack_DamageHandler",
      "paramSpecial": "NormalAttack_05_DamagePercentage",
      "paramDelta": "%5"
    },
    {
      "$type": "ModifyAbility",
      "abilityName": "Avatar_PlayerBoy_NormalAttack_DamageHandler",
      "paramSpecial": "ExtraAttack_01_DamagePercentage",
      "paramDelta": "%6"
    },
    {
      "$type": "ModifyAbility",
      "abilityName": "Avatar_PlayerBoy_NormalAttack_DamageHandler",
      "paramSpecial": "ExtraAttack_02_DamagePercentage",
      "paramDelta": "%7"
    },
    {
      "$type": "ModifyAbility",
      "abilityName": "Avatar_PlayerBoy_ExtraAttack_Grass",
      "paramSpecial": "ExtraAttack_Sword_Stamina_Cost",
      "paramDelta": "%8"
    },
    {
      "$type": "ModifyAbility",
      "abilityName": "Avatar_PlayerBoy_FallingAnthem",
      "paramSpecial": "FallingAnthem_Normal_Loop_Damage",
      "paramDelta": "%9"
    },
    {
      "$type": "ModifyAbility",
      "abilityName": "Avatar_PlayerBoy_FallingAnthem",
      "paramSpecial": "FallingAnthem_Normal_Rank_1_Damage",
      "paramDelta": "%10"
    },
    {
      "$type": "ModifyAbility",
      "abilityName": "Avatar_PlayerBoy_FallingAnthem",
      "paramSpecial": "FallingAnthem_Normal_Rank_2_Damage",
      "paramDelta": "%11"
    }
  ],
  "PlayerGirl_Grass_SkillUpgrade_1": [
    {
      "$type": "ModifyAbility",
      "abilityName": "Avatar_PlayerGirl_NormalAttack_DamageHandler",
      "paramSpecial": "NormalAttack_01_DamagePercentage",
      "paramDelta": "%1"
    },
    {
      "$type": "ModifyAbility",
      "abilityName": "Avatar_PlayerGirl_NormalAttack_DamageHandler",
      "paramSpecial": "NormalAttack_02_DamagePercentage",
      "paramDelta": "%2"
    },
    {
      "$type": "ModifyAbility",
      "abilityName": "Avatar_PlayerGirl_NormalAttack_DamageHandler",
      "paramSpecial": "NormalAttack_03_DamagePercentage",
      "paramDelta": "%3"
    },
    {
      "$type": "ModifyAbility",
      "abilityName": "Avatar_PlayerGirl_NormalAttack_DamageHandler",
      "paramSpecial": "NormalAttack_04_DamagePercentage",
      "paramDelta": "%4"
    },
    {
      "$type": "ModifyAbility",
      "abilityName": "Avatar_PlayerGirl_NormalAttack_DamageHandler",
      "paramSpecial": "NormalAttack_05_DamagePercentage",
      "paramDelta": "%5"
    },
    {
      "$type": "ModifyAbility",
      "abilityName": "Avatar_PlayerGirl_NormalAttack_DamageHandler",
      "paramSpecial": "ExtraAttack_01_DamagePercentage",
      "paramDelta": "%6"
    },
    {
      "$type": "ModifyAbility",
      "abilityName": "Avatar_PlayerGirl_NormalAttack_DamageHandler",
      "paramSpecial": "ExtraAttack_02_DamagePercentage",
      "paramDelta": "%7"
    },
    {
      "$type": "ModifyAbility",
      "abilityName": "Avatar_PlayerGirl_ExtraAttack_Grass",
      "paramSpecial": "ExtraAttack_Sword_Stamina_Cost",
      "paramDelta": "%8"
    },
    {
      "$type": "ModifyAbility",
      "abilityName": "Avatar_PlayerGirl_FallingAnthem",
      "paramSpecial": "FallingAnthem_Normal_Loop_Damage",
      "paramDelta": "%9"
    },
    {
      "$type": "ModifyAbility",
      "abilityName": "Avatar_PlayerGirl_FallingAnthem",
      "paramSpecial": "FallingAnthem_Normal_Rank_1_Damage",
      "paramDelta": "%10"
    },
    {
      "$type": "ModifyAbility",
      "abilityName": "Avatar_PlayerGirl_FallingAnthem",
      "paramSpecial": "FallingAnthem_Normal_Rank_2_Damage",
      "paramDelta": "%11"
    }
  ],

  ////////////////////////////////////////////////////////////////
  //
  //  命之座1
  //
  ////////////////////////////////////////////////////////////////
  "Player_Grass_Constellation_1": [
    {
      "$type": "UnlockTalentParam",
      "abilityName": "Avatar_PlayerBoy_ElementalArt_Grass",
      "talentParam": "Player_Grass_ElementArt_Energy_Recover_Talent_1"
    },
    {
      "$type": "ModifyAbility",
      "abilityName": "Avatar_PlayerBoy_ElementalArt_Grass",
      "paramSpecial": "Element_Recover_By_Talent_1",
      "paramDelta": "%1"
    }
  ],

  ////////////////////////////////////////////////////////////////
  //
  //  命之座2
  //
  ////////////////////////////////////////////////////////////////
  "Player_Grass_Constellation_2": [
    {
      "$type": "UnlockTalentParam",
      "abilityName": "Avatar_Player_Grass_Seed_Gadget",
      "talentParam": "Player_Grass_Seed_Prolong_Talent_2"
    },
    {
      "$type": "ModifyAbility",
      "abilityName": "Avatar_Player_Grass_Seed_Gadget",
      "paramSpecial": "Grass_Seed_Duration",
      "paramDelta": "%1"
    }
  ],

  ////////////////////////////////////////////////////////////////
  //
  //  命之座3
  //
  ////////////////////////////////////////////////////////////////
  "Player_Grass_Constellation_3": [
    {
      "$type": "AddTalentExtraLevel",
      "talentType": "AvatarSkill",
      "talentIndex": 2,
      "extraLevel": 3
    }
  ],

  ////////////////////////////////////////////////////////////////
  //
  //  命之座4
  //
  ////////////////////////////////////////////////////////////////
  "Player_Grass_Constellation_4": [
    {
      "$type": "UnlockTalentParam",
      "abilityName": "Avatar_Player_Grass_Permanent_Skill_1",
      "talentParam": "Player_Grass_Seed_Aura_Up_Talent_4"
    }
  ],

  ////////////////////////////////////////////////////////////////
  //
  //  命之座5
  //
  ////////////////////////////////////////////////////////////////
  "Player_Grass_Constellation_5": [
    {
      "$type": "AddTalentExtraLevel",
      "talentType": "AvatarSkill",
      "talentIndex": 9,
      "extraLevel": 3
    }
  ],

  ////////////////////////////////////////////////////////////////
  //
  //  命之座6
  //
  ////////////////////////////////////////////////////////////////
  "Player_Grass_Constellation_6": [
    {
      "$type": "UnlockTalentParam",
      "abilityName": "Avatar_Player_Grass_Permanent_Skill_1",
      "talentParam": "Player_Grass_Seed_Aura_Extra_Talent_6"
    },
    {
      "$type": "ModifyAbility",
      "abilityName": "Avatar_Player_Grass_Permanent_Skill_1",
      "paramSpecial": "Elemental_Damage_Up_Ratio",
      "paramDelta": "%1"
    }
  ],

  ////////////////////////////////////////////////////////////////
  //
  //  天赋1
  //
  ////////////////////////////////////////////////////////////////
  "Player_Grass_PermanentSkill_1": [
    {
      "$type": "UnlockTalentParam",
      "abilityName": "Avatar_Player_Grass_Permanent_Skill_1",
      "talentParam": "Player_Grass_Seed_Aura_Permanent_Skill_1"
    },
    {
      "$type": "ModifyAbility",
      "abilityName": "Avatar_Player_Grass_Permanent_Skill_1",
      "paramSpecial": "Grass_Seed_Element_Mastery_Up",
      "paramDelta": "%1"
    }
  ],

  ////////////////////////////////////////////////////////////////
  //
  //  天赋2
  //
  ////////////////////////////////////////////////////////////////
  "Player_Grass_PermanentSkill_2": [
    {
      "$type": "AddAbility",
      "abilityName": "Avatar_Player_Grass_Damage_Up_By_Element_Mastery"
    },
    {
      "$type": "ModifyAbility",
      "abilityName": "Avatar_Player_Grass_Damage_Up_By_Element_Mastery",
      "paramSpecial": "Element_Mastery_Transform_To_ElementArt_Damage_Ratio",
      "paramDelta": "%1"
    },
    {
      "$type": "ModifyAbility",
      "abilityName": "Avatar_Player_Grass_Damage_Up_By_Element_Mastery",
      "paramSpecial": "Element_Mastery_Transform_To_ElementBurst_Damage_Ratio",
      "paramDelta": "%2"
    }
  ],

  ////////////////////////////////////////////////////////////////
  //
  //  技能升级1
  //
  ////////////////////////////////////////////////////////////////
  "Player_Grass_SkillUpgrade_1": [
    {
      "$type": "ModifyAbility",
      "abilityName": "Avatar_PlayerBoy_ElementalArt_Grass",
      "paramSpecial": "ElementArt_Damage",
      "paramDelta": "%1"
    }

    // {
    //   	"$type" : "ModifyAbility",
    //   	"abilityName" : "Player_Electric_ElementalArt_Bullet_1",
    //   	"paramSpecial" : "ElementalArt_Damage",
    //   	"paramDelta" :"%1",
    // },
    // {
    //   	"$type" : "ModifyAbility",
    //   	"abilityName" : "Player_Electric_ElementalArt_Bullet_2",
    //   	"paramSpecial" : "ElementalArt_Damage",
    //   	"paramDelta" :"%1",
    // },
    // {
    //   	"$type" : "ModifyAbility",
    //   	"abilityName" : "Player_Electric_ElementalArt_Bullet_3",
    //   	"paramSpecial" : "ElementalArt_Damage",
    //   	"paramDelta" :"%1",
    // },
    // {
    //   	"$type" : "ModifyAbility",
    //   	"abilityName" : "Player_Electric_ElementalArt_Magatama_Pickable",
    //   	"paramSpecial" : "ElementalArt_Magatama_ReviveElemEnergy",
    //   	"paramDelta" :"%2",
    // },
    // {
    //   	"$type" : "ModifyAbility",
    //   	"abilityName" : "Player_Electric_ElementalArt_Magatama_Pickable",
    //   	"paramSpecial" : "ElementalArt_Magatama_Life_Duration",
    //   	"paramDelta" :"%3",
    // },
    // {
    //   	"$type" : "ModifyAbility",
    //   	"abilityName" : "Player_Electric_ElementalArt_Magatama_Pickable",
    //   	"paramSpecial" : "ElementalArt_Magatama_EfficiencyUp",
    //   	"paramDelta" :"%4",
    // },
    // {
    //   	"$type" : "ModifyAbility",
    //   	"abilityName" : "Player_Electric_ElementalArt_Magatama_Pickable",
    //   	"paramSpecial" : "ElementalArt_Magatama_EfficiencyUp_Duration",
    //   	"paramDelta" :"%5",
    // },
  ],

  ////////////////////////////////////////////////////////////////
  //
  //  技能升级2
  ////////////////////////////////////////////////////////////////
  "Player_Grass_SkillUpgrade_2": [
    {
      "$type": "ModifyAbility",
      "abilityName": "Avatar_Player_Grass_Seed_Gadget",
      "paramSpecial": "Grass_Seed_Damage_Ratio",
      "paramDelta": "%1"
    },
    {
      "$type": "ModifyAbility",
      "abilityName": "Avatar_Player_Grass_Seed_Gadget",
      "paramSpecial": "Grass_Seed_Fire_Boom_Ratio",
      "paramDelta": "%2"
    },
    {
      "$type": "ModifyAbility",
      "abilityName": "Avatar_Player_Grass_Seed_Gadget",
      "paramSpecial": "Grass_Seed_Duration",
      "paramDelta": "%5"
    }

    // {
    //   	"$type" : "ModifyAbility",
    //   	"abilityName" : "Avatar_Player_Electric_ElementalBurst_Initiate",
    //   	"paramSpecial" : "ElementalBurst_InitiateDamage",
    //   	"paramDelta" :"%1",
    // },
    // {
    //   	"$type" : "ModifyAbility",
    //   	"abilityName" : "Avatar_Player_Electric_ElementalBurst_Bullet",
    //   	"paramSpecial" : "ElementalBurst_ThunderAttack_Default_Damage",
    //   	"paramDelta" :"%2",
    // },
    // {
    //   	"$type" : "ModifyAbility",
    //   	"abilityName" : "Avatar_Player_Electric_ElementalBurst_Bullet",
    //   	"paramSpecial" : "ElementalBurst_ReviveEnergy_Default",
    //   	"paramDelta" :"%3",
    // },
    // {
    //   	"$type" : "ModifyAbility",
    //   	"abilityName" : "Avatar_Player_Electric_ElementalBurst_Bullet",
    //   	"paramSpecial" : "ElementalBurst_Duration",
    //   	"paramDelta" :"%4",
    // },
  ]
}
