[
  ////////////////////////////////////////////////////////////////
  //
  //  NormalState
  //
  ////////////////////////////////////////////////////////////////
  {
    "Default": {
      "$type": "ConfigAbility",
      "abilityName": "Monster_Apep_Stage3_NormalState",
      "abilityMixins": [
        {
          "$type": "AttachToPoseIDMixin",
          "poseIDs": [301],
          "modifierName": "Monster_Apep_Stage3_NormalState"
        }
      ],
      "modifiers": {
        "Monster_Apep_Stage3_NormalState": {
          "onAdded": [
            //切换镜头配置
            {
              "$type": "SetLockingV3Config",
              "enable": false,
              "specialCameraName": "default"
            },
            {
              "$type": "SetLockingV3Config",
              "enable": true,
              "specialCameraName": "Stage3"
            },
            //切换碰撞盒
            {
              "$type": "EnablePushColliderName",
              "pushColliderNames": [],
              "setEnable": false
            },
            {
              "$type": "EnablePushColliderName",
              "pushColliderNames": [],
              "setEnable": true
            },
            //切换受击盒
            {
              "$type": "EnableHitBoxByName",
              "hitBoxNames": [],
              "setEnable": false
            },
            {
              "$type": "EnableHitBoxByName",
              "hitBoxNames": [],
              "setEnable": true
            }
          ]
        }
      }
    }
  },
  ////////////////////////////////////////////////////////////////
  //
  //  BlinkAttack
  //
  ////////////////////////////////////////////////////////////////
  {
    "Default": {
      "$type": "ConfigAbility",
      "abilityName": "Monster_Apep_Stage3_BlinkAttack",
      "abilityMixins": [
        {
          "$type": "AttachToAnimatorStateIDMixin",
          "stateIDs": ["BlinkAttack_BlinkState"],
          "modifierName": "Blink_State"
        }
      ],
      "modifiers": {
        "Blink_State": {
          "modifierMixins": [
            {
              "$type": "AttachActionToModifierMixin",
              "onAdded": [
                {
                  "$type": "EnableHitBoxByName",
                  "hitBoxNames": ["HitBox", "HeadBox"],
                  "setEnable": false
                },
                {
                  "$type": "EnablePushColliderName",
                  "pushColliderNames": ["PushCollider"],
                  "setEnable": false
                },
                {
                  "$type": "TriggerSetVisible",
                  "visible": false,
                  "target": "Self"
                }
              ],
              "onRemoved": [
                {
                  "$type": "EnableHitBoxByName",
                  "hitBoxNames": ["HitBox", "HeadBox"],
                  "setEnable": true
                },
                {
                  "$type": "EnablePushColliderName",
                  "pushColliderNames": ["PushCollider"],
                  "setEnable": true
                },
                {
                  "$type": "TriggerSetVisible",
                  "visible": true,
                  "target": "Self"
                }
              ]
            }
          ],
          "onAdded": [
            {
              "$type": "ClearLockTarget",
              "target": "CurLocalAvatar"
            },
            {
              "$type": "AttachModifier",
              "modifierName": "Blink_Invincible",
              "target": "Self"
            },
            {
              "$type": "AttachModifier",
              "modifierName": "Blink_DenyLockOn",
              "target": "Self"
            },
            {
              "$type": "TryFindBlinkPoint",
              "target": "SelfAttackTarget",
              "forwardAngle": 40,
              "minRange": 6.0,
              "maxRange": 8.0
            },
            {
              "$type": "CreateGadget",
              "gadgetID": 42908301,
              "campID": 4001,
              "lifeByOwnerIsAlive": true,
              "born": {
                "$type": "ConfigBornByTeleportToPoint",
                "offset": {
                  "x": 0.0,
                  "y": 0.0,
                  "z": 0.0
                },
                "onGround": true,
                "alongGround": true
              }
            }
          ],
          "onRemoved": [
            {
              "$type": "DoBlink"
            },
            {
              "$type": "TurnDirectionToPos",
              "target": "SelfAttackTarget",
              "toPos": {
                "$type": "ConfigBornByTarget"
              }
            },
            {
              "$type": "FireEffect",
              "effectPattern": "Eff_Monster_Apep_Stage3_BlinkAttack_AS"
            }
          ]
        },
        "Blink_Invincible": {
          "state": "Invincible"
        },
        "Blink_DenyLockOn": {
          "state": "DenyLockOn"
        }
      }
    }
  },
  ////////////////////////////////////////////////////////////////
  //
  //  RangeAttack1
  //
  ////////////////////////////////////////////////////////////////
  {
    "Default": {
      "$type": "ConfigAbility",
      "abilityName": "Monster_Apep_Stage3_RangeAttack1",
      "onAbilityStart": []
    }
  },
  ////////////////////////////////////////////////////////////////
  //
  //  RangeAttack2
  //
  ////////////////////////////////////////////////////////////////
  {
    "Default": {
      "$type": "ConfigAbility",
      "abilityName": "Monster_Apep_Stage3_RangeAttack2",
      "onAbilityStart": [
        {
          "$type": "TriggerBullet",
          "target": "SelfAttackTarget",
          "trackTarget": "SelfAttackTarget",
          "bulletID": 42908302,
          "born": {
            "$type": "ConfigBornBySelf",
            "offset": {
              "x": 0.0,
              "y": 0.0,
              "z": 0.0
            }
          }
        },
        {
          "$type": "SetPoseInt",
          "intID": "Stage",
          "value": 3
        }
      ]
    }
  },
  {
    "Default": {
      "$type": "ConfigAbility",
      "abilityName": "Apep_Stage3_RangeAttack2_Bullet",
      "onAbilityStart": [
        {
          "$type": "TriggerAttackEvent",
          "targetType": "Enemy",
          "attackEvent": {
            "attackPattern": {
              "$type": "ConfigAttackSphere",
              "triggerType": "TriggerNoRepeat",
              "radius": 4,
              "born": {
                "$type": "ConfigBornByCollisionPoint",
                "offset": {
                  "x": 0.0,
                  "y": 0.0,
                  "z": 0.0
                }
              }
            },
            "attackInfo": {
              "canBeModifiedBy": "OriginOwner",
              "attackProperty": {
                "damagePercentage": 0.4,
                "strikeType": "Default",
                "enBreak": 10.0,
                "elementType": "Grass",
                "elementDurability": 30
              },
              "hitPattern": {
                "onHitEffectName": "default",
                "hitImpulseType": "LV4",
                "hitHaltTime": 0.0,
                "hitHaltTimeScale": 0.05,
                "muteHitText": false
              },
              "forceCameraShake": false,
              "cameraShake": {
                "shakeType": "HitVector",
                "shakeRange": 0.06,
                "shakeTime": 0.12,
                "shakeDistance": 20,
                "shakeDir": {
                  "x": 0,
                  "y": 0,
                  "z": 1
                }
              }
            }
          }
        },
        {
          "$type": "FireSubEmitterEffect",
          "effectPattern": "Eff_Monster_Apep_Stage3_RangeAttack2_Hit",
          "born": {
            "$type": "ConfigBornByCollisionPoint"
          }
        }
      ]
    }
  },
  ////////////////////////////////////////////////////////////////
  //
  //  RangeAttack3
  //
  ////////////////////////////////////////////////////////////////
  {
    "Default": {
      "$type": "ConfigAbility",
      "abilityName": "Monster_Apep_Stage3_RangeAttack3",
      "onAbilityStart": [
        {
          "$type": "CreateGadget",
          "gadgetID": 42908304,
          "campID": 4001,
          "target": "SelfAttackTarget",
          "lifeByOwnerIsAlive": true,
          "byServer": true,
          "born": {
            "$type": "ConfigBornByTarget",
            "offset": {
              "x": 0.0,
              "y": 0.0,
              "z": 0.0
            },
            "onGround": true,
            "alongGround": true
          }
        },
        {
          "$type": "AttachModifier",
          "modifierName": "Monster_Apep_Stage3_RangeAttack3_LifeTime"
        }
      ],
      "modifiers": {
        "Monster_Apep_Stage3_RangeAttack3_LifeTime": {
          "duration": 20,
          "onAdded": [
            {
              "$type": "SetGlobalValue",
              "key": "_MONSTER_Apep_Stage3_RangeAttack3_LifeTime",
              "value": 1
            }
          ],
          "onChangeAuthority": [
            //场上没有会立马创一个
          ],
          "onRemoved": [
            {
              "$type": "SetGlobalValue",
              "key": "_MONSTER_Apep_Stage3_RangeAttack3_LifeTime",
              "value": 0
            }
          ]
        }
      }
    }
  },
  {
    "Default": {
      //子弹触发逻辑
      "$type": "ConfigAbility",
      "abilityName": "Apep_Stage3_RangeAttack3_DamageGadget_FirstAttack",
      "onAdded": [
        {
          "$type": "ApplyModifier",
          "modifierName": "FirstAttack_Latency"
        }
      ],
      "modifiers": {
        "FirstAttack_Latency": {
          "duration": 2,
          "onAdded": [
            {
              "$type": "AttachEffect",
              "effectPattern": "Eff_Monster_Apep_Stage3_RangeAttack3_FirstAttack_Alert"
            }
          ],
          "onRemoved": [
            {
              "$type": "FireEffect",
              "effectPattern": "Eff_Monster_Apep_Stage3_RangeAttack3_FirstAttack",
              "born": {
                "$type": "ConfigBornBySelf",
                "offset": {
                  "x": 0.0,
                  "y": 0.0,
                  "z": 0.0
                },
                "direction": {
                  "$type": "ConfigDirectionByWorld",
                  "eularAngles": {
                    "x": 0.1,
                    "y": 0.1,
                    "z": 0.1
                  }
                },
                "onGround": true,
                "alongGround": true
              }
            },
            {
              "$type": "TriggerAttackEvent",
              "targetType": "Enemy",
              "attackEvent": {
                "attackPattern": {
                  "$type": "ConfigAttackCircle",
                  "triggerType": "TriggerNoRepeat",
                  "fanAngle": 360.0,
                  "radius": 10,
                  "height": 20,
                  "born": {
                    "$type": "ConfigBornBySelf",
                    "offset": {
                      "x": 0.0,
                      "y": 0.0,
                      "z": 0.0
                    }
                  }
                },
                "attackInfo": {
                  "canBeModifiedBy": "OriginOwner",
                  "attackProperty": {
                    "damagePercentage": 0.25,
                    "strikeType": "Blunt",
                    "elementType": "Grass",
                    "elementDurability": 50,
                    "enBreak": 50.0
                  },
                  "hitPattern": {
                    "onHitEffectName": "default",
                    "hitImpulseType": "LV4",
                    "hitHaltTime": 0,
                    "hitHaltTimeScale": 0,
                    "muteHitText": false
                  },
                  "forceCameraShake": true,
                  "cameraShake": {
                    "shakeType": "CustomVector",
                    "shakeRange": 0.12,
                    "shakeTime": 0.12,
                    "shakeDistance": 30,
                    "shakeDir": {
                      "x": 0,
                      "y": 0,
                      "z": -1
                    }
                  }
                }
              }
            },
            {
              "$type": "ApplyModifier",
              "modifierName": "DamageGadget_NextRound",
              "target": "Owner"
            }
          ]
        },
        "DamageGadget_NextRound": {
          "duration": 0.5,
          "onRemoved": [
            {
              "$type": "SetSelfAttackTarget",
              "otherTargets": {
                "$type": "SelectTargetsByShape",
                "shapeName": "CircleR50",
                "centerBasedOn": "Self",
                "campTargetType": "Enemy",
                "campBasedOn": "Self",
                "entityTypePriority": ["Avatar"],
                "sortType": "Nearest",
                "topLimit": 1
              }
            },
            {
              "$type": "TriggerBullet",
              "bulletID": 42908303,
              "target": "Applier",
              "trackTarget": "SelfAttackTarget",
              "lifeByOwnerIsAlive": true,
              "born": {
                "$type": "ConfigBornByTarget",
                "offset": {
                  "x": 0.0,
                  "y": 0.0,
                  "z": 0.0
                },
                "onGround": true,
                "direction": {
                  "$type": "ConfigDirectionByAttackTarget"
                },
                "alongGround": true
              }
            }
          ]
        }
      }
    }
  },
  {
    "Default": {
      "$type": "ConfigAbility",
      "abilityName": "Apep_Stage3_RangeAttack3_TrackBullet",
      "onAdded": [
        {
          "$type": "ApplyModifier",
          "modifierName": "Apep_Stage3_RangeAttack3_TrackBullet_ActiveLatency"
        }
      ],
      "abilityMixins": [
        //生命周期维护
        {
          "$type": "AttachModifierToGlobalValueMixin",
          "globalValueTarget": "Owner",
          "globalValueKey": "_MONSTER_Apep_Stage3_RangeAttack3_LifeTime",
          "valueSteps": [-0.5, 0.5],
          "modifierNameSteps": ["Apep_Stage3_RangeAttack3_TrackBullet_LifeOver"]
        },
        //自身逻辑状态维护
        {
          "$type": "AttachModifierToSelfGlobalValueMixin",
          "globalValueKey": "_DANGERAREA_Active",
          "defaultGlobalValueOnCreate": 0,
          "valueSteps": [0.5, 1.5],
          "removeAppliedModifier": true,
          "modifierNameSteps": ["Apep_Stage3_RangeAttack3_TrackBullet_Active"]
        },
        //局域内玩家数统计
        {
          "$type": "FieldEntityCountChangeMixin",
          "campTargetType": "Enemy",
          "targetPredicates": [
            {
              "$type": "ByEntityTypes",
              "entityTypes": ["Avatar"]
            }
          ],
          "onFieldEnter": [
            {
              "$type": "AddGlobalValue",
              "key": "_DANGERAREA_Avatar_Count",
              "value": 1,
              "target": "Self"
            }
          ],
          "onFieldExit": [
            {
              "$type": "AddGlobalValue",
              "key": "_DANGERAREA_Avatar_Count",
              "value": -1,
              "target": "Self"
            }
          ]
        }
      ],
      "modifiers": {
        "Apep_Stage3_RangeAttack3_TrackBullet_ActiveLatency": {
          "duration": 0.5,
          "onRemoved": [
            {
              "$type": "SetGlobalValue",
              "key": "_DANGERAREA_Active",
              "value": 1
            }
          ]
        },
        "Apep_Stage3_RangeAttack3_TrackBullet_LifeOver": {
          "onAdded": [
            {
              "$type": "FireEffect",
              "effectPattern": "Eff_Monster_Apep_Stage3_RangeAttack3_TrackBullet_KillSelf"
            },
            {
              "$type": "SetGlobalValue",
              "key": "_DANGERAREA_Active",
              "value": 0
            },
            {
              "$type": "KillSelf",
              "duration": 0.5
            }
          ]
        },
        "Apep_Stage3_RangeAttack3_TrackBullet_Active": {
          "onAdded": [
            {
              "$type": "AttachEffect",
              "effectPattern": "Eff_Monster_Apep_Stage3_RangeAttack3_TrackBullet"
            }
          ],
          "thinkInterval": 0.2,
          "onThinkInterval": [
            {
              "$type": "AttachModifier",
              "modifierName": "Trigger_CountDown",
              "predicates": [
                {
                  "$type": "ByTargetGlobalValue",
                  "key": "_DANGERAREA_Avatar_Count",
                  "value": 0.5,
                  "compareType": "MoreThan"
                }
              ]
            },
            {
              "$type": "RemoveModifier",
              "modifierName": "Trigger_CountDown",
              "predicates": [
                {
                  "$type": "ByTargetGlobalValue",
                  "key": "_DANGERAREA_Avatar_Count",
                  "value": 0.5,
                  "compareType": "LessAndEqual"
                }
              ]
            }
          ]
        },
        "Blank": {},
        "Trigger_CountDown": {
          "onAdded": [
            {
              "$type": "AttachEffect",
              "effectPattern": "Eff_Monster_Apep_Stage3_RangeAttack3_RepeatAttack_Alert"
            }
          ],
          "thinkInterval": 2,
          "onThinkIntervalIsFixedUpdate": true,
          "thinkIntervalIgnoreTimeScale": true,
          "onThinkInterval": [
            {
              "$type": "CreateGadget",
              "gadgetID": 42908305,
              "campID": 4001,
              "lifeByOwnerIsAlive": true,
              "born": {
                "$type": "ConfigBornBySelf",
                "offset": {
                  "x": 0.0,
                  "y": 0.0,
                  "z": 0.0
                },
                "direction": {
                  "$type": "ConfigDirectionByWorld",
                  "eularAngles": {
                    "x": 0.1,
                    "y": 0.1,
                    "z": 0.1
                  }
                },
                "onGround": true,
                "alongGround": true
              },
              "predicates": [
                {
                  "$type": "ByTargetHPRatio",
                  "target": "Self",
                  "HPRatio": 0,
                  "logic": "Greater"
                }
              ]
            },
            {
              "$type": "SetGlobalValue",
              "key": "_DANGERAREA_Active",
              "value": 0
            }
          ]
        }
      },
      "abilitySpecials": {
        "RandomLatency": 0.1
      }
    }
  },
  {
    "Default": {
      "$type": "ConfigAbility",
      "abilityName": "Apep_Stage3_RangeAttack3_DamageGadget_RepeatAttack",
      "onAdded": [
        {
          "$type": "ApplyModifier",
          "modifierName": "RepeatAttack_Latency"
        }
      ],
      "modifiers": {
        "RepeatAttack_Latency": {
          "duration": 0.5,
          "onAdded": [
            {
              "$type": "FireEffect",
              "effectPattern": "Eff_Monster_Apep_Stage3_RangeAttack3_RepeatAttack"
            },
            {
              "$type": "TriggerAttackEvent",
              "targetType": "Enemy",
              "attackEvent": {
                "attackPattern": {
                  "$type": "ConfigAttackCircle",
                  "triggerType": "TriggerNoRepeat",
                  "fanAngle": 360.0,
                  "radius": 7.5,
                  "height": 20,
                  "born": {
                    "$type": "ConfigBornBySelf",
                    "offset": {
                      "x": 0.0,
                      "y": 0.0,
                      "z": 0.0
                    }
                  }
                },
                "attackInfo": {
                  "canBeModifiedBy": "OriginOwner",
                  "attackProperty": {
                    "damagePercentage": 0.25,
                    "strikeType": "Blunt",
                    "elementType": "Grass",
                    "elementDurability": 50,
                    "enBreak": 50.0
                  },
                  "hitPattern": {
                    "onHitEffectName": "default",
                    "hitImpulseType": "LV3",
                    "hitHaltTime": 0,
                    "hitHaltTimeScale": 0,
                    "muteHitText": false
                  },
                  "forceCameraShake": false,
                  "cameraShake": {
                    "shakeType": "CustomVector",
                    "shakeRange": 0.04,
                    "shakeTime": 0.09,
                    "shakeDistance": 20.0,
                    "shakeDir": {
                      "x": 0,
                      "y": -1,
                      "z": 0
                    }
                  }
                }
              }
            },
            {
              "$type": "ApplyModifier",
              "modifierName": "DamageGadget_NextRound",
              "target": "OriginOwner",
              "predicates": [
                {
                  "$type": "ByTargetGlobalValue",
                  "target": "OriginOwner",
                  "key": "_MONSTER_Apep_Stage3_RangeAttack3_LifeTime",
                  "value": 1,
                  "compareType": "Equal"
                }
              ]
            }
          ]
        },
        "DamageGadget_NextRound": {
          "onAdded": [
            {
              "$type": "SetSelfAttackTarget",
              "otherTargets": {
                "$type": "SelectTargetsByShape",
                "shapeName": "CircleR50",
                "centerBasedOn": "Self",
                "campTargetType": "Enemy",
                "campBasedOn": "Self",
                "entityTypePriority": ["Avatar"],
                "sortType": "Nearest",
                "topLimit": 1
              }
            },
            {
              "$type": "TriggerBullet",
              "bulletID": 42908303,
              "target": "Applier",
              "ownerIs": "OriginOwner",
              "trackTarget": "SelfAttackTarget",
              "lifeByOwnerIsAlive": true,
              "born": {
                "$type": "ConfigBornByTarget",
                "offset": {
                  "x": 0.0,
                  "y": 0.0,
                  "z": 0.0
                },
                "onGround": true,
                "direction": {
                  "$type": "ConfigDirectionByAttackTarget"
                },
                "alongGround": true
              }
            }
          ]
        }
      }
    }
  },
  ////////////////////////////////////////////////////////////////
  //
  //  UltAttack
  //
  ////////////////////////////////////////////////////////////////
  {
    "Default": {
      "$type": "ConfigAbility",
      "abilityName": "Monster_Apep_Stage3_UltAttack",
      "onAbilityStart": []
    }
  }
]
