{
  "$type": "ConfigMonster",
  "headControl": {
    "$type": "ConfigHeadControl",
    "useHeadControl": true,
    "maxYawDegree": 80,
    "maxPitchDegree": 30,
    "animStates": [
      "NormalIdle/Standby",
      "NormalMove/WalkForward",
      "NormalMove/WalkBack",
      "NormalMove/WalkRight",
      "NormalMove/WalkLeft",
      "NormalMove/Run",
      "Turn/TurnLeft",
      "Turn/TurnRight"
    ]
  },
  "common": {
    "effectAttachShape": {
      "$type": "ConfigEffectAttachSkinnedMesh",
      "mesh": "EffectMesh"
    },
    "mass": 500.0,
    "height": 1.75,
    "viewSize": 1.08,
    "scale": 1.25,
    "useGrassDisplacement": true,
    "affectedByWorld": true,
    "checkInSurface": true
  },
  "move": {
    "$type": "ConfigAnimatorMove",
    "facingMove": "FourDirection"
  },
  "model": {
    "bornEffect": "Eff_Monster_Common_Born"
  },
  "dither": {
    "showDitherDuration": 1.0
  },
  "equipController": {
    "attachPoints": {
      "equip01": "WeaponR",
      "equip02": "WeaponL"
    },
    "sheathPoint": ""
  },
  "billboard": {
    "$type": "ConfigCombatBillboard",
    "offsetType": "Character",
    "offset": {
      "x": -0.05,
      "y": 0,
      "z": 0
    },
    "showHPBar": true,
    "radiusOffset": 0.25,
    "size": "Normal"
  },
  "combat": {
    "property": {
      "weight": 75, //weightLevel = 2
      "endureType": "Monster_Grunt_Humanoid",
      "endureShake": 0
    },
    "combatLock": {
      "denyLockOn": false,
      "lockType": "Avatar&Monster_Lv4"
    },
    "beHit": {
      "hitBloodEffect": "",
      "muteAllHit": false,
      "muteAllHitEffect": false,
      "muteAllHitText": false
    },
    "die": {
      "hasAnimatorDie": true,
      "dieDisappearEffect": "Eff_Death_Avatar_Common",
      "dieDisappearEffectDelay": 0.0,
      "dieEndTime": 2.5,
      "dieForceDisappearTime": 1.5,
      "dieShaderData": "AvatarDie",
      "useRagDoll": true,
      "ragDollDieEndTimeDelay": 1.25,
      "muteHitBox": true,
      "dieDenyLockOn": true,
      "dieIsGhostToEnemy": true,
      "dieIgnoreTriggerBullet": true,
      "muteBillboard": true,
      "mutePushCollider": true
    },
    "animEvents": {
      "Atk01": {
        "attackPattern": {
          "$type": "ConfigAttackBox",
          "triggerType": "TriggerNoRepeat",
          "born": {
            "$type": "ConfigBornBySelf",
            "offset": {
              "x": 0.2,
              "y": 1.0,
              "z": 0.5
            }
          },
          "size": {
            "x": 0.5,
            "y": 0.5,
            "z": 4.0
          }
        },
        "attackInfo": {
          "attackProperty": {
            "damagePercentage": 1.0,
            "strikeType": "Pierce",
            "attackType": "Melee",
            "enBreak": 50.0
          },
          "hitPattern": {
            "onHitEffectName": "default",
            "hitImpulseType": "LV4",
            "reboundRatio": 0,
            "hitHaltTime": 0,
            "hitHaltTimeScale": 0.01,
            "muteHitText": false
          }
        }
      },
      "Atk02": {
        "attackPattern": {
          "$type": "ConfigAttackCircle",
          "duration": 0.0,
          "triggerType": "TriggerNoRepeat",
          "fanAngle": 90.0,
          "radius": 3.0,
          "born": {
            "$type": "ConfigBornBySelf",
            "offset": {
              "x": 0.0,
              "y": 0.0,
              "z": 0.5
            },
            "direction": {
              "$type": "ConfigDirectionByDefault",
              "angleOffset": {
                "x": 0.0,
                "y": -30.0,
                "z": 0.0
              }
            }
          }
        },
        "attackInfo": {
          "attackProperty": {
            "damagePercentage": 1.0,
            "strikeType": "Slash",
            "attackType": "Melee",
            "enBreak": 50.0
          },
          "hitPattern": {
            "onHitEffectName": "default",
            "hitImpulseType": "LV4",
            "reboundRatio": 0,
            "hitHaltTime": 0,
            "hitHaltTimeScale": 0.01,
            "muteHitText": false
          }
        }
      },
      "WildSlam01": {
        "attackPattern": {
          "$type": "ConfigAttackBox",
          "triggerType": "TriggerNoRepeat",
          "born": {
            "$type": "ConfigBornBySelf",
            "offset": {
              "x": 0.2,
              "y": 1.3,
              "z": 0.5
            }
          },
          "size": {
            "x": 0.5,
            "y": 0.85,
            "z": 3.5
          }
        },
        "attackInfo": {
          "attackProperty": {
            "damagePercentage": 1.0,
            "strikeType": "Slash",
            "enBreak": 100.0
          },
          "hitPattern": {
            "onHitEffectName": "default",
            "hitImpulseType": "LV4",
            "retreatType": "ByAttacker",
            "hitHaltTime": 0.06,
            "hitHaltTimeScale": 0.01,
            "muteHitText": false
          },
          "forceCameraShake": false
        }
      },
      "WildSlam02": {
        "attackPattern": {
          "$type": "ConfigAttackBox",
          "triggerType": "TriggerNoRepeat",
          "born": {
            "$type": "ConfigBornBySelf",
            "offset": {
              "x": 0.2,
              "y": 1.3,
              "z": 0.5
            }
          },
          "size": {
            "x": 0.5,
            "y": 0.85,
            "z": 3.5
          }
        },
        "attackInfo": {
          "attackProperty": {
            "damagePercentage": 1.0,
            "strikeType": "Slash",
            "attackType": "Melee",
            "enBreak": 100.0
          },
          "hitPattern": {
            "onHitEffectName": "default",
            "hitImpulseType": "LV4",
            "reboundRatio": 0,
            "hitHaltTime": 0,
            "hitHaltTimeScale": 0,
            "muteHitText": false
          }
        }
      },
      "WildSlam03": {
        "attackPattern": {
          "$type": "ConfigAttackBox",
          "triggerType": "TriggerNoRepeat",
          "born": {
            "$type": "ConfigBornBySelf",
            "offset": {
              "x": 0.2,
              "y": 1.3,
              "z": 0.5
            }
          },
          "size": {
            "x": 0.5,
            "y": 0.85,
            "z": 3.5
          }
        },
        "attackInfo": {
          "attackProperty": {
            "damagePercentage": 1.0,
            "strikeType": "Slash",
            "attackType": "Melee",
            "enBreak": 100.0
          },
          "hitPattern": {
            "onHitEffectName": "default",
            "hitImpulseType": "LV4",
            "reboundRatio": 0,
            "hitHaltTime": 0,
            "hitHaltTimeScale": 0,
            "muteHitText": false
          }
        }
      }
    }
  },
  "inputKeys": [
    {
      "keyID": 210,
      "inputKeyCode": 257
    },
    {
      "keyID": 220,
      "inputKeyCode": 258
    },
    {
      "keyID": 230,
      "inputKeyCode": 259
    },
    {
      "keyID": 401,
      "inputKeyCode": 260
    },
    {
      "keyID": 501,
      "inputKeyCode": 261
    },
    {
      "keyID": 502,
      "inputKeyCode": 262
    },
    {
      "keyID": 902,
      "inputKeyCode": 263
    }
    // {
    // 	"keyID": 301,
    // 	"inputKeyCode": 264,
    // },
    // {
    // 	"keyID": 311,
    // 	"inputKeyCode": 265,
    // },
  ],
  "stateLayers": {
    "defaultLayer": {
      "$type": "ConfigNormalStateLayer",
      "stateIDs": {
        //////////////////////////////////////////////////
        //	Idle states
        //////////////////////////////////////////////////
        "NormalIdle": {
          "$type": "ConfigMonsterStateIDInfo",
          "animatorStates": {
            "Standby": [],
            "Born": []
          },
          "canDoSkill": true,
          "canSyncMove": true,
          "resetAnimatorTriggerOnExit": ["DoSkill"]
        },
        //////////////////////////////////////////////////
        //	Move states
        //////////////////////////////////////////////////
        "NormalMove": {
          "$type": "ConfigMonsterStateIDInfo",
          "animatorStates": {
            "WalkForward": ["Audio_Monster_Ahigaru_01_Walk"],
            "WalkBack": ["Audio_Monster_Ahigaru_01_Walk"],
            "WalkRight": ["Audio_Monster_Ahigaru_01_Walk"],
            "WalkLeft": ["Audio_Monster_Ahigaru_01_Walk"],
            "Run": ["Audio_Monster_Ahigaru_01_Run"]
          },
          "canDoSkill": true,
          "canSteer": true,
          "canSyncMove": true,
          "resetAnimatorTriggerOnExit": ["DoSkill"]
        },
        "Turn": {
          "$type": "ConfigMonsterStateIDInfo",
          "animatorStates": {
            "TurnLeft": ["Audio_Monster_Ahigaru_01_Walk"],
            "TurnRight": ["Audio_Monster_Ahigaru_01_Walk"]
          },
          "canDoSkill": true,
          "canSteer": true,
          "autoSteer": false,
          "canSyncMove": true,
          "resetAnimatorTriggerOnExit": ["DoSkill"]
        },
        //////////////////////////////////////////////////
        //	BeHit states
        //////////////////////////////////////////////////
        "BeHit": {
          "$type": "ConfigMonsterStateIDInfo",
          "animatorStates": {
            "Hit_L": ["Audio_Monster_Ahigaru_02_Hit_L"],
            "Hit_H": ["Audio_Monster_Ahigaru_02_Hit_H"],
            "DHit": []
          },
          "resetAnimatorTriggerOnEnter": ["BeHit"],
          "resetAnimatorTriggerOnExit": ["DoSkill"]
        },
        "BeHitThrow": {
          "$type": "ConfigMonsterStateIDInfo",
          "animatorStates": {
            "HitThrow": ["Audio_Monster_Ahigaru_02_HitThrow"],
            "HitThrowDrop": [],
            "HitThrowToGround": ["Audio_Monster_Ahigaru_02_HitThrowToGround"]
          },
          "resetAnimatorTriggerOnEnter": ["BeHit", "HitAir2HitDrop"],
          "resetAnimatorTriggerOnExit": ["DoSkill"]
        },
        "Struggle": {
          "$type": "ConfigMonsterStateIDInfo",
          "animatorStates": {
            "Struggle": []
          },
          "resetAnimatorTriggerOnEnter": ["BeHit", "HitAir2HitDrop"],
          "resetAnimatorTriggerOnExit": ["DoSkill"]
        },
        //////////////////////////////////////////////////
        //	Die states
        //////////////////////////////////////////////////
        "Die": {
          "$type": "ConfigMonsterStateIDInfo",
          "animatorStates": {
            "Die1": ["Audio_Monster_Ahigaru_02_Die"],
            "Die2": ["Audio_Monster_Ahigaru_02_Die"],
            "SwimDie": ["Audio_Monster_Thoarder_NoWeapon_SwimDie"],
            "SwimDie_AS": ["Audio_Monster_Thoarder_NoWeapon_SwimDie"]
          }
        },
        "Die_RagDoll": {
          "$type": "ConfigMonsterStateIDInfo",
          "animatorStates": {
            "AirDie": []
          },
          "enableRagDoll": true
        },
        //////////////////////////////////////////////////
        //	Alert states
        //////////////////////////////////////////////////
        "Life_Alert": {
          "$type": "ConfigMonsterStateIDInfo",
          "animatorStates": {
            "Alert": ["Audio_Monster_Ahigaru_02_Alert"]
          },
          "resetAnimatorTriggerOnExit": ["BeHit", "DoSkill"]
        },
        "Life_Warning": {
          "$type": "ConfigMonsterStateIDInfo",
          "animatorStates": {
            "Warning": [
              "Monster_Undead01_Warning",
              "Audio_Monster_Ahigaru_02_Alert"
            ]
          },
          "resetAnimatorTriggerOnExit": ["BeHit", "DoSkill"]
        },
        //////////////////////////////////////////////////
        //	Attack states
        //////////////////////////////////////////////////
        "Attack01": {
          "$type": "ConfigMonsterStateIDInfo",
          "animatorStates": {
            "Attack01": [
              "Monster_Human_Male_Pole_AttackDaoqi01",
              "Monster_Ahigaru_Male_03_BladeBattle_HintPoint",
              "Audio_Monster_Ahigaru_02_Attack01"
            ]
          },
          "resetAnimatorTriggerOnExit": ["BeHit", "DoSkill"]
        },
        "Attack02": {
          "$type": "ConfigMonsterStateIDInfo",
          "animatorStates": {
            "Attack02": [
              "Monster_Human_Male_Pole_AttackDaoqi02",
              "Monster_Ahigaru_Male_03_BladeBattle_HintPoint",
              "Audio_Monster_Ahigaru_02_Attack02"
            ]
          },
          "resetAnimatorTriggerOnExit": ["BeHit", "DoSkill"],
          "massRatio": 20
        },
        "WildSlam": {
          "$type": "ConfigMonsterStateIDInfo",
          "animatorStates": {
            "WildSlam": [
              "Monster_Human_Male_Pole_WildSlamDaoqi",
              "Audio_Monster_Ahigaru_02_WildSlam"
            ]
          },
          "resetAnimatorTriggerOnExit": ["BeHit", "DoSkill"],
          "addEndure": 0.6
        },
        "Attack_Break": {
          "$type": "ConfigMonsterStateIDInfo",
          "animatorStates": {
            "Attack_Break": [
              "Monster_Ahigaru_Male_03_BladeBattle_BreakEffect",
              "Audio_Monster_Ahigaru_02_Hit_H"
            ]
          },
          "resetAnimatorTriggerOnExit": ["BeHit", "DoSkill"]
        },
        //////////////////////////////////////////////////
        //	Taunt states
        //////////////////////////////////////////////////
        "Taunt": {
          "$type": "ConfigMonsterStateIDInfo",
          "animatorStates": {
            "Taunt_1": ["Audio_Monster_Ahigaru_02_Taunt1"],
            "Taunt_2": ["Audio_Monster_Ahigaru_02_Taunt2"]
          },
          "resetAnimatorTriggerOnExit": ["BeHit", "DoSkill"]
        },
        //////////////////////////////////////////////////
        //	Dodge states
        //////////////////////////////////////////////////
        "BackSprint": {
          "$type": "ConfigMonsterStateIDInfo",
          "animatorStates": {
            "BackSprint": [
              "Monster_Human_Male_Pole_BackSprint",
              "Audio_Monster_Ahigaru_02_BackSprint"
            ]
          },
          "resetAnimatorTriggerOnExit": ["BeHit", "DoSkill"]
        },
        "BackSprintAttack_BS": {
          "$type": "ConfigMonsterStateIDInfo",
          "animatorStates": {
            "BackSprintAttack_BS": [
              "Monster_Human_Male_Pole_BackSprint",
              "Audio_Monster_Ahigaru_02_BackSprint"
            ]
          },
          "resetAnimatorTriggerOnExit": ["BeHit", "DoSkill"]
        },
        "BackSprintAttack": {
          "$type": "ConfigMonsterStateIDInfo",
          "animatorStates": {
            "BackSprintAttack_Attack01": [
              "Monster_Human_Male_Pole_AttackDaoqi01",
              "Audio_Monster_Ahigaru_02_Attack01"
            ],
            "BackSprintAttack_Attack02": [
              "Monster_Human_Male_Pole_AttackDaoqi01",
              "Audio_Monster_Ahigaru_02_Attack01"
            ],
            "BackSprintAttack_Attack03": [
              "Monster_Human_Male_Pole_AttackDaoqi01",
              "Audio_Monster_Ahigaru_02_Attack01"
            ]
          },
          "resetAnimatorTriggerOnExit": ["BeHit", "DoSkill"]
        },
        "BackSprintOrder_BS": {
          "$type": "ConfigMonsterStateIDInfo",
          "animatorStates": {
            "BackSprintOrder_BS": [
              "Monster_Human_Male_Pole_BackSprint",
              "Audio_Monster_Ahigaru_02_BackSprint"
            ]
          },
          "resetAnimatorTriggerOnExit": ["BeHit", "DoSkill"]
        },

        //////////////////////////////////////////////////
        //	SpecialStates states
        //////////////////////////////////////////////////
        //////////////////////////////////////////////////
        //	Other states
        //////////////////////////////////////////////////
        "Order": {
          "$type": "ConfigMonsterStateIDInfo",
          "animatorStates": {
            "Order01": [
              "Monster_Human_Male_Pole_Order01",
              "Audio_Monster_Ahigaru_02_Order01"
            ],
            "Order02": [
              "Monster_Human_Male_Pole_Order02",
              "Audio_Monster_Ahigaru_02_Order02"
            ]
          },
          "resetAnimatorTriggerOnExit": ["BeHit", "DoSkill"]
        },
        "BackSprintOrder": {
          "$type": "ConfigMonsterStateIDInfo",
          "animatorStates": {
            "BackSprintOrder": [
              "Monster_Human_Male_Pole_Order01",
              "Audio_Monster_Ahigaru_02_Order02"
            ]
          },
          "resetAnimatorTriggerOnExit": ["BeHit", "DoSkill"]
        },
        "SurroundOrder": {
          "$type": "ConfigMonsterStateIDInfo",
          "animatorStates": {
            "SurroundOrder": ["Monster_Human_Male_Pole_Order01"]
          },
          "resetAnimatorTriggerOnExit": ["BeHit", "DoSkill"]
        }
      }
    }
  },
  "abilities": [
    //////////////////////////////////////////////////
    //	Steer abilities
    //////////////////////////////////////////////////
    {
      "abilityID": "SteerAttack",
      "abilityName": "Human_Male_Pole_SteerAttack"
    },
    {
      "abilityID": "SteerMove",
      "abilityName": "Millelith_SteerMove"
    },
    //////////////////////////////////////////////////
    //	RushMove abilities
    //////////////////////////////////////////////////
    {
      "abilityID": "Attack01_RushMove01",
      "abilityName": "Human_Male_Pole_Attack01_RushMove01"
    },
    {
      "abilityID": "Attack02_RushMove01",
      "abilityName": "Human_Male_Pole_Attack02_RushMove01"
    },
    {
      "abilityID": "WildSlam_RushMove01",
      "abilityName": "Human_Male_Pole_WildSlam_RushMove01"
    },
    {
      "abilityID": "WildSlam_RushMove02",
      "abilityName": "Human_Male_Pole_WildSlam_RushMove02"
    },
    {
      "abilityID": "WildSlam_RushMove03",
      "abilityName": "Human_Male_Pole_WildSlam_RushMove03"
    },
    //////////////////////////////////////////////////
    //	SurroundAttack abilities
    //////////////////////////////////////////////////
    // {
    // 	"abilityID": "SurroundAttack_SurroundOrder",
    // 	"abilityName": "Monster_Millelith_SurroundAttack_SurroundOrder",
    // },
    // {
    // 	"abilityID": "SurroundAttack_AttackdOrder",
    // 	"abilityName": "Monster_Millelith_SurroundAttack_AttackdOrder",
    // },
    // {
    // 	"abilityID": "SetSurroundPoint",
    // 	"abilityName": "Monster_Millelith_SetSurroundPoint",
    // },
    // {
    // 	"abilityID": "SurroundAttackOrganizing",
    // 	"abilityName": "Monster_Millelith_SurroundAttackOrganizing",
    // },
    // {
    // 	"abilityID": "SelectSoldiers",
    // 	"abilityName": "Monster_Millelith_SelectSoldiers",
    // },
    //////////////////////////////////////////////////
    //	Other abilities
    //////////////////////////////////////////////////
    {
      "abilityID": "Order01",
      "abilityName": "Human_Male_Pole_Order01"
    },
    {
      "abilityID": "Order02",
      "abilityName": "Human_Male_Pole_Order02"
    },
    {
      "abilityID": "Order03",
      "abilityName": "Human_Male_Pole_Order03"
    },
    {
      "abilityID": "PoseDecider",
      "abilityName": "Human_Male_Pole_PoseDecider"
    },
    {
      "abilityID": "EndureModifier",
      "abilityName": "Monster_Millelith_EndureModifier"
    },
    {
      "abilityID": "AuxWeaponTrans",
      "abilityName": "Monster_Millelith_Pole_Male_AuxWeaponTrans"
    }
  ],
  "initialPoses": {
    "Default": {
      "initialPoseID": 0
    }
    // For reference:
    // "CrossBow_Fixed":
    // {
    // 	"initialPoseID" : 402,
    // 	"initialPoseParams":
    // 	{
    // 		"boolParams":
    // 		{
    // 			"CrossBow_Fixed": "true",
    // 		},
    // 	},
    // },
  },
  "aibeta": {
    "enable": true,
    "skillGCD": 3.0,
    "moveSetting": {
      "almostReachedDistanceRun": 1.5
    },
    "neurons": {
      "DefaultSetting": ["HIT"]
    },
    "profiling": {
      // For reference:
      // "staticPoses": [9002, 9003],
    },
    "sensing": {
      "settings": {
        "DefaultSetting": {
          "viewRange": 30.0,
          "feelRange": 8.0
        },
        "HighAlert": {
          "viewRange": 40.0,
          "feelRange": 10.0
        }
      },
      "templates": {
        "DefaultTemplate": {
          "DefaultPoses": "DefaultSetting"
        },
        "HighAlertTemplate": {
          "DefaultPoses": "HighAlert"
        }
      }
    },
    // For reference:
    // "precombat":
    // {
    // 	"bioClockSleepFrom": 11,
    // 	"bioClockSleepTo": 12,
    // },
    "defendArea": {
      "enable": true
    },
    "threat": {
      "clearThreatTimerByDistance": 3.0,
      "clearThreatByLostPath": true,
      "clearThreatTimerByLostPath": 10,
      "clearThreatByTargetOutOfZone": true,
      "viewAttenuation": [
        { "x": 10.0, "y": 2.0 },
        { "x": 15.0, "y": 0.8 },
        { "x": 20.0, "y": 0.5 },
        { "x": 25.0, "y": 0.3 },
        { "x": 30.0, "y": 0.2 }
      ]
    },
    "returnToBornTactic": {
      "enable": true,
      "defaultSetting": {
        "speedLevel": 2
      }
    },
    "investigateTactic": {
      "enable": true,
      "condition": {
        "pose": [1]
      }
    },
    // For later use
    "reactActionPointTactic": {
      "enable": true,
      "defaultSetting": {
        "reactList": [
          // For reference:
          // {
          // 	"pointType": "SleepPoint",
          // 	"detectDistance": 15,
          // 	"pose": [1, 101, 401, 402, 201, 301],
          // 	"nerveTrigger": ["ASLEEP"],
          // 	"skillID": 111,
          // },
        ]
      }
    },
    "wanderTactic": {
      "enable": true,
      "condition": {
        "pose": [1]
      },
      "defaultSetting": {
        "speedLevel": 1,
        "cdMin": 1.5,
        "cdMax": 3.0,
        "distanceFromBorn": 15.0,
        "distanceFromCurrentMin": 3.75,
        "distanceFromCurrentMax": 7.5
      }
    },
    "meleeChargeTactic": {
      "enable": true,
      "condition": {
        "pose": [1001, 1002]
      },
      "defaultSetting": {
        "speedLevel": 2,
        "speedLevelInner": 1,
        "innerDistance": 0,
        "stopDistance": 8.5,
        "startDistanceMin": 10.0,
        "startDistanceMax": 50
      }
    },
    "facingMoveTactic": {
      "enable": true,
      "condition": {
        "pose": [1001, 1002]
      },
      "defaultSetting": {
        "speedLevel": 1,
        "rangeMin": 3.0,
        "rangeMax": 7.0,
        "facingMoveWeight": {
          "stop": 2.0,
          "forward": 0.0,
          "back": 0.0,
          "left": 1.0,
          "right": 1.0
        }
      },
      "specification": {
        // For reference:
        "1002": {
          "speedLevel": 1,
          "rangeMin": 5.5,
          "rangeMax": 8.5,
          "facingMoveWeight": {
            "stop": 2.0,
            "forward": 0.0,
            "back": 0.0,
            "left": 1.0,
            "right": 1.0
          }
        }
      }
    },
    "findBackTactic": {
      "enable": false,
      "condition": {
        "pose": [1001]
      },
      "defaultSetting": {
        "speedLevel": 2,
        "turnSpeedOverride": 3,
        "cd": 2.5,
        "overtime": 2.5,
        "targetLRSpace": 4.5,
        "targetBackSpace": 4.0
      }
    },
    "skillGroupCDConfigs": [
      {
        //Dodge
        "skillGroupCDID": 1,
        "skillGroupCDTime": 7.0
      },
      {
        //Order
        "skillGroupCDID": 2,
        "skillGroupCDTime": 9.0
      },
      {
        //MeleeAlone
        "skillGroupCDID": 3,
        "skillGroupCDTime": 6.0
      },
      {
        //MeleeWithSoldier
        "skillGroupCDID": 4,
        "skillGroupCDTime": 12.0
      }
    ],
    "skillSetting": {
      "skillEliteSet": {
        "1": [],
        "2": []
      }
    },
    "skills": {
      //////////////////////////////////////////////////
      //	Alert Skills 101~199
      //////////////////////////////////////////////////
      "101": {
        "name": "OnAlert",
        "stateIDs": ["Life_Warning"],
        "skillType": "OnAlert",
        "skillQueryingTime": 3,
        "triggerGCD": false,
        "ignoreGCD": true,
        "faceTarget": true
      },
      //////////////////////////////////////////////////
      //	Attack Skills 201 ~ 899
      //////////////////////////////////////////////////
      "201": {
        "cd": 3.0,
        "cdUpperRange": 1.0,
        "skillGroupCDID": 3,
        "initialCD": 3.0,
        "flagSelfInZone": "11",
        "combatSkillType": "MeleeAttack",
        "name": "Attack01",
        "stateIDs": ["Attack01"],
        "enableSkillPrepare": true,
        "castCondition": {
          "maxTargetAngleXZ": 60,
          "castRangeMin": 0.0,
          "castRangeMax": 3.5,
          "pickRangeMin": 2.0,
          "pickRangeMax": 15.0,
          "pose": [1001]
        }
      },
      "202": {
        "priority": 3,
        "cd": 3.0,
        "cdUpperRange": 1.0,
        "initialCD": 3.0,
        "skillGroupCDID": 3,
        "flagSelfInZone": "11",
        "name": "Attack02",
        "stateIDs": ["Attack02"],
        "enableSkillPrepare": true,
        "castCondition": {
          "maxTargetAngleXZ": 60,
          "castRangeMin": 0.0,
          "castRangeMax": 3.5,
          "pickRangeMin": 0,
          "pickRangeMax": 4.0,
          "pose": [1001]
        }
      },
      //////////////////////////////////////////////////
      //	Taunt Skills 901~999
      //////////////////////////////////////////////////
      "901": {
        "priority": 2,
        "cd": 5.0,
        "cdUpperRange": 5.0,
        "initialCD": 6.0,
        "flagSelfInZone": "11",
        "name": "Taunt",
        "stateIDs": ["Taunt"],
        "publicCDGroup": "RandomAction",
        "faceTarget": true,
        //"ignoreGCD": true,
        //"triggerGCD": false,
        "castCondition": {
          "pickRangeMin": 8.0,
          "pickRangeMax": 30.0,
          "pose": [1001],
          "maxTargetAngleY": 45.0
        }
      }
      //////////////////////////////////////////////////
      //	SpecialState Skills 1001~1999
      //////////////////////////////////////////////////
    }
  },
  "audio": {
    "$type": "ConfigMonsterAudio",
    "animAudio": {
      "onTransitionOut": [],
      "onTransitionIn": []
    },
    "disableEvent": {},
    "destroyEvent": {},
    "randomVariantSwitchGroup": {
      "text": ""
    },
    "randomVariantSwitchValues": [
      {
        "text": ""
      }
    ]
  }
}
