{
  "$type": "ConfigMonster",
  "common": {
    "mass": 20.0,
    "affectedByWorld": true,
    "checkInSurface": true,
    "scale": 1.25,
    "height": 0.5,
    "modelHeight": 0.4,
    "viewSize": 0.75,
    "effectAttachShape": {
      "$type": "ConfigEffectAttachSkinnedMesh",
      "mesh": "EffectMesh"
    },
    "canTriggerElementReactionText": true,
    "enableCrashDamage": false
  },
  "dither": {
    "showDitherDuration": 2.0
  },
  "billboard": {
    "$type": "ConfigCombatBillboard",
    "offset": {
      "x": 0,
      "y": 0.2,
      "z": 0
    },
    "depthOffset": 1.0,
    "showHPBar": true,
    "size": "Normal"
  },
  "combat": {
    "property": {
      "weight": 60,
      "denyLockOn": false,
      "endureType": "Monster_Slime"
    },
    "combatLock": {
      "denyLockOn": false,
      "lockType": "Avatar&Monster_Lv4"
    },
    "beHit": {
      "hitBloodEffect": "",
      "muteAllHit": false,
      "muteAllHitEffect": false,
      "muteAllHitText": false,
      "ignoreMinHitVY": true
    },
    "die": {
      "hasAnimatorDie": true,
      "dieDisappearEffect": "",
      "dieEndTime": 2,
      "dieForceDisappearTime": 8,
      "muteHitBox": true,
      "dieDenyLockOn": true,
      "dieIsGhostToEnemy": true,
      "dieIgnoreTriggerBullet": true,
      "muteBillboard": true,
      "mutePushCollider": true
    },
    "animEvents": {
      "Monster_Cicin_IceExplode": {
        "attackPattern": {
          "$type": "ConfigAttackCircle",
          "triggerType": "TriggerNoRepeat",
          "height": 3,
          "radius": 3,
          "born": {
            "$type": "ConfigBornBySelf",
            "offset": {
              "x": 0,
              "y": 0,
              "z": 0
            }
          },
          "ignoreMassive": true
        },
        "attackInfo": {
          "attackProperty": {
            "damagePercentage": 1,
            "strikeType": "Blunt",
            "overrideByWeapon": false,
            "attackType": "Melee",
            "enBreak": 100,
            "elementType": "Ice",
            "elementDurability": 50
          },
          "hitPattern": {
            "onHitEffectName": "default",
            "hitImpulseType": "LV5",
            "reboundRatio": 0,
            "canBeDefenceHalt": true,
            "muteHitText": false,
            "retreatType": "ByHitDirection"
          }
        }
      }
    }
  },
  "move": {
    "$type": "ConfigAnimatorMove",
    "initWithGroundHitCheck": false,
    "moveOnWater": true,
    "moveOnWaterDepth": 0,
    "velocityForce": {
      "excludeForces": ["WindZoneType", "AirflowType"]
    },
    "monsterSizeType": "SlimeType"
  },
  "stateLayers": {
    "defaultLayer": {
      "$type": "ConfigNormalStateLayer",
      "stateIDs": {
        "Born": {
          "$type": "ConfigMonsterStateIDInfo",
          "animatorStates": {
            "Born": ["Monster_Cicin_Ice_Born"]
          },
          "combatMove": true,
          "canDoSkill": true,
          "resetAnimatorTriggerOnExit": ["DoSkill"]
        },
        "NormalIdle": {
          "$type": "ConfigMonsterStateIDInfo",
          "animatorStates": {
            "Standby": [""]
          },
          "combatMove": true,
          "canDoSkill": true,
          "canSteer": true,
          "autoSteer": true,
          "canSyncMove": true,
          "addEndure": 1.2,
          "resetAnimatorTriggerOnExit": ["DoSkill"]
        },
        "NormalMove": {
          "$type": "ConfigMonsterStateIDInfo",
          "animatorStates": {
            "Walk": [""],
            "Run": [""],
            "Run_Standby": [""]
          },
          "combatMove": true,
          "canDoSkill": false,
          "canSteer": true,
          "canSyncMove": true,
          "addEndure": 1.2,
          "resetAnimatorTriggerOnExit": ["DoSkill"]
        },
        "BeHit": {
          "$type": "ConfigMonsterStateIDInfo",
          "animatorStates": {
            "Hit_L": [""],
            "Hit_H": [""]
          },
          "combatMove": true,
          "resetAnimatorTriggerOnEnter": ["BeHit"],
          "resetAnimatorTriggerOnExit": ["DoSkill"]
        },
        "Struggle": {
          "$type": "ConfigMonsterStateIDInfo",
          "animatorStates": {
            "Struggle": []
          },
          "combatMove": true,
          "resetAnimatorTriggerOnEnter": ["BeHit"],
          "resetAnimatorTriggerOnExit": ["DoSkill"]
        },
        "BeHitThrow": {
          "$type": "ConfigMonsterStateIDInfo",
          "animatorStates": {
            "HitThrow": ["Monster_Slime_BeHit"]
          },
          "combatMove": true,
          "resetAnimatorTriggerOnEnter": ["BeHit", "HitAir2HitDrop"],
          "resetAnimatorTriggerOnExit": ["DoSkill"]
        },
        "Die": {
          "$type": "ConfigMonsterStateIDInfo",
          "animatorStates": {
            "Die": ["Monster_Cicin_Ice_Die"]
          }
        },
        "Warning": {
          "$type": "ConfigMonsterStateIDInfo",
          "animatorStates": {
            "Warning": ["Monster_Slime_Warning"]
          },
          "combatMove": true,
          "addEndure": 1.2,
          "resetAnimatorTriggerOnExit": ["BeHit", "DoSkill"]
        },
        "HasOwnerWarning": {
          "$type": "ConfigMonsterStateIDInfo",
          "animatorStates": {
            "HasOwnerWarning": []
          },
          "combatMove": true,
          "addEndure": 1.2,
          "resetAnimatorTriggerOnExit": ["BeHit", "DoSkill"]
        },
        "NormalAtk": {
          "$type": "ConfigMonsterStateIDInfo",
          "animatorStates": {
            "NormalAtk": ["Monster_Cicin_Ice_NormalAtk"]
          },
          "combatMove": true,
          "addEndure": 1.2,
          "resetAnimatorTriggerOnExit": ["BeHit", "DoSkill"],
          "enableCCD": true
        },
        "Blink": {
          "$type": "ConfigMonsterStateIDInfo",
          "animatorStates": {
            "BlinkToMaster_BS": ["Monster_Cicin_Ice_BlinkToMaster"],
            "BlinkToMaster_AS": ["Monster_Cicin_Ice_BlinkToMasterAS"]
          },
          "combatMove": true,
          "addEndure": 0,
          "resetAnimatorTriggerOnExit": ["BeHit", "DoSkill", "BlinkTrigger"],
          "enableCCD": true,
          "cullingModelAlwaysAnimate": true
        },
        "RushAtk": {
          "$type": "ConfigMonsterStateIDInfo",
          "animatorStates": {
            "RushToTarget_BS": ["Monster_Cicin_Ice_RushToTarget"],
            "RushToTarget_Loop": [""],
            "RushToTarget_AS": [""]
          },
          "combatMove": true,
          "addEndure": 0,
          "resetAnimatorTriggerOnExit": ["BeHit", "DoSkill", "RushAtkTrigger"]
        },
        "SPRushAtk": {
          "$type": "ConfigMonsterStateIDInfo",
          "animatorStates": {
            "SPRushAtk_BS": ["Monster_Cicin_Ice_SPRushAtk"],
            "SPRushAtk_Loop": [""],
            "SPRushAtk_AS": [""],
            "SPRushAtk_Prepare": [""],
            "SPRushAtk_BlinkBack": ["Monster_Cicin_Ice_BlinkToSPRush"]
          },
          "combatMove": true,
          "addEndure": 0,
          "resetAnimatorTriggerOnExit": ["BeHit", "DoSkill", "SPRushAtkTrigger"]
        },
        "Fury": {
          "$type": "ConfigMonsterStateIDInfo",
          "animatorStates": {
            "Fury": [""]
          },
          "combatMove": true,
          "resetAnimatorTriggerOnExit": ["BeHit", "DoSkill", "FuryTrigger"],
          "enableCCD": true,
          "cullingModelAlwaysAnimate": true
        },
        "IceExplode": {
          "$type": "ConfigMonsterStateIDInfo",
          "animatorStates": {
            "RushAtk_IceExplode": ["Monster_Cicin_IceExplode"],
            "BlinkToMaster_IceExplode": ["Monster_Cicin_IceExplode"]
          },
          "combatMove": true,
          "addEndure": 0,
          "resetAnimatorTriggerOnExit": [
            "BeHit",
            "DoSkill",
            "ReachTarget",
            "SPRushPrepareTrigger"
          ],
          "enableCCD": true
        }
      }
    }
  },
  "abilities": [
    {
      "abilityID": "ChangePose",
      "abilityName": "Monster_Cicin_Ice_PoseChange"
    },
    {
      "abilityID": "Monster_Cicin_FireIceSpear",
      "abilityName": "Monster_Cicin_Ice_FireIceSpear"
    },
    {
      "abilityID": "Monster_Cicin_Steer",
      "abilityName": "Monster_Cicin_Ice_Steer"
    },
    {
      "abilityID": "RushAtk",
      "abilityName": "Monster_Cicin_Ice_RushAttack_UpdateDistance"
    },
    {
      "abilityID": "SPRushAtk",
      "abilityName": "Monster_Cicin_Ice_SPRushUpdateDistance"
    },
    {
      "abilityID": "Blink",
      "abilityName": "Monster_Cicin_Ice_BlinkToMaster"
    },
    {
      "abilityID": "ResetOrder",
      "abilityName": "Monster_Cicin_Ice_ResetOrder"
    },
    {
      "abilityID": "Shield",
      "abilityName": "Monster_Cicin_Ice_BlinkToSPRush"
    },
    {
      "abilityID": "Die",
      "abilityName": "Monster_Cicin_Ice_Die"
    },
    {
      "abilityID": "BeShield",
      "abilityName": "Monster_Cicin_Ice_GiveEnegy"
    },
    {
      "abilityID": "LifeEffect",
      "abilityName": "Monster_Cicin_Ice_CommonEffect"
    }
  ],
  "initialPoses": {
    "Default": {
      "initialPoseID": 0
    }
  },
  "aibeta": {
    "enable": true,
    "skillGCD": 1.5,
    // "skillSetting":
    // {
    // 	"skillEliteSet":
    // 	{
    // 		"1": [301],
    // 		"2": [302],
    // 	},
    // },
    "moveSetting": {
      "useNavMesh": false,
      "moveCategory": "Amphibious",
      "almostReachedDistanceWalk": 2,
      "almostReachedDistanceRun": 2
    },
    "decisionArchetype": "Cicin",
    "sensing": {
      "settings": {
        "DefaultSetting": {
          "viewRange": 20.0,
          "feelRange": 10.0
        }
      }
    },
    "neurons": {
      "DefaultSetting": ["HIT"]
    },
    "defendArea": {
      "defendRange": 50
    },
    "threat": {
      "clearThreatTargetDistance": 50.0,
      "clearThreatTimerByDistance": 1.75,
      "clearThreatEdgeDistance": 3.5,
      "viewThreatGrow": 35.0,
      "feelThreatGrow": 1000.0,
      "threatDecreaseSpeed": 10.0
    },
    "order": {
      "servant": {
        "enable": true
      }
    },
    "fly": {
      "enable": true,
      "floatingPoses": [1, 2, 101, 201, 202, 203, 204]
    },
    "returnToBornTactic": {
      "enable": true,
      "defaultSetting": {
        "speedLevel": 1,
        "fadeoutBeginTime": 0.75,
        "fadeoutEndTime": 2.25,
        "spacial": true
      }
    },
    "followScriptedPathTactic": {
      "enable": true,
      "defaultSetting": {
        "spacial": true
      }
    },
    "brownianMotionTactic": {
      "enable": true,
      "condition": {
        "pose": [1, 2, 101, 201, 203]
      },
      "defaultSetting": {
        "speedLevel": 1,
        "turnSpeedOverride": 10,
        "moveCdMin": 1,
        "moveCdMax": 1.5,
        "terrainOffsetMin": 0.75,
        "terrainOffsetMax": 2.75,
        "motionRadius": 3,
        "recalcCenterOnLeaveCurrentZone": true,
        "recalcCenterOnAttachPosChange": false
      },
      "specification": {
        "101": {
          "speedLevel": 1,
          "turnSpeedOverride": 10,
          "moveCdMin": 0.3,
          "moveCdMax": 0.65,
          "terrainOffsetMin": 0.55,
          "terrainOffsetMax": 1.3,
          "motionRadius": 2.75,
          "recalcCenterOnLeaveCurrentZone": true,
          "recalcCenterOnAttachPosChange": false
        },
        "201": {
          "speedLevel": 1,
          "turnSpeedOverride": 10,
          "moveCdMin": 0.3,
          "moveCdMax": 0.65,
          "terrainOffsetMin": 0.55,
          "terrainOffsetMax": 1.3,
          "motionRadius": 2.75,
          "recalcCenterOnLeaveCurrentZone": true,
          "recalcCenterOnAttachPosChange": false
        },
        "203": {
          "speedLevel": 1,
          "turnSpeedOverride": 10,
          "moveCdMin": 0.3,
          "moveCdMax": 0.65,
          "terrainOffsetMin": 0.55,
          "terrainOffsetMax": 1.3,
          "motionRadius": 2.75,
          "recalcCenterOnLeaveCurrentZone": true,
          "recalcCenterOnAttachPosChange": false
        }
      }
    },
    "spacialProbeTactic": {
      "enable": true,
      "condition": {
        "pose": [1]
      },
      "defaultSetting": {
        "speedLevel": 2,
        "cdMin": 15,
        "cdMax": 20,
        "terrainOffsetMin": 1.5,
        "terrainOffsetMax": 3,
        "distanceFromBorn": 30,
        "distanceFromCurrentMin": 2.5,
        "distanceFromCurrentMax": 4,
        "probeNumberMin": 4,
        "probeNumberMax": 5
      }
    },
    "spacialChaseTactic": {
      "enable": true,
      "condition": {
        "pose": [101]
      },
      "defaultSetting": {
        "speedLevel": 2,
        "chaseStartDistance": 15,
        "chaseStopDistance": 7.5,
        "yOffsetMin": 1,
        "yOffsetMax": 2.5,
        "segmentDistance": 2
      }
    },
    "skills": {
      "100": {
        "name": "OnAlert",
        "stateIDs": ["Warning"],
        "skillType": "OnAlert",
        "skillQueryingTime": 3,
        "triggerGCD": false,
        "faceTarget": true
      },
      "301": {
        "cd": 5,
        "cdUpperRange": 2.5,
        "name": "NormalAtk",
        //"combatSkillType": "RangedAttack",
        "stateIDs": ["NormalAtk"],
        "faceTarget": true,
        "flagSelfInZone": "11",
        "flagTargetReachable": "11",
        "castCondition": {
          "pickRangeMin": 0.0,
          "pickRangeMax": 30.0,
          "pose": [101]
        }
      },
      // "302":
      // {
      // 	"cd": 1.0,
      // 	"cdUpperRange": 1,
      // 	"name": "NormalAtk",
      // 	"combatSkillType": "RangedAttack",
      // 	"stateIDs": ["NormalAtk"],
      // 	"faceTarget": true,
      // 	"castCondition":
      // 	{
      // 		"pose": [101],
      // 	},
      // },
      "311": {
        "cd": 5,
        "cdUpperRange": 7.5,
        "name": "NormalAtk",
        /*				"combatSkillType": "RangedAttack",*/
        "stateIDs": ["NormalAtk"],
        "faceTarget": true,
        "castCondition": {
          "pickRangeMin": 0.0,
          "pickRangeMax": 30.0,
          "pose": [201, 202]
        }
      },
      "312": {
        "cd": 5,
        "cdUpperRange": 7.5,
        "name": "NormalAtk",
        /*				"combatSkillType": "RangedAttack",*/
        "stateIDs": ["NormalAtk"],
        "faceTarget": true,
        "flagSelfInZone": "01",
        "flagTargetReachable": "01",
        "castCondition": {
          "pose": [201, 202]
        }
      }
      // "401":
      // {
      // 	"cd": 5.0,
      // 	"cdUpperRange": 5.0,
      // 	"initialCD": 1,
      // 	"name": "RushAtk",
      // 	"stateIDs": ["RushAtk","IceExplode"],
      // 	"castCondition":
      // 	{
      // 		"pickRangeMin": 0.0,
      // 		"pickRangeMax": 20.0,
      // 		"pose": [202],
      // 	},
      // },
      // //测试数据。记得删除
      // "402":
      // {
      // 	"cd": 5.0,
      // 	"cdUpperRange": 5.0,
      // 	"initialCD": 1,
      // 	"name": "RushAtk",
      // 	"stateIDs": ["RushAtk","IceExplode"],
      // 	"castCondition":
      // 	{
      // 		"pickRangeMin": 0.0,
      // 		"pickRangeMax": 20.0,
      // 		"pose": [101],
      // 	},
      // },
      // //测试数据。记得删除
      // "403":
      // {
      // 	"cd": 5.0,
      // 	"cdUpperRange": 5.0,
      // 	"initialCD": 1,
      // 	"name": "BlinkToMaster",
      // 	"stateIDs": ["Blink","IceExplode"],
      // 	"castCondition":
      // 	{
      // 		"pickRangeMin": 0.0,
      // 		"pickRangeMax": 20.0,
      // 		"pose": [101],
      // 	},
      // },
    }
  },
  "inputKeys": [
    {
      //1
      "keyID": 301,
      "inputKeyCode": 257
    },
    {
      //2
      "keyID": 402,
      "inputKeyCode": 258
    },
    {
      //3
      "keyID": 403,
      "inputKeyCode": 259
    }
  ],
  "audio": {
    "$type": "ConfigMonsterAudio",
    "animAudio": {
      "onTransitionOut": [
        {
          "currentStateName": "Die",
          "audioEvent": {
            "text": ""
          },
          "otherStateNames": [],
          "usage": "Any"
        }
      ],
      "onTransitionIn": [
        {
          "currentStateName": "Die",
          "audioEvent": {
            "text": "Stop_sfx_monster_cicin_thunder_foley_slow_lp"
          },
          "otherStateNames": [],
          "usage": "Any"
        },
        {
          "currentStateName": "RushAtk",
          "audioEvent": {
            "text": "Play_sfx_monster_cicin_thunder_electricSurround_start"
          },
          "otherStateNames": [],
          "usage": "Any"
        }
      ]
    }
  }
}
