{
  "$type": "ConfigMonster",
  "common": {
    "mass": 30.0,
    "scale": 1,
    "affectedByWorld": true,
    "checkInSurface": true,
    "height": 0.75,
    "effectAttachShape": {
      "$type": "ConfigEffectAttachSkinnedMesh",
      "mesh": "EffectMesh"
    },
    "canTriggerElementReactionText": false,
    "useGrassDisplacement": false,
    "clearAnimatorOnSetLightDeactive": true,
    "clearAIOnSetLightDeactive": true
  },
  "billboard": {
    "$type": "ConfigCombatBillboard",
    "showHPBar": false
  },
  "model": {
    "canBakeMesh": false
  },
  "combat": {
    "property": {
      "weight": 30,
      "endureType": "Monster_Minion"
    },
    "combatLock": {
      "denyLockOn": false,
      "lockType": "Avatar&Monster_Lv4"
    },
    "beHit": {
      "hitBloodEffect": "",
      "muteAllHit": false,
      "muteAllHitEffect": false,
      "muteAllHitText": true
    },
    "die": {
      "dieDisappearEffect": "",
      "dieEndTime": 2.0,
      "dieForceDisappearTime": 10,
      "useRagDoll": false
    }
  },
  "dither": {
    "showDitherDuration": 1.0
  },
  "stateLayers": {
    "defaultLayer": {
      "$type": "ConfigNormalStateLayer",
      "stateIDs": {
        "Born": {
          "$type": "ConfigMonsterStateIDInfo",
          "animatorStates": {
            "Born_Emergy": [
              "Animal_Thoarder_Weasel_Born",
              "Audio_Animal_Marten_Born"
            ],
            "Born_Jump": [
              "Animal_Thoarder_Weasel_Emerge",
              "Audio_Animal_Marten_Alert"
            ]
          },
          "combatMove": true,
          "resetAnimatorTriggerOnExit": ["DoSkill"]
        },
        "NormalIdle": {
          "$type": "ConfigMonsterStateIDInfo",
          "animatorStates": {
            "Standby": ["Audio_Creature_Weasel_Standby"],
            "Standby_Special": ["Audio_Creature_Weasel_Standby"],
            "Standby_Walk": ["Audio_Creature_Weasel_run"],
            "WalkToStandby": ["Animal_Thoarder_Weasel_ToIdle"]
          },
          "combatMove": true,
          "canDoSkill": true,
          "canSyncMove": true,
          "resetAnimatorTriggerOnExit": ["DoSkill"]
        },
        "NormalMove": {
          "$type": "ConfigMonsterStateIDInfo",
          "animatorStates": {
            "Walk": ["Audio_Creature_Weasel_run"],
            "Run": ["Audio_Creature_Weasel_run"],
            "Disappear": ["Audio_Creature_Weasel_run"]
          },
          "combatMove": true,
          "canDoSkill": true,
          "canSteer": true,
          "canSyncMove": true,
          "resetAnimatorTriggerOnExit": ["DoSkill"]
        },
        "Die": {
          "$type": "ConfigMonsterStateIDInfo",
          "animatorStates": {
            "Die": ["Animal_Thoarder_Weasel_Die", "Audio_Creature_Weasel_Die"],
            "Die_Disappear": ["Animal_Thoarder_Weasel_Disappear"]
          }
        },
        "Alert": {
          "$type": "ConfigMonsterStateIDInfo",
          "animatorStates": {
            "Alert": [
              "Animal_Thoarder_Weasel_Alert",
              "Audio_Animal_Marten_Alert"
            ]
          },
          "combatMove": true,
          "canDoSkill": true,
          "canSteer": true,
          "followAnimRotation": true,
          "resetAnimatorTriggerOnExit": ["BeHit", "DoSkill"]
        },
        "Personality_1": {
          "$type": "ConfigMonsterStateIDInfo",
          "animatorStates": {
            "Personality_1": [
              "Animal_Thoarder_Weasel_Personality1",
              "Audio_Creature_Weasel_Personality_1"
            ]
          },
          "combatMove": true,
          "canDoSkill": true,
          "resetAnimatorTriggerOnExit": ["BeHit", "DoSkill"]
        },
        "Personality_2": {
          "$type": "ConfigMonsterStateIDInfo",
          "animatorStates": {
            "Personality_2": ["Audio_Creature_Weasel_Personality_2"]
          },
          "combatMove": true,
          "canDoSkill": true,
          "resetAnimatorTriggerOnExit": ["BeHit", "DoSkill"]
        },
        "Drill": {
          "$type": "ConfigMonsterStateIDInfo",
          "animatorStates": {
            "Drill": [
              "Animal_Thoarder_Weasel_Drill",
              "Audio_Creature_Weasel_Drill"
            ],
            "Drill_Disappear": [
              "Animal_Thoarder_Weasel_Drill_Exit",
              "Audio_Creature_Weasel_Drill"
            ]
          },
          "combatMove": true,
          "resetAnimatorTriggerOnExit": ["BeHit", "DoSkill"]
        },
        "ToWander": {
          "$type": "ConfigMonsterStateIDInfo",
          "animatorStates": {
            "ToWander": ["Animal_Thoarder_Weasel_ToWander"]
          },
          "combatMove": true,
          "canDoSkill": true,
          "resetAnimatorTriggerOnExit": ["BeHit", "DoSkill"]
        }
      }
    }
  },
  "abilities": [
    {
      "abilityID": "Animal_Thoarder_Weasel_Alert",
      "abilityName": "Animal_Thoarder_Weasel_Alert"
    },
    {
      "abilityID": "Animal_Thoarder_Weasel_Drill",
      "abilityName": "Animal_Thoarder_Weasel_Drill"
    },
    {
      "abilityID": "Animal_Thoarder_Weasel_Jump",
      "abilityName": "Animal_Thoarder_Weasel_Jump"
    },
    {
      "abilityID": "Animal_Thoarder_Weasel_Flee",
      "abilityName": "Animal_Thoarder_Weasel_Flee"
    },
    {
      "abilityID": "Animal_Thoarder_Weasel_ToWander",
      "abilityName": "Animal_Thoarder_Weasel_ToWander"
    },
    {
      "abilityID": "Animal_Thoarder_Weasel_ToIdle",
      "abilityName": "Animal_Thoarder_Weasel_ToIdle"
    },
    {
      "abilityID": "Animal_Thoarder_Weasel_State",
      "abilityName": "Animal_Thoarder_Weasel_State"
    },
    {
      "abilityName": "Animal_Thoarder_Weasel_Drill_Exit"
    }
  ],
  "inputKeys": [
    {
      "keyID": 101,
      "inputKeyCode": 257
    },
    {
      "keyID": 201,
      "inputKeyCode": 258
    }
  ],
  "initialPoses": {
    "Default": {
      "initialPoseID": 0
    },
    "Normal": {
      "initialPoseID": 1,
      "initialPoseParams": {
        "boolParams": {
          "FleeState": "false",
          "Jump": "false",
          "Wander": "false",
          "OnlyFlee": "false",
          "CustomizedLoot": "false",
          "DrillExit": "false"
        }
      }
    },
    "OnlyFlee": {
      "initialPoseID": 9,
      "initialPoseParams": {
        "boolParams": {
          "FleeState": "false",
          "Jump": "false",
          "Wander": "false",
          "OnlyFlee": "true",
          "CustomizedLoot": "false",
          "DrillExit": "false"
        }
      }
    },
    "Jump": {
      "initialPoseID": 3,
      "initialPoseParams": {
        "boolParams": {
          "FleeState": "true",
          "Jump": "true",
          "Wander": "false",
          "OnlyFlee": "false",
          "CustomizedLoot": "false",
          "DrillExit": "false"
        }
      }
    },
    "OnlyFlee_AIFight": {
      "initialPoseID": 911,
      "initialPoseParams": {
        "boolParams": {
          "FleeState": "false",
          "Jump": "false",
          "Wander": "false",
          "OnlyFlee": "true",
          "CustomizedLoot": "false",
          "DrillExit": "false"
        }
      }
    },
    // 生成后只逃跑，击杀后掉落配表的物品
    "Customized_Loot": {
      "initialPoseID": 921,
      "initialPoseParams": {
        "boolParams": {
          "FleeState": "false",
          "Jump": "false",
          "Wander": "false",
          "OnlyFlee": "false",
          "CustomizedLoot": "true",
          "DrillExit": "false"
        }
      }
    },
    // 挖洞，然后消失，不再和Gadget交互
    "Drill_Exit": {
      "initialPoseID": 102,
      "initialPoseParams": {
        "boolParams": {
          "FleeState": "false",
          "Jump": "false",
          "Wander": "false",
          "OnlyFlee": "false",
          "CustomizedLoot": "false",
          "DrillExit": "true"
        }
      }
    }
  },
  "aibeta": {
    "enable": true,
    "friendliness": 1,
    "skillGCD": 5.0,
    "sensing": {
      "settings": {
        "Normal": {
          "horizontalFov": 90,
          "verticalFov": 45,
          "viewRange": 15,
          "feelRange": 10
        },
        "Jump": {
          "feelRange": 40.0
        }
      },
      "templates": {
        "DefaultTemplate": {
          "1": "Normal",
          "2": "Normal",
          "9": "Normal",
          "3": "Jump"
        }
      }
    },
    "ui": {
      "hasDirectionIndicator": false
    },
    "neurons": {
      "DefaultSetting": ["HIT"]
    },
    "defendArea": {
      "defendRange": 50.0
    },
    "threat": {
      "viewThreatGrow": 50,
      "feelThreatGrow": 500,
      "threatDecreaseSpeed": 500
    },
    "moveSetting": {
      "almostReachedDistanceRun": 1,
      "almostReachedDistanceWalk": 1
    },
    "returnToBornTactic": {
      "enable": true
    },
    "wanderTactic": {
      "enable": true,
      "condition": {
        "pose": [2]
      },
      "defaultSetting": {
        "speedLevel": 1,
        "turnSpeedOverride": 2,
        "cdMin": 3.0,
        "cdMax": 5.0,
        "distanceFromBorn": 5,
        "distanceFromCurrentMin": 2,
        "distanceFromCurrentMax": 3.5
      }
    },
    "fleeTactic": {
      "condition": {
        "pose": [901, 911, 921]
      },
      "enable": true,
      "defaultSetting": {
        "speedLevel": 2,
        "turnSpeedOverride": 2.5,
        "cd": 3.0,
        "triggerDistance": 100,
        "fleeNumberMin": 5,
        "fleeNumberMax": 6,
        "fleeAngle": 75,
        "turnToTarget": true,
        "fleeDistanceMin": 6,
        "fleeDistanceMax": 8
      }
    },
    "combatFixedMoveTactic": {
      "enable": true,
      "nerveTrigger": ["HIT"],
      "condition": {
        "pose": [101, 102]
      },
      "defaultSetting": {
        "pointType": "MoleHolePoint",
        "turnSpeedOverride": 2.5,
        "speedLevel": 2,
        "detectDistance": 30,
        "stopDistance": 0.1,
        "overtime": 10.0,
        "skillID": 401
      },
      "specification": {
        "102": {
          "pointType": "MoleHolePoint",
          "turnSpeedOverride": 2.5,
          "speedLevel": 2,
          "detectDistance": 30,
          "stopDistance": 0.1,
          "overtime": 10.0,
          "skillID": 402
        }
      }
    },
    "skills": {
      "1": {
        "name": "OnAlert",
        "stateIDs": ["Alert"],
        "skillType": "OnAlert",
        "ignoreGCD": true,
        "triggerGCD": false
      },
      "101": {
        "cd": 25.0,
        "cdUpperRange": 25.0,
        "initialCD": 20,
        "initialCDUpperRange": 20,
        "name": "PersonalitySit1",
        "stateIDs": ["Personality_1"],
        "skillType": "Free",
        "castCondition": {
          "pose": [1, 9]
        }
      },
      "201": {
        "cd": 20.0,
        "cdUpperRange": 15.0,
        "initialCD": 10,
        "initialCDUpperRange": 10,
        "name": "PersonalitySit2",
        "stateIDs": ["Personality_2"],
        "skillType": "Free",
        "castCondition": {
          "pose": [1, 9]
        }
      },
      "301": {
        "cd": 12.5,
        "cdUpperRange": 7.5,
        "initialCD": 5,
        "initialCDUpperRange": 5,
        "name": "ToWander",
        "stateIDs": ["ToWander"],
        "skillType": "Free",
        "castCondition": {
          "pose": [1, 9]
        }
      },
      "401": {
        "cd": 0,
        "name": "Drill",
        "stateIDs": ["Drill"],
        "skillType": "ActionPoint",
        "castCondition": {
          "pose": [101]
        }
      },
      "402": {
        "cd": 0,
        "name": "Drill_Disappear",
        "stateIDs": ["Drill_Disappear"],
        "skillType": "ActionPoint",
        "castCondition": {
          "pose": [102]
        }
      }
    }
  }
}
