{
  "$type": "ConfigMonster",
  "common": {
    "effectAttachShape": {
      "$type": "ConfigEffectAttachSkinnedMesh",
      "mesh": "EffectMesh"
    },
    "mass": 10000.0,
    "height": 2.3,
    "modelHeight": 2.6,
    "viewSize": 1.3,
    "scale": 1.0,
    "useGrassDisplacement": true,
    "affectedByWorld": true,
    "checkInSurface": true,
    "clearAnimatorOnSetLightDeactive": true,
    "clearAIOnSetLightDeactive": true
  },
  "move": {
    "$type": "ConfigAnimatorMove",
    "facingMove": "FourDirection",
    "moveOnWater": false,
    "moveOnWaterDepth": 1.0,
    "monsterSizeType": "StoopType",
    "positionModifyState": "Walk"
  },
  "model": {
    "bornEffect": "Eff_Monster_Common_Born",
    "canBakeMesh": false
  },
  "dither": {
    "showDitherDuration": 1.0
  },
  "equipController": {
    "attachPoints": {
      "equip01": "WeaponR",
      "equip02": "WeaponL"
    },
    "sheathPoint": ""
  },
  "billboard": {
    "$type": "ConfigCombatBillboard",
    "offsetType": "Character",
    "offset": {
      "x": 0.0,
      "y": 0.0,
      "z": 0.0
    },
    "radiusOffset": -0.2,
    "showHPBar": true,
    "size": "Big"
  },
  "combat": {
    "property": {
      "weight": 110,
      "endureType": "Monster_Demiboss_Humanoid"
    },
    "combatLock": {
      "denyLockOn": false,
      "lockType": "Avatar&Monster_Lv4"
    },
    "beHit": {
      "hitBloodEffect": "",
      "muteAllHit": false,
      "muteAllHitEffect": false,
      "muteAllHitText": false
    },
    "die": {
      "hasAnimatorDie": true,
      "dieDisappearEffect": "Eff_Death_Abyss_Common",
      "dieDisappearEffectDelay": 0.0,
      "dieEndTime": 2.0,
      "dieForceDisappearTime": 4.0,
      "dieShaderData": "MonsterDie",
      "muteHitBox": true,
      "dieDenyLockOn": true,
      "dieIsGhostToEnemy": true,
      "dieIgnoreTriggerBullet": true,
      "muteBillboard": true,
      "mutePushCollider": true,
      "useRagDoll": true,
      "ragDollDieEndTimeDelay": 0.0
    },
    "animEvents": {
      "NormalAtk": {
        "attackPattern": {
          "$type": "ConfigAttackCircle",
          "triggerType": "TriggerNoRepeat",
          "height": 2.3,
          "fanAngle": 360.0,
          "radius": 3.6,
          "born": {
            "$type": "ConfigBornBySelf",
            "offset": {
              "x": 0.0,
              "y": 0.0,
              "z": 0.0
            }
          }
        },
        "attackInfo": {
          "attackTag": "Monster_ForlornVessel_Attack",
          "attenuationTag": "Monster_ForlornVessel_Warbanner_NormalAtk",
          "attenuationGroup": "Monster_ForlornVessel_Warbanner_NormalAtk",
          "attackProperty": {
            "damagePercentage": 1.0,
            "elementType": "Fire",
            "elementDurability": 25.0,
            "strikeType": "Slash",
            "attackType": "Melee",
            "enBreak": 50
          },
          "hitPattern": {
            "onHitEffectName": "default",
            "hitImpulseType": "LV3",
            "retreatType": "ByAttacker",
            "hitHaltTime": 0.0,
            "hitHaltTimeScale": 0.05,
            "muteHitText": false
          },
          "forceCameraShake": false
        }
      },
      // 点燃范围
      "NormalAtk_Fire": {
        "attackPattern": {
          "$type": "ConfigAttackCircle",
          "triggerType": "TriggerNoRepeat",
          "height": 2.3,
          "fanAngle": 360.0,
          "radius": 4.8,
          "innerRadius": 3.5,
          "born": {
            "$type": "ConfigBornBySelf",
            "offset": {
              "x": 0.0,
              "y": 0.0,
              "z": 0.0
            }
          }
        },
        "attackInfo": {
          "attackTag": "Monster_ForlornVessel_Attack",
          "attenuationTag": "Monster_ForlornVessel_Warbanner_NormalAtk",
          "attenuationGroup": "Monster_ForlornVessel_Warbanner_NormalAtk",
          "attackProperty": {
            "damagePercentage": 1.0,
            "elementType": "Fire",
            "elementDurability": 75.0,
            "strikeType": "Slash",
            "attackType": "Melee",
            "enBreak": 50
          },
          "hitPattern": {
            "onHitEffectName": "default",
            "hitImpulseType": "LV3",
            "retreatType": "ByAttacker",
            "hitHaltTime": 0.0,
            "hitHaltTimeScale": 0.05,
            "muteHitText": false
          },
          "forceCameraShake": false
        }
      }
    }
  },
  "inputKeys": [
    {
      "keyID": 101,
      "inputKeyCode": 257
    },
    {
      "keyID": 201,
      "inputKeyCode": 258
    },
    {
      "keyID": 301,
      "inputKeyCode": 259
    }
  ],
  "stateLayers": {
    "defaultLayer": {
      "$type": "ConfigNormalStateLayer",
      "stateIDs": {
        //////////////////////////////////////////////////
        //	Idle
        //////////////////////////////////////////////////
        "NormalIdle": {
          "$type": "ConfigMonsterStateIDInfo",
          "animatorStates": {
            "Born": [],
            "StandbyFree": [],
            "Standby": []
          },
          "canDoSkill": true,
          "canSyncMove": true,
          "resetAnimatorTriggerOnExit": ["DoSkill"]
        },
        //////////////////////////////////////////////////
        //	Move
        //////////////////////////////////////////////////
        "NormalMove": {
          "$type": "ConfigMonsterStateIDInfo",
          "animatorStates": {
            "WalkForward": [
              "Audio_Monster_ForlornVessel_Strong_Warbanner_Fire_WalkForward"
            ],
            "WalkBack": [
              "Audio_Monster_ForlornVessel_Strong_Warbanner_Fire_WalkBack"
            ],
            "WalkRight": [
              "Audio_Monster_ForlornVessel_Strong_Warbanner_Fire_WalkRight"
            ],
            "WalkLeft": [
              "Audio_Monster_ForlornVessel_Strong_Warbanner_Fire_WalkLeft"
            ],
            "Run": ["Audio_Monster_ForlornVessel_Strong_Common_Run"]
          },
          "canDoSkill": true,
          "canSteer": true,
          "canSyncMove": true,
          "resetAnimatorTriggerOnExit": ["DoSkill"]
        },
        "Turn": {
          "$type": "ConfigMonsterStateIDInfo",
          "animatorStates": {
            "TurnLeft": [],
            "TurnRight": []
          },
          "canDoSkill": true,
          "canSteer": true,
          "autoSteer": false,
          "canSyncMove": true,
          "resetAnimatorTriggerOnExit": ["DoSkill"]
        },
        //////////////////////////////////////////////////
        //	BeHit
        //////////////////////////////////////////////////
        "BeHit": {
          "$type": "ConfigMonsterStateIDInfo",
          "animatorStates": {
            "Hit_L": ["Audio_Monster_ForlornVessel_Strong_Common_Hit_L"],
            "Hit_H": ["Audio_Monster_ForlornVessel_Strong_Common_Hit_H"]
          },
          "resetAnimatorTriggerOnEnter": ["BeHit"],
          "resetAnimatorTriggerOnExit": ["DoSkill"]
        },
        "BeHitThrow": {
          "$type": "ConfigMonsterStateIDInfo",
          "animatorStates": {
            "HitThrow": [],
            "HitThrowDrop": [],
            "HitThrowToGround": [
              "Audio_Monster_ForlornVessel_Strong_Warbanner_Fire_HitThrowToGround"
            ]
          },
          "resetAnimatorTriggerOnEnter": ["BeHit", "HitAir2HitDrop"],
          "resetAnimatorTriggerOnExit": ["DoSkill"]
        },
        "Struggle": {
          "$type": "ConfigMonsterStateIDInfo",
          "animatorStates": {
            "Struggle": []
          },
          "resetAnimatorTriggerOnEnter": ["BeHit", "HitAir2HitDrop"],
          "resetAnimatorTriggerOnExit": ["DoSkill"]
        },
        //////////////////////////////////////////////////
        //	Die
        //////////////////////////////////////////////////
        "Die": {
          "$type": "ConfigMonsterStateIDInfo",
          "animatorStates": {
            "Die": ["Audio_Monster_ForlornVessel_Strong_Warbanner_Fire_Die"],
            "SwimDie": [],
            "AirDie": [
              "Audio_Monster_ForlornVessel_Strong_Warbanner_Fire_HitThrowToGround"
            ]
          }
        },
        "Die_Ragdoll": {
          "$type": "ConfigMonsterStateIDInfo",
          "animatorStates": {
            "Die_Ragdoll": [""],
            "SwimDie_Ragdoll": [],
            "AirDie_Ragdoll": []
          },
          "enableRagDoll": true
        },
        //////////////////////////////////////////////////
        //	Alert
        //////////////////////////////////////////////////
        "Alert": {
          "$type": "ConfigMonsterStateIDInfo",
          "animatorStates": {
            "Warning": [
              "Audio_Monster_ForlornVessel_Strong_Warbanner_Fire_Warning"
            ]
          },
          "resetAnimatorTriggerOnExit": ["BeHit", "DoSkill"]
        },
        //////////////////////////////////////////////////
        //	NormalAtk
        //////////////////////////////////////////////////
        "NormalAtk": {
          "$type": "ConfigMonsterStateIDInfo",
          "animatorStates": {
            "NormalAtk": [
              "Monster_ForlornVessel_Strong_Warbanner_NormalAtk",
              "Audio_Monster_ForlornVessel_Strong_Warbanner_Fire_NormalAtk"
            ]
          },
          "canSteer": true,
          "resetAnimatorTriggerOnExit": ["BeHit", "DoSkill"]
        },
        //////////////////////////////////////////////////
        //	FireBullet
        //////////////////////////////////////////////////
        "FireBullet": {
          "$type": "ConfigMonsterStateIDInfo",
          "animatorStates": {
            "FireBullet_BS": [
              "Monster_ForlornVessel_Strong_Warbanner_FireBullet_BS",
              "Audio_Monster_ForlornVessel_Strong_Warbanner_Fire_FireBullet"
            ],
            "FireBullet_AS": [
              "Monster_ForlornVessel_Strong_Warbanner_FireBullet_AS"
            ]
          },
          "canSteer": true,
          "resetAnimatorTriggerOnExit": ["BeHit", "DoSkill"],
          "handleAnimatorStateImmediately": true
        },
        //////////////////////////////////////////////////
        //	Salute
        //////////////////////////////////////////////////
        "Salute": {
          "$type": "ConfigMonsterStateIDInfo",
          "animatorStates": {
            "Salute": [
              "Audio_Monster_ForlornVessel_Strong_Warbanner_Fire_Salute"
            ]
          },
          "canSteer": true,
          "canDoSkill": true,
          "resetAnimatorTriggerOnExit": ["BeHit", "DoSkill"]
        },
        //////////////////////////////////////////////////
        //	RaiseFlag
        //////////////////////////////////////////////////
        "RaiseFlag": {
          "$type": "ConfigMonsterStateIDInfo",
          "animatorStates": {
            "RaiseFlag_BS": [
              "Monster_ForlornVessel_Strong_Warbanner_RaiseFlag_BS",
              "Audio_Monster_ForlornVessel_Strong_Warbanner_Fire_RaiseFlag_BS"
            ],
            "RaiseFlag_Loop": [
              "Audio_Monster_ForlornVessel_Strong_Warbanner_Fire_RaiseFlag_Loop"
            ],
            "RaiseFlag_AS": [
              "Monster_ForlornVessel_Strong_Warbanner_RaiseFlag_AS",
              "Audio_Monster_ForlornVessel_Strong_Warbanner_Fire_RaiseFlag_AS"
            ]
          },
          "canSteer": true,
          "canDoSkill": true,
          "resetAnimatorTriggerOnExit": ["BeHit", "DoSkill"]
        },
        "DropFlag": {
          "$type": "ConfigMonsterStateIDInfo",
          "animatorStates": {
            "DropFlag": []
          },
          "canSteer": false,
          "canDoSkill": true,
          "resetAnimatorTriggerOnExit": ["BeHit", "DoSkill"]
        }
      }
    }
  },
  "abilities": [
    //////////////////////////////////////////////////
    //	Pose
    //////////////////////////////////////////////////
    {
      "abilityName": "Monster_ForlornVessel_Strong_Warbanner_Pose"
    },
    //////////////////////////////////////////////////
    //	HitShield
    //////////////////////////////////////////////////
    {
      "abilityName": "Monster_ForlornVessel_Strong_Warbanner_HitShield"
    },
    //////////////////////////////////////////////////
    //	EndureDelta
    //////////////////////////////////////////////////
    {
      "abilityName": "Monster_ForlornVessel_EndureDelta_Add"
    },
    {
      "abilityName": "Monster_ForlornVessel_EndureDelta_Remove"
    },
    {
      "abilityName": "Monster_ForlornVessel_Strong_Warbanner_EndureDelta"
    },
    //////////////////////////////////////////////////
    //	BeHitThrow
    //////////////////////////////////////////////////
    {
      "abilityName": "Monster_ForlornVessel_BeHitThrow"
    },
    //////////////////////////////////////////////////
    //	Lance Heal
    //////////////////////////////////////////////////
    {
      "abilityName": "Monster_ForlornVessel_BeHeal"
    },
    //////////////////////////////////////////////////
    //	Steer
    //////////////////////////////////////////////////
    {
      "abilityName": "Monster_ForlornVessel_Strong_Warbanner_Steer"
    },
    //////////////////////////////////////////////////
    //	ExitBattle
    //////////////////////////////////////////////////
    {
      "abilityName": "Monster_ForlornVessel_Strong_Warbanner_ExitBattle"
    },
    //////////////////////////////////////////////////
    //	Warbanner
    //////////////////////////////////////////////////
    {
      "abilityName": "Monster_ForlornVessel_Strong_Warbanner_NormalAtk_Spread"
    },
    {
      "abilityName": "Monster_ForlornVessel_Strong_Warbanner_NormalAtk_Disappear"
    },
    {
      "abilityName": "Monster_ForlornVessel_Strong_Warbanner_FireBullet_Spread"
    },
    {
      "abilityName": "Monster_ForlornVessel_Strong_Warbanner_FireBullet_Disappear"
    },
    {
      "abilityName": "Monster_ForlornVessel_Strong_Warbanner_WeaponHanler"
    },
    //////////////////////////////////////////////////
    //	FireBullet
    //////////////////////////////////////////////////
    {
      "abilityName": "Monster_ForlornVessel_Strong_Warbanner_FireBullet"
    },
    //////////////////////////////////////////////////
    //	Alert
    //////////////////////////////////////////////////
    {
      "abilityName": "Monster_ForlornVessel_Strong_Warbanner_Alert"
    },
    //////////////////////////////////////////////////
    //	Salute
    //////////////////////////////////////////////////
    {
      "abilityName": "Monster_ForlornVessel_Strong_Salute"
    },
    //////////////////////////////////////////////////
    //	RaiseFlag
    //////////////////////////////////////////////////
    {
      "abilityName": "Monster_ForlornVessel_Strong_Warbanner_RaiseFlag_Spread"
    },
    {
      "abilityName": "Monster_ForlornVessel_Strong_Warbanner_RaiseFlag_Disappear"
    },
    //////////////////////////////////////////////////
    //	Weapon Freeze/Petrifaction
    //////////////////////////////////////////////////
    {
      "abilityName": "Monster_ForlornVessel_Strong_Warbanner_WeaponSpecialElementState"
    }
  ],
  "initialPoses": {
    "Default": {
      "initialPoseID": 101
    },
    "Leisure": {
      "initialPoseID": 9001,
      "initialPoseParams": {
        "boolParams": {
          "Leisure": "true"
        }
      }
    },
    "Patrol": {
      "initialPoseID": 9002,
      "initialPoseParams": {
        "boolParams": {
          "Patrol": "true"
        }
      }
    }
  },
  "aibeta": {
    "enable": true,
    "skillGCD": 0.5,
    "skillSetting": {
      "skillEliteSet": {}
    },
    "neurons": {
      "DefaultSetting": ["HIT"]
    },
    "aiCombat": {
      "combatRole": "MAGE"
    },
    "profiling": {},
    "target": {
      "defaultTargetPrioritys": ["THREAT"],
      "specificationTargetPrioritys": {
        "101": ["MASTER", "THREAT"]
      }
    },
    "sensing": {
      "settings": {
        "DefaultSetting": {
          "viewRange": 25.0,
          "feelRange": 10.0
        },
        "HighAlert": {
          "viewRange": 40.0,
          "feelRange": 10.0
        }
      },
      "templates": {
        "DefaultTemplate": {
          "DefaultPoses": "DefaultSetting"
        },
        "HighAlertTemplate": {
          "DefaultPoses": "HighAlert"
        }
      }
    },
    "defendArea": {
      "enable": true,
      "defendRange": 40
    },
    "threat": {
      "clearThreatTimerByDistance": 5.0,
      "clearThreatByLostPath": true,
      "clearThreatTimerByLostPath": 10,
      "viewAttenuation": [
        { "x": 10.0, "y": 2.0 },
        { "x": 15.0, "y": 0.8 },
        { "x": 20.0, "y": 0.5 },
        { "x": 25.0, "y": 0.3 },
        { "x": 30.0, "y": 0.2 }
      ]
    },
    "order": {
      "master": {
        "enable": false
      },
      "servant": {
        "enable": true
      },
      "commandSetting": {
        "acceptCommandIDs": [20701]
      }
    },
    "returnToBornTactic": {
      "enable": true,
      "defaultSetting": {
        "speedLevel": 2
      }
    },
    "wanderTactic": {
      "enable": true,
      "condition": {
        "pose": [101, 9001, 9002]
      },
      "defaultSetting": {
        "speedLevel": 1,
        "cdMin": 5.0,
        "cdMax": 7.0,
        "distanceFromBorn": 10.0,
        "distanceFromCurrentMin": 3.0,
        "distanceFromCurrentMax": 5.0
      }
    },
    "meleeChargeTactic": {
      "enable": true,
      "condition": {
        "pose": [201, 301]
      },
      "defaultSetting": {
        "speedLevel": 2,
        "speedLevelInner": 0,
        "innerDistance": 13.0,
        "stopDistance": 10.5,
        "startDistanceMin": 18.0,
        "startDistanceMax": 50
      }
    },
    "facingMoveTactic": {
      "enable": true,
      "condition": {
        "pose": [201, 301]
      },
      "defaultSetting": {
        "speedLevel": 1,
        "rangeMin": 5.0,
        "rangeMax": 12.5,
        "restTimeMin": 3.0,
        "restTimeMax": 5.0,
        "facingMoveTurnInterval": 1.5,
        "facingMoveWeight": {
          "stop": 1.0,
          "forward": 0.5,
          "back": 1.5,
          "left": 1.0,
          "right": 1.0
        }
      },
      "specification": {
        "301": {
          "speedLevel": 1,
          "rangeMin": 4.0,
          "rangeMax": 8.0,
          "restTimeMin": 1.0,
          "restTimeMax": 5.0,
          "facingMoveTurnInterval": 1.5,
          "facingMoveWeight": {
            "stop": 1.0,
            "forward": 0.0,
            "back": 2.0,
            "left": 0.5,
            "right": 0.5
          }
        }
      }
    },
    "skillGroupCDConfigs": [],
    "skills": {
      //////////////////////////////////////////////////
      //	Alert
      //////////////////////////////////////////////////
      "101": {
        "name": "OnAlert",
        "stateIDs": ["Alert"],
        "skillType": "OnAlert",
        "skillQueryingTime": 3,
        "triggerGCD": false,
        "ignoreGCD": true,
        "faceTarget": true
      },
      //////////////////////////////////////////////////
      //	Salute
      //////////////////////////////////////////////////
      "111": {
        "cd": 1.0,
        "cdUpperRange": 0,
        "initialCD": 1.0,
        "name": "Salute",
        "stateIDs": ["Salute"],
        "skillType": "Free",
        "combatSkillType": "Unclassified",
        "castCondition": {
          "pose": [9001]
        },
        "commandID": 20701
      },
      //////////////////////////////////////////////////
      //	NormalAtk
      //////////////////////////////////////////////////
      "201": {
        "name": "NormalAtk",
        "skillType": "Combat",
        "combatSkillType": "MeleeAttack",
        "cd": 1.0,
        "cdUpperRange": 5.0,
        "initialCD": 0.0,
        "initialCDUpperRange": 4.0,
        "publicCDGroup": "ForlornVessel_Skill",
        "skillQueryingTime": 3,
        "priority": 2,
        "stateIDs": ["NormalAtk"],
        "castCondition": {
          "pickRangeMin": 0.0,
          "pickRangeMax": 7.0,
          "castRangeMin": 0.0,
          "castRangeMax": 5.5,
          "pickRangeYMax": 3.0,
          "pose": [201, 301]
        }
      },
      //////////////////////////////////////////////////
      //	FireBullet
      //////////////////////////////////////////////////
      "301": {
        "name": "FireBullet",
        "skillType": "Combat",
        "combatSkillType": "MeleeAttack",
        "cd": 3.0,
        "cdUpperRange": 5.0,
        "initialCD": 3.0,
        "initialCDUpperRange": 4.0,
        "publicCDGroup": "ForlornVessel_Skill",
        "skillQueryingTime": 3,
        "priority": 2,
        "stateIDs": ["FireBullet"],
        "flagTargetReachable": "11",
        "castCondition": {
          "pickRangeMin": 3.0,
          "pickRangeMax": 7.0,
          "castRangeMin": 0.0,
          "castRangeMax": 7.0,
          "pose": [201, 301]
        }
      },
      "302": {
        "name": "FireBullet",
        "skillType": "Combat",
        "combatSkillType": "MeleeAttack",
        "cd": 1.0,
        "cdUpperRange": 5.0,
        "initialCD": 1.0,
        "initialCDUpperRange": 4.0,
        "publicCDGroup": "ForlornVessel_Skill",
        "skillQueryingTime": 3,
        "priority": 2,
        "stateIDs": ["FireBullet"],
        "flagTargetReachable": "11",
        "castCondition": {
          "pickRangeMin": 7.0,
          "pickRangeMax": 15.0,
          "castRangeMin": 0.0,
          "castRangeMax": 15.0,
          "pose": [201, 301]
        }
      }
    }
  },
  "audio": {
    "$type": "ConfigMonsterAudio",
    "animAudio": {
      "onTransitionOut": [],
      "onTransitionIn": []
    },
    "disableEvent": {},
    "destroyEvent": {},
    "randomVariantSwitchGroup": {
      "text": ""
    },
    "randomVariantSwitchValues": [
      {
        "text": ""
      }
    ]
  }
}
