{
  "$type": "ConfigMonster",
  "headControl": {
    "$type": "ConfigHeadControl",
    "useHeadControl": true,
    "maxYawDegree": 30,
    "maxPitchDegree": 15
    /* "animStates":
		[
			"NormalIdle/Standby",
			"NormalMove/WalkForward",
			"NormalMove/WalkBack",
			"NormalMove/WalkRight",
			"NormalMove/WalkLeft",
			"NormalMove/Run",
			"Turn/TurnLeft",
			"Turn/TurnRight",
		], */
  },
  "common": {
    "effectAttachShape": {
      "$type": "ConfigEffectAttachSkinnedMesh",
      "mesh": "EffectMesh"
    },
    "mass": 150.0,
    "height": 3.5,
    "modelHeight": 3.0,
    "viewSize": 1.0,
    "scale": 1.0,
    "useGrassDisplacement": true,
    "affectedByWorld": true,
    "checkInSurface": true,
    "shouldPauseAnimatorBeforeReady": true,
    "clearAnimatorOnSetLightDeactive": true,
    "clearAIOnSetLightDeactive": true,
    "reconnectSupport": true,
    "recoverByInitPose": true
  },
  "move": {
    "$type": "ConfigAnimatorMove",
    "facingMove": "FourDirection",
    "moveOnWater": false,
    "monsterSizeType": "StoopType"
  },
  "model": {
    "bornEffect": "Eff_Monster_Common_Born",
    "canBakeMesh": true
  },
  "equipController": {
    "attachPoints": {
      "equip01": "SlimeAttachPoint"
    },
    "sheathPoint": ""
  },
  "dither": {
    "showDitherDuration": 2.0
  },
  "billboard": {
    "$type": "ConfigCombatBillboard",
    "offsetType": "Character",
    "offset": {
      "x": 0,
      "y": 0,
      "z": 0
    },
    "radiusOffset": 1.0,
    "showHPBar": true,
    "size": "Big"
  },
  "combat": {
    "property": {
      "weight": 150,
      "endureType": "Monster_Demiboss_Humanoid"
    },
    "combatLock": {
      "denyLockOn": false,
      "lockType": "Avatar&Monster_Lv4"
    },
    "beHit": {
      "hitBloodEffect": "",
      "muteAllHit": false,
      "muteAllHitEffect": false,
      "muteAllHitText": false
    },
    "die": {
      "hasAnimatorDie": true,
      "dieDisappearEffect": "Eff_Death_Common",
      "dieDisappearEffectDelay": 0.0,
      "dieEndTime": 2.0,
      "dieForceDisappearTime": 4.0,
      "dieShaderData": "MonsterDie",
      "useRagDoll": true,
      "ragDollDieEndTimeDelay": 1.1,
      "muteHitBox": true,
      "dieDenyLockOn": true,
      "dieIsGhostToEnemy": true,
      "dieIgnoreTriggerBullet": true,
      "muteBillboard": true,
      "mutePushCollider": true
    },
    "animEvents": {
      "NormalAtk01_1": {
        "attackPattern": {
          "$type": "ConfigAttackCircle",
          "triggerType": "TriggerNoRepeat",
          "height": 2.2,
          "radius": 2.45,
          "fanAngle": 180.0,
          "born": {
            "$type": "ConfigBornBySelf",
            "offset": {
              "x": 0.32,
              "y": -0.5,
              "z": -0.15
            }
          }
        },
        "attackInfo": {
          "attackProperty": {
            "damagePercentage": 0.6,
            "strikeType": "Slash",
            "attackType": "Melee",
            "elementType": "Wind",
            "enBreak": 50
          },
          "hitPattern": {
            "onHitEffectName": "",
            "hitImpulseType": "LV3",
            "hitHaltTime": 0,
            "hitHaltTimeScale": 0,
            "muteHitText": false
          },
          "forceCameraShake": false
        }
      },
      "NormalAtk01_2": {
        "attackPattern": {
          "$type": "ConfigAttackCircle",
          "triggerType": "TriggerNoRepeat",
          "height": 3.0,
          "radius": 2.44,
          "fanAngle": 180.0,
          "born": {
            "$type": "ConfigBornBySelf",
            "offset": {
              "x": -0.54,
              "y": -0.5,
              "z": 0.0
            }
          }
        },
        "attackInfo": {
          "attackProperty": {
            "damagePercentage": 0.6,
            "strikeType": "Slash",
            "attackType": "Melee",
            "elementType": "Wind",
            "enBreak": 75
          },
          "hitPattern": {
            "onHitEffectName": "",
            "hitImpulseType": "LV3",
            "hitHaltTime": 0,
            "hitHaltTimeScale": 0,
            "muteHitText": false
          },
          "forceCameraShake": false
        }
      },
      "NormalAtk02": {
        "attackPattern": {
          "$type": "ConfigAttackCircle",
          "triggerType": "TriggerNoRepeat",
          "height": 3.0,
          "radius": 3.2,
          "fanAngle": 360.0,
          "born": {
            "$type": "ConfigBornBySelf",
            "offset": {
              "x": -0.15,
              "y": 0.0,
              "z": 0.0
            }
          }
        },
        "attackInfo": {
          "attackProperty": {
            "damagePercentage": 0.8,
            "strikeType": "Slash",
            "attackType": "Melee",
            "elementType": "Wind",
            "enBreak": 100
          },
          "hitPattern": {
            "onHitEffectName": "",
            "hitImpulseType": "LV4",
            "hitHaltTime": 0,
            "hitHaltTimeScale": 0,
            "muteHitText": false
          },
          "forceCameraShake": true,
          "cameraShake": {
            "shakeType": "HitVector"
          }
        }
      }
    }
  },
  "inputKeys": [
    {
      "keyID": 101,
      "inputKeyCode": 257
    },
    {
      "keyID": 201,
      "inputKeyCode": 258
    },
    {
      "keyID": 301,
      "inputKeyCode": 259
    },
    {
      "keyID": 401,
      "inputKeyCode": 260
    },
    {
      "keyID": 501,
      "inputKeyCode": 261
    },
    {
      "keyID": 601,
      "inputKeyCode": 262
    },
    /* {
			"keyID": 701,
			"inputKeyCode": 263,
		}, */
    // Temp
    {
      "keyID": 1007,
      "inputKeyCode": 264
    },
    {
      "keyID": 1005,
      "inputKeyCode": 265
    },
    {
      "keyID": 1001,
      "inputKeyCode": 266
    },
    {
      "keyID": 1002,
      "inputKeyCode": 267
    },
    {
      "keyID": 1003,
      "inputKeyCode": 268
    },
    {
      "keyID": 1004,
      "inputKeyCode": 269
    },
    {
      "keyID": 1006,
      "inputKeyCode": 270
    },
    {
      "keyID": 111,
      "inputKeyCode": 271
    },
    {
      "keyID": 121,
      "inputKeyCode": 272
    },
    {
      "keyID": 131,
      "inputKeyCode": 273
    },
    {
      "keyID": 141,
      "inputKeyCode": 274
    }
  ],
  "stateLayers": {
    "defaultLayer": {
      "$type": "ConfigNormalStateLayer",
      "stateIDs": {
        //////////////////////////////////////////////////
        //	Idle
        //////////////////////////////////////////////////
        "NormalIdle": {
          "$type": "ConfigMonsterStateIDInfo",
          "animatorStates": {
            "StandbyFree": [],
            "Standby": [],
            "Born": []
          },
          "canDoSkill": true,
          "canSyncMove": true,
          "resetAnimatorTriggerOnExit": ["DoSkill"]
        },
        //////////////////////////////////////////////////
        //	Move
        //////////////////////////////////////////////////
        "NormalMove": {
          "$type": "ConfigMonsterStateIDInfo",
          "animatorStates": {
            "WalkForward": [],
            "WalkBack": [],
            "WalkRight": [],
            "WalkLeft": [],
            "Run": []
          },
          "canDoSkill": true,
          "canSteer": true,
          "canSyncMove": true,
          "resetAnimatorTriggerOnExit": ["DoSkill"]
        },
        "Turn": {
          "$type": "ConfigMonsterStateIDInfo",
          "animatorStates": {
            "TurnLeft": [],
            "TurnRight": []
          },
          "canDoSkill": true,
          "canSteer": true,
          "autoSteer": false,
          "canSyncMove": true,
          "resetAnimatorTriggerOnExit": ["DoSkill"]
        },
        //////////////////////////////////////////////////
        //	BeHit
        //////////////////////////////////////////////////
        "BeHit": {
          "$type": "ConfigMonsterStateIDInfo",
          "animatorStates": {
            "Hit_L": [],
            "Hit_H": []
          },
          "resetAnimatorTriggerOnEnter": ["BeHit"],
          "resetAnimatorTriggerOnExit": ["DoSkill"]
        },
        "BeHitThrow": {
          "$type": "ConfigMonsterStateIDInfo",
          "animatorStates": {
            "HitThrow": [],
            "HitThrowDrop": [],
            "HitThrowToGround": []
          },
          "resetAnimatorTriggerOnEnter": ["BeHit", "HitAir2HitDrop"],
          "resetAnimatorTriggerOnExit": ["DoSkill"]
        },
        "Struggle": {
          "$type": "ConfigMonsterStateIDInfo",
          "animatorStates": {
            "Struggle": []
          },
          "resetAnimatorTriggerOnEnter": ["BeHit", "HitAir2HitDrop"],
          "resetAnimatorTriggerOnExit": ["DoSkill"]
        },
        //////////////////////////////////////////////////
        //	Die
        //////////////////////////////////////////////////
        "Die": {
          "$type": "ConfigMonsterStateIDInfo",
          "animatorStates": {
            "Die": [],
            "SwimDie": []
          }
        },
        "Die_RagDoll": {
          "$type": "ConfigMonsterStateIDInfo",
          "animatorStates": {
            "Die_RagDoll": [],
            "SwimDie_Ragdoll": [],
            "AirDie": []
          },
          "enableRagDoll": true
        },
        //////////////////////////////////////////////////
        //	Alert
        //////////////////////////////////////////////////
        "Alert": {
          "$type": "ConfigMonsterStateIDInfo",
          "animatorStates": {
            "Alert": []
          },
          "resetAnimatorTriggerOnExit": ["BeHit", "DoSkill"]
        },
        //////////////////////////////////////////////////
        //	Life Skills
        //////////////////////////////////////////////////
        "Life_Guard": {
          "$type": "ConfigMonsterStateIDInfo",
          "animatorStates": {
            "Guard": []
          },
          "canDoSkill": true,
          "resetAnimatorTriggerOnExit": ["BeHit", "DoSkill"]
        },
        "Life_Box": {
          "$type": "ConfigMonsterStateIDInfo",
          "animatorStates": {
            "Box": []
          },
          "canDoSkill": true,
          "resetAnimatorTriggerOnExit": ["BeHit", "DoSkill"]
        },
        "Life_Sleepy": {
          "$type": "ConfigMonsterStateIDInfo",
          "animatorStates": {
            "Sleepy": []
          },
          "canDoSkill": true,
          "resetAnimatorTriggerOnExit": ["BeHit", "DoSkill"]
        },
        "Life_LookUp": {
          "$type": "ConfigMonsterStateIDInfo",
          "animatorStates": {
            "LookUp": []
          },
          "canDoSkill": true,
          "resetAnimatorTriggerOnExit": ["BeHit", "DoSkill"]
        },
        //////////////////////////////////////////////////
        //	Combat Skill
        //////////////////////////////////////////////////
        "NormalAtk01": {
          "$type": "ConfigMonsterStateIDInfo",
          "animatorStates": {
            "NormalAtk01": ["Monster_Hilistray_Wind_NormalAtk01"]
          },
          "canSteer": true,
          "resetAnimatorTriggerOnExit": ["BeHit", "DoSkill"]
        },
        "NormalAtk02": {
          "$type": "ConfigMonsterStateIDInfo",
          "animatorStates": {
            "NormalAtk02": ["Monster_Hilistray_Wind_NormalAtk02"]
          },
          "canSteer": true,
          "resetAnimatorTriggerOnExit": ["BeHit", "DoSkill"]
        },
        "Syuriken01": {
          "$type": "ConfigMonsterStateIDInfo",
          "animatorStates": {
            "Syuriken01": ["Monster_Hilistray_Wind_Syuriken01"]
          },
          "canSteer": true,
          "resetAnimatorTriggerOnExit": ["BeHit", "DoSkill"]
        },
        "Syuriken02": {
          "$type": "ConfigMonsterStateIDInfo",
          "animatorStates": {
            "Syuriken02": ["Monster_Hilistray_Wind_Syuriken02"]
          },
          "canSteer": true,
          "resetAnimatorTriggerOnExit": ["BeHit", "DoSkill"]
        },
        "SpecialAtk": {
          "$type": "ConfigMonsterStateIDInfo",
          "animatorStates": {
            "SpecialAtk_JumpUp": ["Monster_Hilistray_Wind_SpecialAtk_JumpUp"],
            "SpecialAtk_InAir": ["Monster_Hilistray_Wind_SpecialAtk_InAir"],
            "SpecialAtk_JumpDown": [
              "Monster_Hilistray_Wind_SpecialAtk_JumpDown"
            ]
          },
          "canSteer": true,
          "resetAnimatorTriggerOnExit": ["BeHit", "DoSkill"]
        },
        "SpecialAtk_Drop": {
          "$type": "ConfigMonsterStateIDInfo",
          "animatorStates": {
            "SpecialAtk_Drop_BS": [],
            "SpecialAtk_Drop_Loop": [],
            "SpecialAtk_Drop_AS": ["Monster_Hilistray_Wind_SpecialAtk_Drop_AS"]
          },
          "canSteer": true,
          "resetAnimatorTriggerOnExit": ["BeHit", "DoSkill"]
        },
        //////////////////////////////////////////////////
        //	Temp
        //////////////////////////////////////////////////
        "WalkF_Temp": {
          "$type": "ConfigMonsterStateIDInfo",
          "animatorStates": {
            "WalkF_Temp": []
          },
          "canSteer": true,
          "resetAnimatorTriggerOnExit": ["BeHit", "DoSkill"]
        },
        "WalkB_Temp": {
          "$type": "ConfigMonsterStateIDInfo",
          "animatorStates": {
            "WalkB_Temp": []
          },
          "canSteer": true,
          "resetAnimatorTriggerOnExit": ["BeHit", "DoSkill"]
        },
        "WalkL_Temp": {
          "$type": "ConfigMonsterStateIDInfo",
          "animatorStates": {
            "WalkL_Temp": []
          },
          "canSteer": true,
          "resetAnimatorTriggerOnExit": ["BeHit", "DoSkill"]
        },
        "WalkR_Temp": {
          "$type": "ConfigMonsterStateIDInfo",
          "animatorStates": {
            "WalkR_Temp": []
          },
          "canSteer": true,
          "resetAnimatorTriggerOnExit": ["BeHit", "DoSkill"]
        },
        "Run_Temp": {
          "$type": "ConfigMonsterStateIDInfo",
          "animatorStates": {
            "Run_Temp": []
          },
          "canSteer": true,
          "resetAnimatorTriggerOnExit": ["BeHit", "DoSkill"]
        },
        "ReturnToBorn_Temp": {
          "$type": "ConfigMonsterStateIDInfo",
          "animatorStates": {
            "ReturnToBorn_Temp": []
          },
          "canSteer": true,
          "resetAnimatorTriggerOnExit": ["BeHit", "DoSkill"]
        },
        "WalkFree_Temp": {
          "$type": "ConfigMonsterStateIDInfo",
          "animatorStates": {
            "WalkFree_Temp": []
          },
          "canSteer": true,
          "resetAnimatorTriggerOnExit": ["BeHit", "DoSkill"]
        }
      }
    }
  },
  "abilities": [
    //////////////////////////////////////////////////
    //	Pose
    //////////////////////////////////////////////////

    //////////////////////////////////////////////////
    //	Common
    //////////////////////////////////////////////////
    {
      "abilityName": "Monster_Hilistray_Wind_Steer"
    },
    //////////////////////////////////////////////////
    //	NormalAtk01
    //////////////////////////////////////////////////
    {
      "abilityName": "Monster_Hilistray_Wind_NormalAtk01"
    },
    {
      "abilityName": "Monster_Hilistray_Wind_NormalAtk01_RushMove"
    },
    //////////////////////////////////////////////////
    //	NormalAtk02
    //////////////////////////////////////////////////
    {
      "abilityName": "Monster_Hilistray_Wind_NormalAtk02_RushMove"
    },
    //////////////////////////////////////////////////
    //	Syuriken01
    //////////////////////////////////////////////////
    {
      "abilityName": "Monster_Hilistray_Wind_Syuriken01"
    },
    {
      "abilityName": "Monster_Hilistray_Wind_Syuriken01_Bullet"
    },
    //////////////////////////////////////////////////
    //	Syuriken02
    //////////////////////////////////////////////////
    {
      "abilityName": "Monster_Hilistray_Wind_Syuriken02_SmallBullet"
    },
    {
      "abilityName": "Monster_Hilistray_Wind_Syuriken02_BigBullet"
    },
    //////////////////////////////////////////////////
    //	SpecialAtk
    //////////////////////////////////////////////////
    {
      "abilityName": "Monster_Hilistray_Wind_SpecialAtk_AirState"
    },
    {
      "abilityName": "Monster_Hilistray_Wind_SpecialAtk_CreateSlime"
    },
    {
      "abilityName": "Monster_Hilistray_Wind_SpecialAtk_RemoveSlime"
    },
    {
      "abilityName": "Monster_Hilistray_Wind_SpecialAtk_WeaponEffectOn"
    },
    {
      "abilityName": "Monster_Hilistray_Wind_SpecialAtk_WeaponEffectOff"
    },
    {
      "abilityName": "Monster_Hilistray_Wind_SpecialAtk_Bullet_01"
    },
    {
      "abilityName": "Monster_Hilistray_Wind_SpecialAtk_Bullet_02"
    },
    {
      "abilityName": "Monster_Hilistray_Wind_SpecialAtk_Bullet_03"
    }
  ],
  "initialPoses": {
    "Default": {
      "initialPoseID": 101,
      "initialPoseParams": {
        "boolParams": {
          "Sit": "false"
        }
      }
    },
    "Sit": {
      "initialPoseID": 9001,
      "initialPoseParams": {
        "boolParams": {
          "Sit": "true"
        }
      }
    }
  },
  "aibeta": {
    "enable": true,
    "skillGCD": 2.0,
    "skillSetting": {
      "skillEliteSet": {}
    },
    "neurons": {
      "DefaultSetting": ["HIT"]
    },
    "profiling": {
      "staticPoses": [9001]
    },
    "sensing": {
      "settings": {
        "DefaultSetting": {
          "viewRange": 25.0,
          "feelRange": 10.0
        },
        "Sit": {
          "viewRange": 15.0,
          "feelRange": 8.0
        }
      },
      "templates": {
        "DefaultTemplate": {
          "DefaultPoses": "DefaultSetting"
        },
        "SitTemplate": {
          "DefaultPoses": "Sit"
        }
      }
    },
    "defendArea": {
      "enable": true,
      "defendRange": 50
    },
    "fly": {
      "enable": true,
      "floatingPoses": [301]
    },
    "threat": {
      "clearThreatByLostPath": true,
      "clearThreatTimerByLostPath": 10,
      "viewAttenuation": [
        { "x": 10.0, "y": 2.0 },
        { "x": 15.0, "y": 0.8 },
        { "x": 20.0, "y": 0.5 },
        { "x": 25.0, "y": 0.3 },
        { "x": 30.0, "y": 0.2 }
      ],
      "resistTauntLevel": "Monster_TauntLevel_2"
    },
    "returnToBornTactic": {
      "enable": true,
      "defaultSetting": {
        "speedLevel": 2
      }
    },
    "wanderTactic": {
      "enable": true,
      "condition": {
        "pose": [101]
      },
      "defaultSetting": {
        "speedLevel": 1,
        "cdMin": 5.0,
        "cdMax": 7.0,
        "distanceFromBorn": 10.0,
        "distanceFromCurrentMin": 3.0,
        "distanceFromCurrentMax": 5.0
      }
    },
    "meleeChargeTactic": {
      "enable": true,
      "condition": {
        "pose": [201]
      },
      "defaultSetting": {
        "speedLevel": 2,
        "speedLevelInner": 1,
        "innerDistance": 12.0,
        "stopDistance": 10.0,
        "startDistanceMin": 20.0,
        "startDistanceMax": 50.0
      }
    },
    "facingMoveTactic": {
      "enable": true,
      "condition": {
        "pose": [201]
      },
      "defaultSetting": {
        "speedLevel": 1,
        "rangeMin": 2.0,
        "rangeMax": 15.0,
        "restTimeMin": 3.0,
        "restTimeMax": 6.0,
        "facingMoveTurnInterval": 3.0,
        "facingMoveWeight": {
          "stop": 1.0,
          "forward": 1.0,
          "back": 1.0,
          "left": 1.0,
          "right": 1.0
        }
      }
    },
    "skillGroupCDConfigs": [
      {
        "skillGroupCDID": 0,
        "skillGroupCDTime": 3.0
      }
    ],
    "skills": {
      //////////////////////////////////////////////////
      //	Alert
      //////////////////////////////////////////////////
      "101": {
        "name": "OnAlert",
        "stateIDs": ["Alert"],
        "skillType": "OnAlert",
        "skillQueryingTime": 3,
        "triggerGCD": false,
        "ignoreGCD": true,
        "faceTarget": true
      },
      "111": {
        "name": "Life_Guard",
        "stateIDs": ["Life_Guard"],
        "skillType": "Free",
        "cd": 15.0,
        "cdUpperRange": 25.0,
        "ignoreGCD": false,
        "initialCD": 15.0,
        "initialCDUpperRange": 25.0,
        "castCondition": {
          "pose": [101]
        }
      },
      "121": {
        "name": "Life_Box",
        "stateIDs": ["Life_Box"],
        "skillType": "Free",
        "cd": 15.0,
        "cdUpperRange": 25.0,
        "ignoreGCD": false,
        "initialCD": 15.0,
        "initialCDUpperRange": 25.0,
        "castCondition": {
          "pose": [101]
        }
      },
      "131": {
        "name": "Life_Sleepy",
        "stateIDs": ["Life_Sleepy"],
        "skillType": "Free",
        "cd": 15.0,
        "cdUpperRange": 25.0,
        "ignoreGCD": false,
        "initialCD": 10.0,
        "initialCDUpperRange": 25.0,
        "castCondition": {
          "pose": [9001]
        }
      },
      "141": {
        "name": "Life_LookUp",
        "stateIDs": ["Life_LookUp"],
        "skillType": "Free",
        "cd": 20.0,
        "cdUpperRange": 15.0,
        "ignoreGCD": false,
        "initialCD": 5.0,
        "initialCDUpperRange": 25.0,
        "castCondition": {
          "pose": [9001]
        }
      },
      //////////////////////////////////////////////////
      //	Combat Skill
      //////////////////////////////////////////////////
      "201": {
        "name": "NormalAtk01",
        "skillType": "Combat",
        "combatSkillType": "MeleeAttack",
        "cd": 5.0,
        "cdUpperRange": 5.0,
        "initialCD": 1.0,
        "initialCDUpperRange": 4.0,
        "skillQueryingTime": 3,
        "priority": 3,
        "stateIDs": ["NormalAtk01"],
        "flagTargetReachable": "10",
        "flagSelfInZone": "11",
        "castCondition": {
          "pickRangeMin": 0.0,
          "pickRangeMax": 5.5,
          "pickRangeYMax": 2.0,
          "castRangeMin": 0.0,
          "castRangeMax": 3.5,
          "pose": [201]
        }
      },
      "301": {
        "name": "NormalAtk02",
        "skillType": "Combat",
        "combatSkillType": "MeleeAttack",
        "cd": 12.5,
        "cdUpperRange": 5.0,
        "initialCD": 1.0,
        "initialCDUpperRange": 4.0,
        "skillQueryingTime": 3,
        "priority": 3,
        "stateIDs": ["NormalAtk02"],
        "flagTargetReachable": "10",
        "flagSelfInZone": "11",
        "castCondition": {
          "pickRangeMin": 0.0,
          "pickRangeMax": 7.5,
          "pickRangeYMax": 2.5,
          "castRangeMin": 0.0,
          "castRangeMax": 7.5,
          "pose": [201]
        }
      },
      "401": {
        "name": "Syuriken01",
        "skillType": "Combat",
        "combatSkillType": "MeleeAttack",
        "cd": 5.0,
        "cdUpperRange": 5.0,
        "initialCD": 5.0,
        "initialCDUpperRange": 4.0,
        "publicCDGroup": "Syuriken01",
        "skillQueryingTime": 3,
        "priority": 3,
        "stateIDs": ["Syuriken01"],
        "flagTargetReachable": "11",
        "flagSelfInZone": "11",
        "flagTargetInZone": "11",
        "castCondition": {
          "pickRangeMin": 0.0,
          "pickRangeMax": 4.0,
          "castRangeMin": 0.0,
          "castRangeMax": 4.0,
          "pose": [201]
        }
      },
      "402": {
        "name": "Syuriken01",
        "skillType": "Combat",
        "combatSkillType": "MeleeAttack",
        "cd": 7.5,
        "cdUpperRange": 5.0,
        "initialCD": 5.0,
        "initialCDUpperRange": 4.0,
        "publicCDGroup": "Syuriken01",
        "skillQueryingTime": 3,
        "priority": 3,
        "stateIDs": ["Syuriken01"],
        "flagTargetReachable": "11",
        "flagSelfInZone": "11",
        "flagTargetInZone": "11",
        "castCondition": {
          "pickRangeMin": 4.0,
          "pickRangeMax": 8.5,
          "castRangeMin": 4.0,
          "castRangeMax": 8.5,
          "pose": [201]
        }
      },
      "501": {
        "name": "Syuriken02",
        "skillType": "Combat",
        "combatSkillType": "MeleeAttack",
        "cd": 7.5,
        "cdUpperRange": 5.0,
        "initialCD": 10.0,
        "initialCDUpperRange": 4.0,
        "publicCDGroup": "Syuriken02",
        "skillQueryingTime": 3,
        "priority": 4,
        "stateIDs": ["Syuriken02"],
        "flagTargetReachable": "11",
        "flagSelfInZone": "11",
        "flagTargetInZone": "11",
        "castCondition": {
          "pickRangeMin": 5.5,
          "pickRangeMax": 7.5,
          "castRangeMin": 5.5,
          "castRangeMax": 7.5,
          "pose": [201]
        }
      },
      "502": {
        "name": "Syuriken02",
        "skillType": "Combat",
        "combatSkillType": "MeleeAttack",
        "cd": 3.0,
        "cdUpperRange": 5.0,
        "initialCD": 1.0,
        "initialCDUpperRange": 4.0,
        "publicCDGroup": "Syuriken02",
        "skillQueryingTime": 3,
        "priority": 2,
        "stateIDs": ["Syuriken02"],
        "flagTargetReachable": "11",
        "flagSelfInZone": "11",
        "flagTargetInZone": "11",
        "castCondition": {
          "pickRangeMin": 7.5,
          "pickRangeMax": 12.5,
          "castRangeMin": 7.5,
          "castRangeMax": 12.5,
          "pose": [201]
        }
      },
      "503": {
        "name": "Syuriken02",
        "skillType": "Combat",
        "combatSkillType": "MeleeAttack",
        "cd": 3.0,
        "cdUpperRange": 5.0,
        "initialCD": 1.0,
        "initialCDUpperRange": 4.0,
        "publicCDGroup": "Syuriken02",
        "skillQueryingTime": 3,
        "priority": 3,
        "stateIDs": ["Syuriken02"],
        "flagTargetReachable": "10",
        "flagSelfInZone": "11",
        "castCondition": {
          "pickRangeMin": 12.5,
          "pickRangeMax": 15.5,
          "castRangeMin": 12.5,
          "castRangeMax": 15.5,
          "pose": [201]
        }
      },
      "601": {
        "name": "SpecialAtk",
        "skillType": "Combat",
        "combatSkillType": "MeleeAttack",
        "cd": 3.5,
        "cdUpperRange": 5.0,
        "initialCD": 7.5,
        "initialCDUpperRange": 4.0,
        "skillQueryingTime": 3,
        "priority": 2,
        "stateIDs": ["SpecialAtk", "SpecialAtk_Drop"],
        "flagTargetReachable": "01",
        "flagSelfInZone": "11",
        "flagTargetInZone": "11",
        "skillGroupCDID": 0,
        "castCondition": {
          "pickRangeMin": 8.5,
          "pickRangeMax": 15.5,
          "castRangeMin": 8.5,
          "castRangeMax": 15.5,
          "pose": [201]
        }
      },
      "602": {
        "name": "SpecialAtk",
        "skillType": "Combat",
        "combatSkillType": "MeleeAttack",
        "cd": 3.5,
        "cdUpperRange": 5.0,
        "initialCD": 7.5,
        "initialCDUpperRange": 4.0,
        "skillQueryingTime": 3,
        "priority": 2,
        "stateIDs": ["SpecialAtk", "SpecialAtk_Drop"],
        "flagTargetReachable": "11",
        "flagSelfInZone": "11",
        "flagTargetInZone": "11",
        "skillGroupCDID": 0,
        "castCondition": {
          "pickRangeMin": 15.5,
          "pickRangeMax": 24.5,
          "castRangeMin": 15.5,
          "castRangeMax": 24.5,
          "pose": [201]
        }
      },
      // Temp
      "1001": {
        "name": "WalkF_Temp",
        "skillType": "Combat",
        "combatSkillType": "MeleeAttack",
        "cd": 1.5,
        "cdUpperRange": 5.0,
        "initialCD": 1.0,
        "initialCDUpperRange": 4.0,
        "skillQueryingTime": 3,
        "priority": 2,
        "stateIDs": ["WalkF_Temp"],
        "flagTargetReachable": "10",
        "flagSelfInZone": "11",
        "skillGroupCDID": 0,
        "castCondition": {
          "pickRangeMin": 0.0,
          "pickRangeMax": 7.5,
          "pickRangeYMax": 2.5,
          "castRangeMin": 0.0,
          "castRangeMax": 5.5,
          "pose": [901]
        }
      },
      "1002": {
        "name": "WalkB_Temp",
        "skillType": "Combat",
        "combatSkillType": "MeleeAttack",
        "cd": 1.5,
        "cdUpperRange": 5.0,
        "initialCD": 1.0,
        "initialCDUpperRange": 4.0,
        "skillQueryingTime": 3,
        "priority": 2,
        "stateIDs": ["WalkB_Temp"],
        "flagTargetReachable": "10",
        "flagSelfInZone": "11",
        "skillGroupCDID": 0,
        "castCondition": {
          "pickRangeMin": 0.0,
          "pickRangeMax": 7.5,
          "pickRangeYMax": 2.5,
          "castRangeMin": 0.0,
          "castRangeMax": 5.5,
          "pose": [901]
        }
      },
      "1003": {
        "name": "WalkL_Temp",
        "skillType": "Combat",
        "combatSkillType": "MeleeAttack",
        "cd": 1.5,
        "cdUpperRange": 5.0,
        "initialCD": 1.0,
        "initialCDUpperRange": 4.0,
        "skillQueryingTime": 3,
        "priority": 2,
        "stateIDs": ["WalkL_Temp"],
        "flagTargetReachable": "10",
        "flagSelfInZone": "11",
        "skillGroupCDID": 0,
        "castCondition": {
          "pickRangeMin": 0.0,
          "pickRangeMax": 7.5,
          "pickRangeYMax": 2.5,
          "castRangeMin": 0.0,
          "castRangeMax": 5.5,
          "pose": [901]
        }
      },
      "1004": {
        "name": "WalkR_Temp",
        "skillType": "Combat",
        "combatSkillType": "MeleeAttack",
        "cd": 1.5,
        "cdUpperRange": 5.0,
        "initialCD": 1.0,
        "initialCDUpperRange": 4.0,
        "skillQueryingTime": 3,
        "priority": 2,
        "stateIDs": ["WalkR_Temp"],
        "flagTargetReachable": "10",
        "flagSelfInZone": "11",
        "skillGroupCDID": 0,
        "castCondition": {
          "pickRangeMin": 0.0,
          "pickRangeMax": 7.5,
          "pickRangeYMax": 2.5,
          "castRangeMin": 0.0,
          "castRangeMax": 5.5,
          "pose": [901]
        }
      },
      "1005": {
        "name": "Run_Temp",
        "skillType": "Combat",
        "combatSkillType": "MeleeAttack",
        "cd": 1.5,
        "cdUpperRange": 5.0,
        "initialCD": 1.0,
        "initialCDUpperRange": 4.0,
        "skillQueryingTime": 3,
        "priority": 2,
        "stateIDs": ["Run_Temp"],
        "flagTargetReachable": "10",
        "flagSelfInZone": "11",
        "skillGroupCDID": 0,
        "castCondition": {
          "pickRangeMin": 0.0,
          "pickRangeMax": 7.5,
          "pickRangeYMax": 2.5,
          "castRangeMin": 0.0,
          "castRangeMax": 5.5,
          "pose": [901]
        }
      },
      "1006": {
        "name": "ReturnToBorn_Temp",
        "skillType": "Combat",
        "combatSkillType": "MeleeAttack",
        "cd": 1.5,
        "cdUpperRange": 5.0,
        "initialCD": 1.0,
        "initialCDUpperRange": 4.0,
        "skillQueryingTime": 3,
        "priority": 2,
        "stateIDs": ["ReturnToBorn_Temp"],
        "flagTargetReachable": "10",
        "flagSelfInZone": "11",
        "skillGroupCDID": 0,
        "castCondition": {
          "pickRangeMin": 0.0,
          "pickRangeMax": 7.5,
          "pickRangeYMax": 2.5,
          "castRangeMin": 0.0,
          "castRangeMax": 5.5,
          "pose": [901]
        }
      },
      "1007": {
        "name": "WalkFree_Temp",
        "skillType": "Combat",
        "combatSkillType": "MeleeAttack",
        "cd": 1.5,
        "cdUpperRange": 5.0,
        "initialCD": 1.0,
        "initialCDUpperRange": 4.0,
        "skillQueryingTime": 3,
        "priority": 2,
        "stateIDs": ["WalkFree_Temp"],
        "flagTargetReachable": "10",
        "flagSelfInZone": "11",
        "skillGroupCDID": 0,
        "castCondition": {
          "pickRangeMin": 0.0,
          "pickRangeMax": 7.5,
          "pickRangeYMax": 2.5,
          "castRangeMin": 0.0,
          "castRangeMax": 5.5,
          "pose": [901]
        }
      }
    }
  },
  "audio": {
    "$type": "ConfigMonsterAudio",
    "animAudio": {
      "onTransitionOut": [],
      "onTransitionIn": []
    },
    "disableEvent": {},
    "destroyEvent": {},
    "randomVariantSwitchGroup": {
      "text": ""
    },
    "randomVariantSwitchValues": [
      {
        "text": ""
      }
    ]
  }
}
