{
  "$type": "ConfigMonster",
  "common": {
    "mass": 10000.0,
    "affectedByWorld": true,
    "checkInSurface": true,
    "scale": 2.0,
    "viewSize": 1.0,
    "height": 3.5,
    "effectAttachShape": {
      "$type": "ConfigEffectAttachSkinnedMesh",
      "mesh": "EffectMesh"
    },
    "useGrassDisplacement": true,
    "clearAIOnSetLightDeactive": true,
    "reconnectSupport": true,
    "recoverByInitPose": true
  },
  "dither": {
    "showDitherDuration": 2.0
  },
  "move": {
    "$type": "ConfigAnimatorMove",
    "facingMove": "FourDirection",
    "monsterSizeType": "OtherType",
    "yawSpeedRatio": 2.0
  },
  "headControl": {
    "$type": "ConfigHeadControl",
    "useHeadControl": true,
    "animStates": [
      "NormalIdle/Standby",
      "NormalIdle/Born",
      "WalkForward",
      "WalkBack",
      "WalkLeft",
      "WalkRight",
      "Turn",
      "Attack_01"
    ],
    "maxYawDegree": 45,
    "maxPitchDegree": 10,
    "speed": 2.0
  },
  "model": {
    "bornEffect": "Eff_Monster_Common_Born"
  },
  "billboard": {
    "$type": "ConfigCombatBillboard",
    "offsetType": "Character",
    "offset": {
      "x": 0,
      "y": 0.1,
      "z": 0
    },
    "showHPBar": true,
    "showDistance": 48,
    "size": "Grand"
  },
  "combat": {
    "property": {
      "weight": 150, //weightLevel = 3
      "endureType": "Monster_Demiboss_Other"
    },
    "combatLock": {
      "denyLockOn": false,
      "lockType": "Avatar&Monster_Lv4"
    },
    "beHit": {
      "hitBloodEffect": "",
      "muteAllHit": false,
      "muteAllHitEffect": false,
      "muteAllHitText": false
    },
    "die": {
      "hasAnimatorDie": true,
      "dieDisappearEffect": "Eff_Death_Common",
      "dieDisappearEffectDelay": 0.0,
      "dieEndTime": 1.8,
      "dieForceDisappearTime": 1.8,
      "dieShaderData": "MonsterDie",
      "useRagDoll": true,
      "ragDollDieEndTimeDelay": 0,
      "muteHitBox": true,
      "dieDenyLockOn": true,
      "dieIsGhostToEnemy": true,
      "dieIgnoreTriggerBullet": true,
      "muteBillboard": true,
      "mutePushCollider": true
    },
    "animEvents": {
      "AtkNo": {
        "attackPattern": {
          "$type": "ConfigAttackCircle",
          "triggerType": "TriggerNoRepeat",
          "fanAngle": 60.0,
          "radius": 1.5,
          "born": {
            "$type": "ConfigBornBySelf",
            "offset": {
              "x": 0.0,
              "y": 0.0,
              "z": -0.5
            }
          }
        },
        "attackInfo": {
          "attackProperty": {
            "damagePercentage": 0.5,
            "strikeType": "Blunt",
            "attackType": "Melee"
          },
          "hitPattern": {
            "onHitEffectName": "default",
            "hitImpulseType": "LV2",
            "reboundRatio": 0,
            "hitHaltTime": 0.0,
            "hitHaltTimeScale": 0.01,
            "muteHitText": false
          }
        }
      },
      "SacredAttack01_Hit": {
        "attackPattern": {
          "$type": "ConfigAttackBox",
          "triggerType": "TriggerNoRepeat",
          "size": {
            "x": 4,
            "y": 4,
            "z": 9
          },
          "born": {
            "$type": "ConfigBornBySelf",
            "offset": {
              "x": 0.0,
              "y": 0.0,
              "z": -0.5
            }
          }
        },
        "attackInfo": {
          "attackProperty": {
            "damagePercentage": 0.7,
            "strikeType": "Blunt",
            "attackType": "Melee",
            "enBreak": 200,
            "elementType": "Wind"
          },
          "hitPattern": {
            "onHitEffectName": "default",
            "hitImpulseType": "LV5",
            "reboundRatio": 0,
            "hitHaltTime": 0.0,
            "hitHaltTimeScale": 0.01
          }
        }
      },
      "SacredAttack03_Hit1": {
        "attackPattern": {
          "$type": "ConfigAttackBox",
          "triggerType": "TriggerNoRepeat",
          "size": {
            "x": 3,
            "y": 6,
            "z": 6
          },
          "born": {
            "$type": "ConfigBornBySelf",
            "offset": {
              "x": 0.0,
              "y": 0.0,
              "z": 2.0
            }
          }
        },
        "attackInfo": {
          "attackProperty": {
            "damagePercentage": 0.5,
            "strikeType": "Blunt",
            "attackType": "Melee",
            "enBreak": 200,
            "elementType": "Wind"
          },
          "hitPattern": {
            "onHitEffectName": "default",
            "hitImpulseType": "LV4",
            "reboundRatio": 0,
            "hitHaltTime": 0.0,
            "hitHaltTimeScale": 0.01
          }
        }
      },
      "SacredAttack03_Hit2": {
        "attackPattern": {
          "$type": "ConfigAttackCircle",
          "triggerType": "TriggerNoRepeat",
          "fanAngle": 180.0,
          "radius": 5.0,
          "height": 4,
          "born": {
            "$type": "ConfigBornBySelf",
            "offset": {
              "x": 0.0,
              "y": 0.0,
              "z": 0.0
            }
          }
        },
        "attackInfo": {
          "attackProperty": {
            "damagePercentage": 0.7,
            "strikeType": "Blunt",
            "attackType": "Melee",
            "enBreak": 200,
            "elementType": "Wind"
          },
          "hitPattern": {
            "onHitEffectName": "default",
            "hitImpulseType": "LV4",
            "reboundRatio": 0,
            "hitHaltTime": 0.0,
            "hitHaltTimeScale": 0.01,
            "forceRetreat": true
          }
        }
      },
      "SacredAttack03_Hit3": {
        "attackPattern": {
          "$type": "ConfigAttackCircle",
          "triggerType": "TriggerNoRepeat",
          "fanAngle": 360.0,
          "radius": 5.0,
          "height": 4,
          "born": {
            "$type": "ConfigBornBySelf",
            "offset": {
              "x": -0.8,
              "y": 0.0,
              "z": 0.6
            }
          }
        },
        "attackInfo": {
          "attackProperty": {
            "damagePercentage": 0.9,
            "strikeType": "Blunt",
            "enBreak": 100.0,
            "elementDurability": 30,
            "elementType": "Wind"
          },
          "hitPattern": {
            "hitImpulseType": "LV5",
            "hitHaltTime": 0.0,
            "hitHaltTimeScale": 0.01,
            "muteHitText": false
          }
        }
      },
      "SacredAttack04": {
        "attackPattern": {
          "$type": "ConfigAttackCircle",
          "triggerType": "TriggerNoRepeat",
          "fanAngle": 360.0,
          "radius": 4.0,
          "height": 5,
          "born": {
            "$type": "ConfigBornBySelf",
            "offset": {
              "x": 0.0,
              "y": -1.0,
              "z": 0.0
            }
          }
        },
        "attackInfo": {
          "attackProperty": {
            "damagePercentage": 0.9,
            "strikeType": "Blunt",
            "attackType": "Melee",
            "enBreak": 200,
            "elementType": "Wind"
          },
          "hitPattern": {
            "onHitEffectName": "default",
            "hitImpulseType": "LV5",
            "reboundRatio": 0,
            "hitHaltTime": 0.0,
            "hitHaltTimeScale": 0.01
          }
        }
      },
      "SacredAttack06": {
        "attackPattern": {
          "$type": "ConfigAttackCircle",
          "triggerType": "TriggerNoRepeat",
          "fanAngle": 60.0,
          "radius": 6.0,
          "height": 3,
          "born": {
            "$type": "ConfigBornBySelf",
            "offset": {
              "x": 0.0,
              "y": 0.0,
              "z": 0.0
            }
          }
        },
        "attackInfo": {
          "attackProperty": {
            "damagePercentage": 0.7,
            "strikeType": "Blunt",
            "attackType": "Melee",
            "enBreak": 200
          },
          "hitPattern": {
            "onHitEffectName": "default",
            "hitImpulseType": "LV4",
            "reboundRatio": 0,
            "hitHaltTime": 0.0,
            "hitHaltTimeScale": 0.01
          }
        }
      }
    }
  },
  "stateLayers": {
    "defaultLayer": {
      "$type": "ConfigNormalStateLayer",
      "stateIDs": {
        "NormalIdle": {
          "$type": "ConfigMonsterStateIDInfo",
          "animatorStates": {
            "Standby": [],
            "Born": []
          },
          "combatMove": true,
          "canDoSkill": true,
          "canSyncMove": true,
          "resetAnimatorTriggerOnExit": ["DoSkill"]
        },
        "Run": {
          "$type": "ConfigMonsterStateIDInfo",
          "animatorStates": {
            "Run": [""]
          },
          "combatMove": true,
          "canDoSkill": true,
          "canSteer": true,
          "canSyncMove": true,
          "resetAnimatorTriggerOnExit": ["DoSkill"]
        },
        "WalkForward": {
          "$type": "ConfigMonsterStateIDInfo",
          "animatorStates": {
            "WalkForward": [""]
          },
          "combatMove": true,
          "canDoSkill": true,
          "canSteer": true,
          "canSyncMove": true,
          "resetAnimatorTriggerOnExit": ["DoSkill"]
        },
        "WalkBack": {
          "$type": "ConfigMonsterStateIDInfo",
          "animatorStates": {
            "WalkBack": [""]
          },
          "combatMove": true,
          "canDoSkill": true,
          "canSteer": true,
          "canSyncMove": true,
          "resetAnimatorTriggerOnExit": ["DoSkill"]
        },
        "WalkLeft": {
          "$type": "ConfigMonsterStateIDInfo",
          "animatorStates": {
            "WalkLeft": [""]
          },
          "combatMove": true,
          "canDoSkill": true,
          "canSteer": true,
          "canSyncMove": true,
          "resetAnimatorTriggerOnExit": ["DoSkill"]
        },
        "WalkRight": {
          "$type": "ConfigMonsterStateIDInfo",
          "animatorStates": {
            "WalkRight": [""]
          },
          "combatMove": true,
          "canDoSkill": true,
          "canSteer": true,
          "canSyncMove": true,
          "resetAnimatorTriggerOnExit": ["DoSkill"]
        },
        "Turn": {
          "$type": "ConfigMonsterStateIDInfo",
          "animatorStates": {
            "Turn": [""]
          },
          "combatMove": true,
          "canSteer": true,
          "canSyncMove": true,
          "resetAnimatorTriggerOnExit": ["DoSkill"]
        },
        "BeHit": {
          "$type": "ConfigMonsterStateIDInfo",
          "animatorStates": {
            "Hit_L": [""]
          },
          "combatMove": true,
          "resetAnimatorTriggerOnEnter": ["BeHit"],
          "resetAnimatorTriggerOnExit": ["DoSkill"]
        },
        "Weak_BS": {
          "$type": "ConfigMonsterStateIDInfo",
          "animatorStates": {
            "Weak_BS": ["Monster_Chrysopelea_Sacred_Wind_Weak_BS"]
          },
          "combatMove": true,
          "cullingModelAlwaysAnimate": true,
          "addEndure": 0.01,
          "resetAnimatorTriggerOnEnter": ["BeHit"],
          "resetAnimatorTriggerOnExit": ["DoSkill"]
        },
        "Weak_Loop": {
          "$type": "ConfigMonsterStateIDInfo",
          "animatorStates": {
            "Weak_Loop": [""]
          },
          "combatMove": true,
          "cullingModelAlwaysAnimate": true,
          "addEndure": 0.01,
          "resetAnimatorTriggerOnEnter": ["BeHit"],
          "resetAnimatorTriggerOnExit": ["DoSkill"]
        },
        "Weak_AS": {
          "$type": "ConfigMonsterStateIDInfo",
          "animatorStates": {
            "Weak_AS": ["Monster_Chrysopelea_Sacred_Wind_Weak_AS"]
          },
          "combatMove": true,
          "cullingModelAlwaysAnimate": true,
          "addEndure": 0.01,
          "resetAnimatorTriggerOnEnter": ["BeHit"],
          "resetAnimatorTriggerOnExit": ["DoSkill"]
        },
        "Die": {
          "$type": "ConfigMonsterStateIDInfo",
          "animatorStates": {
            "Die": [],
            "Lying_Die": []
          }
        },
        "Weak_Die": {
          "$type": "ConfigMonsterStateIDInfo",
          "animatorStates": {
            "Weak_Die": []
          }
        },
        "Personality1": {
          "$type": "ConfigMonsterStateIDInfo",
          "animatorStates": {
            "Personality1": [""]
          },
          "canDoSkill": true,
          "resetAnimatorTriggerOnExit": ["BeHit", "DoSkill"]
        },
        "Personality2": {
          "$type": "ConfigMonsterStateIDInfo",
          "animatorStates": {
            "Personality2": [""]
          },
          "canDoSkill": true,
          "resetAnimatorTriggerOnExit": ["BeHit", "DoSkill"]
        },
        "Alert": {
          "$type": "ConfigMonsterStateIDInfo",
          "animatorStates": {
            "Alert": []
          },
          "resetAnimatorTriggerOnExit": ["BeHit", "DoSkill"]
        },
        "Attack_01": {
          "$type": "ConfigMonsterStateIDInfo",
          "animatorStates": {
            "Attack_01": ["Monster_Chrysopelea_Sacred_Wind_Attack01"]
          },
          "combatMove": true,
          "canSyncMove": true,
          "canSteer": true,
          "addEndure": 0.01,
          "cullingModelAlwaysAnimate": true,
          "resetAnimatorTriggerOnExit": ["BeHit", "DoSkill"]
        },
        "Sacred_Attack01": {
          "$type": "ConfigMonsterStateIDInfo",
          "animatorStates": {
            "Sacred_Attack01": [
              "Monster_Chrysopelea_Sacred_Wind_SacredAttack01"
            ]
          },
          "combatMove": true,
          "canSyncMove": true,
          "canSteer": true,
          "addEndure": 0.01,
          "cullingModelAlwaysAnimate": true,
          "resetAnimatorTriggerOnExit": ["BeHit", "DoSkill"]
        },
        "Sacred_Attack02": {
          "$type": "ConfigMonsterStateIDInfo",
          "animatorStates": {
            "Sacred_Attack02": [
              "Monster_Chrysopelea_Sacred_Wind_SacredAttack02"
            ]
          },
          "combatMove": true,
          "canSyncMove": true,
          "canSteer": true,
          "addEndure": 0.01,
          "cullingModelAlwaysAnimate": true,
          "resetAnimatorTriggerOnExit": ["BeHit", "DoSkill"]
        },
        "Sacred_Attack03": {
          "$type": "ConfigMonsterStateIDInfo",
          "animatorStates": {
            "Sacred_Attack03": [
              "Monster_Chrysopelea_Sacred_Wind_SacredAttack03"
            ]
          },
          "combatMove": true,
          "canSyncMove": true,
          "canSteer": true,
          "addEndure": 0.01,
          "cullingModelAlwaysAnimate": true,
          "resetAnimatorTriggerOnExit": ["BeHit", "DoSkill"]
        },
        "Sacred_Attack04_BS": {
          "$type": "ConfigMonsterStateIDInfo",
          "animatorStates": {
            "Sacred_Attack04_BS": [
              "Monster_Chrysopelea_Sacred_Wind_SacredAttack04_BS"
            ]
          },
          "combatMove": true,
          "canSyncMove": true,
          "canSteer": true,
          "addEndure": 0.01,
          "cullingModelAlwaysAnimate": true,
          "resetAnimatorTriggerOnExit": ["BeHit", "DoSkill"]
        },
        "Sacred_Attack04_Loop": {
          "$type": "ConfigMonsterStateIDInfo",
          "animatorStates": {
            "Sacred_Attack04_Loop": [""]
          },
          "combatMove": true,
          "canSyncMove": true,
          "canSteer": true,
          "addEndure": 0.01,
          "cullingModelAlwaysAnimate": true,
          "resetAnimatorTriggerOnExit": ["BeHit", "DoSkill"]
        },
        "Sacred_Attack04_AS": {
          "$type": "ConfigMonsterStateIDInfo",
          "animatorStates": {
            "Sacred_Attack04_AS": [
              "Monster_Chrysopelea_Sacred_Wind_SacredAttack04_AS"
            ]
          },
          "combatMove": true,
          "canSyncMove": true,
          "canSteer": true,
          "addEndure": 0.01,
          "cullingModelAlwaysAnimate": true,
          "resetAnimatorTriggerOnExit": ["BeHit", "DoSkill"]
        },
        "Sacred_Attack05": {
          "$type": "ConfigMonsterStateIDInfo",
          "animatorStates": {
            "Sacred_Attack05": [
              "Monster_Chrysopelea_Sacred_Wind_SacredAttack05"
            ]
          },
          "combatMove": true,
          "canSyncMove": true,
          "canSteer": true,
          "addEndure": 0.01,
          "cullingModelAlwaysAnimate": true,
          "resetAnimatorTriggerOnExit": ["BeHit", "DoSkill"]
        },
        "Sacred_Attack06": {
          "$type": "ConfigMonsterStateIDInfo",
          "animatorStates": {
            "Sacred_Attack06": [
              "Monster_Chrysopelea_Sacred_Wind_SacredAttack06"
            ]
          },
          "followAnimRotation": true,
          "combatMove": true,
          "canSyncMove": true,
          "canSteer": true,
          "addEndure": 0.01,
          "cullingModelAlwaysAnimate": true,
          "resetAnimatorTriggerOnExit": ["BeHit", "DoSkill"]
        },
        "Sacred_Enhance": {
          "$type": "ConfigMonsterStateIDInfo",
          "animatorStates": {
            "Sacred_Enhance": ["Monster_Chrysopelea_Sacred_Wind_Enhance"]
          },
          "combatMove": true,
          "canSyncMove": true,
          "canSteer": true,
          "cullingModelAlwaysAnimate": true,
          "addEndure": 0.01,
          "resetAnimatorTriggerOnExit": ["BeHit", "DoSkill"]
        }
      }
    }
  },
  "abilities": [
    {
      "abilityName": "Monster_Chrysopelea_Sacred_SteerAttack"
    },
    {
      "abilityName": "Monster_Chrysopelea_Sacred_AnimalAttack01"
    },
    {
      "abilityName": "Monster_Chrysopelea_Sacred_Attack01_WindZoneCreate"
    },
    {
      "abilityName": "Monster_Chrysopelea_Sacred_Attack02_BulletHit1"
    },
    {
      "abilityName": "Monster_Chrysopelea_Sacred_Attack02_BulletHit2"
    },
    {
      "abilityName": "Monster_Chrysopelea_Sacred_Attack02_BulletHit3"
    },
    {
      "abilityName": "Monster_Chrysopelea_Sacred_Attack04_Collider"
    },
    {
      "abilityName": "Monster_Chrysopelea_Sacred_Attack04_Find"
    },
    {
      "abilityName": "Monster_Chrysopelea_Sacred_Attack04_Blink"
    },
    {
      "abilityName": "Monster_Chrysopelea_Sacred_Attack05_CreatBullet"
    },
    {
      "abilityName": "Monster_Chrysopelea_Sacred_SacredEnergy_Detect"
    },
    {
      "abilityName": "Monster_Chrysopelea_Sacred_SacredEnergy_Accum_Create"
    },
    {
      "abilityName": "Monster_Sacred_Entity_StateTag_ToNormal"
    },
    {
      "abilityName": "Monster_Sacred_Entity_StateTag_ToEnhance"
    },
    {
      "abilityName": "Monster_Sacred_Entity_StateTag_ToWeak"
    },
    {
      "abilityName": "Monster_Sacred_Entity_BodyMaterial_Effect"
    },
    {
      "abilityName": "Monster_Sacred_Entity_AlertnessTag"
    },
    {
      "abilityName": "Monster_Chrysopelea_Sacred_EnhanceDefence"
    }
  ],
  "initialPoses": {
    "Default": {
      "initialPoseID": 1
    }
  },
  "inputKeys": [
    {
      "keyID": 601,
      "inputKeyCode": 257
    },
    {
      "keyID": 611,
      "inputKeyCode": 258
    },
    {
      "keyID": 621,
      "inputKeyCode": 259
    },
    {
      "keyID": 631,
      "inputKeyCode": 260
    },
    {
      "keyID": 641,
      "inputKeyCode": 261
    },
    {
      "keyID": 651,
      "inputKeyCode": 262
    },
    {
      "keyID": 501,
      "inputKeyCode": 263
    },
    {
      "keyID": 511,
      "inputKeyCode": 264
    },
    {
      "keyID": 101,
      "inputKeyCode": 265
    }
  ],
  "aibeta": {
    "enable": true,
    "skillGCD": 2.0,
    "moveSetting": {
      "moveCategory": "Land"
    },
    "skillGroupCDConfigs": [
      {
        "skillGroupCDID": 2,
        "skillGroupCDTime": 20
      },
      {
        "skillGroupCDID": 3,
        "skillGroupCDTime": 2
      }
    ],
    "sensing": {
      "settings": {
        "DefaultSetting": {
          "viewRange": 40.0,
          "feelRange": 10.0
        }
      },
      "templates": {
        "DefaultTemplate": {
          "DefaultPoses": "DefaultSetting"
        }
      }
    },
    "defendArea": {
      "enable": true
    },
    "threat": {
      "clearThreatTargetDistance": 60.0,
      "clearThreatTimerByDistance": 2.0,
      "clearThreatEdgeDistance": 60.0,
      "clearThreatByLostPath": false,
      "clearThreatTimerByLostPath": 60,
      "clearThreatByTargetOutOfZone": true,
      "clearThreatTimerByTargetOutOfZone": 5,
      "viewAttenuation": [
        { "x": 10.0, "y": 2.0 },
        { "x": 20.0, "y": 1.0 },
        { "x": 30.0, "y": 0.5 },
        { "x": 50.0, "y": 0.1 }
      ]
    },
    "returnToBornTactic": {
      "enable": true,
      "defaultSetting": {
        "speedLevel": 1,
        "fadeoutBeginTime": 20.0,
        "fadeoutEndTime": 25.0
      }
    },
    "wanderTactic": {
      "enable": true,
      "condition": {
        "pose": [1]
      },
      "defaultSetting": {
        "speedLevel": 1,
        "cdMin": 8,
        "cdMax": 16,
        "distanceFromBorn": 20.0,
        "distanceFromCurrentMin": 6,
        "distanceFromCurrentMax": 10,
        "turnSpeedOverride": 0.3
      }
    },
    "meleeChargeTactic": {
      "enable": true,
      "condition": {
        "pose": [201, 202]
      },
      "defaultSetting": {
        "speedLevel": 1,
        "speedLevelInner": 1,
        "innerDistance": 10,
        "stopDistance": 9.9,
        "startDistanceMin": 16.0,
        "startDistanceMax": 50,
        "turnSpeedOverride": 1.0
      }
    },
    "facingMoveTactic": {
      "enable": true,
      "condition": {
        "pose": [201, 202]
      },
      "defaultSetting": {
        "speedLevel": 1,
        "rangeMin": 4.0,
        "rangeMax": 12.0,
        "facingMoveWeight": {
          "stop": 0.2,
          "forward": 0.2,
          "back": 0.2,
          "left": 1.0,
          "right": 1.0
        },
        "facingMoveTurnInterval": 2.0,
        "restTimeMax": 3.0,
        "restTimeMin": 4.0
      }
    },
    "network": {
      "syncSkill": true
    },
    "skills": {
      "101": {
        "name": "Sacred_Enhance",
        "stateIDs": ["Sacred_Enhance"],
        "combatSkillType": "RangedAttack",
        "flagSelfInZone": "11",
        "flagTargetReachable": "11",
        "flagSelfOnTemplateCollider": "11",
        "cd": 999999,
        "priority": 1,
        "triggerCDOnFail": false,
        "faceTarget": true,
        "triggerGCD": false,
        "ignoreGCD": true,
        "castCondition": {
          "pose": [201]
        }
      },
      "201": {
        "cd": 15.0,
        "cdUpperRange": 10.0,
        "initialCD": 2.5,
        "initialCDUpperRange": 5.0,
        "name": "Personality1",
        "stateIDs": ["Personality1"],
        "priority": 6,
        "skillGroupCDID": 2,
        "skillType": "Free",
        "castCondition": {
          "pose": [1]
        }
      },
      "211": {
        "cd": 20.0,
        "cdUpperRange": 10.0,
        "initialCD": 8.5,
        "initialCDUpperRange": 5.0,
        "name": "Personality2",
        "stateIDs": ["Personality2"],
        "priority": 6,
        "skillGroupCDID": 2,
        "skillType": "Free",
        "castCondition": {
          "pose": [1]
        }
      },
      "501": {
        "cd": 3.0,
        "cdUpperRange": 3.0,
        "combatSkillType": "RangedAttack",
        "name": "RangedAttack1",
        "stateIDs": ["Attack_01"],
        "flagSelfInZone": "11",
        "flagTargetReachable": "11",
        "flagSelfOnTemplateCollider": "11",
        "castCondition": {
          "pickRangeMin": 0,
          "pickRangeMax": 15,
          "maxTargetAngleXZ": 90,
          "pose": [201]
        }
      },
      "601": {
        "cd": 2.0,
        "cdUpperRange": 2.0,
        "initialCD": 2.5,
        "combatSkillType": "RangedAttack",
        "name": "Sacred_Attack01",
        "stateIDs": ["Sacred_Attack01"],
        "flagSelfInZone": "11",
        "flagTargetReachable": "11",
        "flagSelfOnTemplateCollider": "11",
        "castCondition": {
          "pickRangeMin": 0.0,
          "pickRangeMax": 6.0,
          "maxTargetAngleXZ": 90,
          "pose": [201, 202]
        }
      },
      "611": {
        "cd": 12.0,
        "cdUpperRange": 6.0,
        "initialCD": 5.5,
        "combatSkillType": "RangedAttack",
        "name": "Sacred_Attack02",
        "stateIDs": ["Sacred_Attack02"],
        "flagSelfInZone": "11",
        "flagTargetReachable": "11",
        "flagSelfOnTemplateCollider": "11",
        "castCondition": {
          "pickRangeMin": 5.0,
          "pickRangeMax": 35.0,
          "pose": [202]
        }
      },
      "621": {
        "cd": 4.0,
        "cdUpperRange": 3.0,
        "initialCD": 2.5,
        "combatSkillType": "RangedAttack",
        "name": "Sacred_Attack03",
        "stateIDs": ["Sacred_Attack03"],
        "flagSelfInZone": "11",
        "flagTargetReachable": "11",
        "flagSelfOnTemplateCollider": "11",
        "castCondition": {
          "pickRangeMin": 0.0,
          "pickRangeMax": 8.0,
          "pose": [202],
          "maxTargetAngleXZ": 90
        }
      },
      "631": {
        "cd": 6.0,
        "cdUpperRange": 6.0,
        "initialCD": 8.5,
        "combatSkillType": "RangedAttack",
        "name": "Sacred_Attack04",
        "stateIDs": [
          "Sacred_Attack04_BS",
          "Sacred_Attack04_Loop",
          "Sacred_Attack04_AS"
        ],
        "flagSelfInZone": "11",
        "flagTargetReachable": "11",
        "flagSelfOnTemplateCollider": "11",
        "castCondition": {
          "pickRangeMin": 7.0,
          "pickRangeMax": 35.0,
          "pose": [202]
        }
      },
      "641": {
        "cd": 30.0,
        "initialCD": 25,
        "priority": 2,
        "combatSkillType": "RangedAttack",
        "name": "Sacred_Attack05",
        "stateIDs": ["Sacred_Attack05"],
        "triggerCDOnFail": false,
        "flagSelfInZone": "11",
        "flagTargetReachable": "11",
        "flagSelfOnTemplateCollider": "11",
        "castCondition": {
          "pickRangeMin": 0.0,
          "pickRangeMax": 20.0,
          "pose": [202],
          "needReInitCD": true
        }
      },
      "651": {
        "cd": 3.0,
        "cdUpperRange": 2.0,
        "initialCD": 2.5,
        "triggerGCD": false,
        "combatSkillType": "RangedAttack",
        "name": "Sacred_Attack06",
        "stateIDs": ["Sacred_Attack06"],
        "flagSelfInZone": "11",
        "flagTargetReachable": "11",
        "flagSelfOnTemplateCollider": "11",
        "castCondition": {
          "pickRangeMin": 0.0,
          "pickRangeMax": 6.0,
          "pose": [201, 202],
          "minTargetAngleXZ": 60
        }
      },
      "661": {
        "name": "Sacred_Enhance",
        "stateIDs": ["Sacred_Enhance"],
        "combatSkillType": "RangedAttack",
        "flagSelfInZone": "11",
        "flagTargetReachable": "11",
        "flagSelfOnTemplateCollider": "11",
        "cd": 20,
        "priority": 1,
        "triggerGCD": false,
        "ignoreGCD": true,
        "castCondition": {
          "pose": [201],
          "globalValues": ["SacredEnergy_Recover_Chrysopelea"],
          "globalValuesLogicAnd": true,
          "globalValuesTargetType": "SELF"
        }
      }
    }
  }
}
