{
  "$type": "ConfigMonster",
  "headControl": {
    "$type": "ConfigHeadControl",
    "useHeadControl": true,
    "maxYawDegree": 10,
    "maxPitchDegree": 5,
    "animStates": ["NormalIdle/Standby", "NormalMove/Walk"]
  },
  "common": {
    "scale": 1.0,
    "viewSize": 2,
    "effectAttachShape": {
      "$type": "ConfigEffectAttachSkinnedMesh",
      "mesh": "EffectMesh"
    },
    "mass": 10000.0,
    "useGrassDisplacement": true,
    "affectedByWorld": true,
    "checkInSurface": true,
    "height": 3.0,
    "modelHeight": 3.0,
    "hasAfterImage": false,
    "clearAIOnSetLightDeactive": true,
    "recoverByInitPose": true,
    "reconnectSupport": true
  },
  "model": {
    "bornEffect": "Eff_Monster_Invoker_Born"
  },
  "dither": {
    "showDitherDuration": 2.0
  },
  "move": {
    "$type": "ConfigAnimatorMove",
    "monsterSizeType": "StoopType",
    "moveOnWater": true,
    "positionModifyState": "Walk",
    "velocityForce": {
      "excludeForces": ["RetreatAirType"]
    }
  },
  "billboard": {
    "$type": "ConfigCombatBillboard",
    "offsetType": "Character",
    "offset": {
      "x": -0.5,
      "y": 0,
      "z": 0
    },
    "radiusOffset": 0,
    "showHPBar": true,
    "size": "Big",
    "showDistance": 36.0
  },
  "combat": {
    "property": {
      "endureType": "Monster_Demiboss_Humanoid",
      "weight": 150 //weightLevel = 3
    },
    "combatLock": {
      "denyLockOn": false,
      "lockType": "Avatar&Monster_Lv4"
    },
    "beHit": {
      "hitBloodEffect": "",
      "muteAllHit": false,
      "muteAllHitEffect": false,
      "muteAllHitText": false
    },
    "die": {
      "hasAnimatorDie": true,
      "dieDisappearEffect": "Eff_Death_Avatar_Common",
      "dieDisappearEffectDelay": 0,
      "dieEndTime": 2.5,
      "dieForceDisappearTime": 5,
      "dieShaderData": "AvatarDie",
      "useRagDoll": false
    },
    ////
    //      d88888b db    db d88888b d8b   db d888888b
    //      88'     88    88 88'     888o  88 `~~88~~'
    //      88ooooo Y8    8P 88ooooo 88V8o 88    88
    //      88~~~~~ `8b  d8' 88~~~~~ 88 V8o88    88
    //      88.      `8bd8'  88.     88  V888    88
    //      Y88888P    YP    Y88888P VP   V8P    YP
    "animEvents": {
      // 转阶段时触发的攻击
      "AE_ImproveAttack": {
        "attackPattern": {
          "$type": "ConfigAttackCircle",
          "triggerType": "TriggerNoRepeat",
          "height": 4.0,
          "radius": 10.0,
          "born": {
            "$type": "ConfigBornBySelf",
            "offset": {
              "y": -1.0
            }
          }
        },
        "attackInfo": {
          "attackProperty": {
            "damagePercentage": 2.0,
            "elementType": "Ice",
            "elementDurability": 100,
            "enBreak": 200
          },
          "hitPattern": {
            "hitImpulseType": "LV5"
          }
        }
      },
      // //
      // d8888b. db    db .d8888. db   db
      // 88  `8D 88    88 88'  YP 88   88
      // 88oobY' 88    88 `8bo.   88ooo88
      // 88`8b   88    88   `Y8b. 88~~~88
      // 88 `88. 88b  d88 db   8D 88   88
      // 88   YD ~Y8888P' `8888Y' YP   YP
      //
      // 突进攻击 一段
      "AE_RushAttack_01": {
        "attackPattern": {
          "$type": "ConfigAttackCircle",
          "triggerType": "TriggerNoRepeat",
          "height": 2,
          "fanAngle": 300.0,
          "radius": 3.5,
          "born": {
            "$type": "ConfigBornBySelf",
            "offset": {
              "x": 0,
              "y": 0,
              "z": 0.7
            }
          }
        },
        "attackInfo": {
          "attackProperty": {
            "damagePercentage": 0.7,
            "strikeType": "Slash",
            "elementType": "Ice",
            "elementDurability": 25,
            "enBreak": 75
          },
          "hitPattern": {
            "hitImpulseType": "LV3"
          }
        }
      },
      // 突进攻击 附魔一段
      "AE_RushAttack_01_Enchant": {
        "attackPattern": {
          "$type": "ConfigAttackCircle",
          "triggerType": "TriggerNoRepeat",
          "height": 2,
          "fanAngle": 300.0,
          "radius": 3.5,
          "born": {
            "$type": "ConfigBornBySelf",
            "offset": {
              "x": 0,
              "y": 0,
              "z": 0.7
            }
          }
        },
        "attackInfo": {
          "attackProperty": {
            "damagePercentage": 0.7,
            "strikeType": "Slash",
            "elementType": "Ice",
            "elementDurability": 25,
            "enBreak": 75
          },
          "attackTag": "EnchantIceBlade",
          "hitPattern": {
            "hitImpulseType": "LV3"
          }
        }
      },
      //  ——————————————————————————
      // 突进攻击 二段
      //
      "AE_RushAttack_Improved_01": {
        "attackPattern": {
          "$type": "ConfigAttackCircle",
          "triggerType": "TriggerNoRepeat",
          "height": 2,
          "radius": 2.8,
          "born": {
            "$type": "ConfigBornBySelf",
            "offset": {
              "x": 0,
              "y": 0,
              "z": 2.25
            }
          }
        },
        "attackInfo": {
          "attackProperty": {
            "damagePercentage": 0.86,
            "strikeType": "Default",
            "elementType": "Ice",
            "elementDurability": 25,
            "enBreak": 150
          },
          "hitPattern": {
            "hitImpulseType": "LV5",
            "retreatType": "ByAttackerForward"
          },
          "forceCameraShake": true,
          "cameraShake": {
            "shakeType": "CustomVector",
            "shakeDir": {
              "x": 0,
              "y": 1,
              "z": 0
            },
            "shakeDistance": 10,
            "shakeRange": 0.4,
            "shakeTime": 0.07
          }
        }
      },
      // 突进攻击 附魔
      "AE_RushAttack_Improved_01_Enchant": {
        "attackPattern": {
          "$type": "ConfigAttackCircle",
          "triggerType": "TriggerNoRepeat",
          "height": 2,
          "radius": 2.8,
          "born": {
            "$type": "ConfigBornBySelf",
            "offset": {
              "x": 0,
              "y": 0,
              "z": 2.25
            }
          }
        },
        "attackInfo": {
          "attackProperty": {
            "damagePercentage": 0.86,
            "strikeType": "Default",
            "elementType": "Ice",
            "elementDurability": 25,
            "enBreak": 150
          },
          "attackTag": "EnchantIceBlade",
          "hitPattern": {
            "hitImpulseType": "LV5",
            "retreatType": "ByAttackerForward"
          },
          "forceCameraShake": true,
          "cameraShake": {
            "shakeType": "CustomVector",
            "shakeDir": {
              "x": 0,
              "y": 1,
              "z": 0
            },
            "shakeDistance": 10,
            "shakeRange": 0.4,
            "shakeTime": 0.07
          }
        }
      },
      // //
      //    .o88b.  .d88b.  .88b  d88. d8888b.  .d88b.
      //   d8P  Y8 .8P  Y8. 88'YbdP`88 88  `8D .8P  Y8.
      //   8P      88    88 88  88  88 88oooY' 88    88
      //   8b      88    88 88  88  88 88~~~b. 88    88
      //   Y8b  d8 `8b  d8' 88  88  88 88   8D `8b  d8'
      //    `Y88P'  `Y88P'  YP  YP  YP Y8888P'  `Y88P'
      // 连击
      "AE_ComboAttack_01": {
        "attackPattern": {
          "$type": "ConfigAttackBox",
          "triggerType": "TriggerNoRepeat",
          "size": {
            "x": 3,
            "y": 2.5,
            "z": 5.6
          },
          "born": {
            "$type": "ConfigBornBySelf",
            "offset": {
              "x": 0,
              "y": 1.5,
              "z": -0.3
            }
          }
        },
        "attackInfo": {
          "attackProperty": {
            "damagePercentage": 0.66,
            "strikeType": "Pierce",
            "elementType": "Ice",
            "elementDurability": 25,
            "enBreak": 75
          },
          "hitPattern": {
            "hitImpulseType": "LV3"
          },
          "forceCameraShake": false,
          "cameraShake": {
            "shakeType": "HitVector",
            "shakeRange": 0.27,
            "shakeTime": 0.07
          }
        }
      },
      "AE_ComboAttack_01_Enchant": {
        "attackPattern": {
          "$type": "ConfigAttackBox",
          "triggerType": "TriggerNoRepeat",
          "size": {
            "x": 3,
            "y": 2.5,
            "z": 5.6
          },
          "born": {
            "$type": "ConfigBornBySelf",
            "offset": {
              "x": 0,
              "y": 1.5,
              "z": -0.3
            }
          }
        },
        "attackInfo": {
          "attackProperty": {
            "damagePercentage": 0.66,
            "strikeType": "Pierce",
            "elementType": "Ice",
            "elementDurability": 25,
            "enBreak": 75
          },
          "attackTag": "EnchantIceBlade",
          "hitPattern": {
            "hitImpulseType": "LV3"
          },
          "forceCameraShake": false,
          "cameraShake": {
            "shakeType": "HitVector",
            "shakeRange": 0.27,
            "shakeTime": 0.07
          }
        }
      },
      "AE_ComboAttack_02": {
        "attackPattern": {
          "$type": "ConfigAttackCircle",
          "triggerType": "TriggerNoRepeat",
          "height": 2,
          "fanAngle": 210.0,
          "radius": 4.1,
          "born": {
            "$type": "ConfigBornBySelf",
            "offset": {
              "x": 0,
              "y": 0,
              "z": 0
            }
          }
        },
        "attackInfo": {
          "attackProperty": {
            "damagePercentage": 0.55,
            "strikeType": "Slash",
            "elementType": "Ice",
            "elementDurability": 25,
            "enBreak": 75
          },
          "hitPattern": {
            "hitImpulseType": "LV3"
          }
        }
      },
      "AE_ComboAttack_02_Enchant": {
        "attackPattern": {
          "$type": "ConfigAttackCircle",
          "triggerType": "TriggerNoRepeat",
          "height": 2,
          "fanAngle": 210.0,
          "radius": 4.1,
          "born": {
            "$type": "ConfigBornBySelf",
            "offset": {
              "x": 0,
              "y": 0,
              "z": 0
            }
          }
        },
        "attackInfo": {
          "attackProperty": {
            "damagePercentage": 0.55,
            "strikeType": "Slash",
            "elementType": "Ice",
            "elementDurability": 25,
            "enBreak": 75
          },
          "attackTag": "EnchantIceBlade",
          "hitPattern": {
            "hitImpulseType": "LV3"
          }
        }
      },
      "AE_ComboAttack_03": {
        "attackPattern": {
          "$type": "ConfigAttackCircle",
          "triggerType": "TriggerNoRepeat",
          "height": 2,
          "fanAngle": 210.0,
          "radius": 4.2,
          "born": {
            "$type": "ConfigBornBySelf",
            "offset": {
              "x": 0,
              "y": 0,
              "z": -0.3
            }
          }
        },
        "attackInfo": {
          "attackProperty": {
            "damagePercentage": 0.55,
            "strikeType": "Slash",
            "elementType": "Ice",
            "elementDurability": 25,
            "enBreak": 150
          },
          "hitPattern": {
            "hitImpulseType": "LV3"
          }
        }
      },
      "AE_ComboAttack_03_Enchant": {
        "attackPattern": {
          "$type": "ConfigAttackCircle",
          "triggerType": "TriggerNoRepeat",
          "height": 2,
          "fanAngle": 210.0,
          "radius": 4.2,
          "born": {
            "$type": "ConfigBornBySelf",
            "offset": {
              "x": 0,
              "y": 0,
              "z": -0.3
            }
          }
        },
        "attackInfo": {
          "attackProperty": {
            "damagePercentage": 0.55,
            "strikeType": "Slash",
            "elementType": "Ice",
            "elementDurability": 25,
            "enBreak": 150
          },
          "attackTag": "EnchantIceBlade",
          "hitPattern": {
            "hitImpulseType": "LV3"
          }
        }
      },
      "AE_ComboAttack_04": {
        "attackPattern": {
          "$type": "ConfigAttackBox",
          "triggerType": "TriggerNoRepeat",
          "size": {
            "x": 4,
            "y": 5.4,
            "z": 5.7
          },
          "born": {
            "$type": "ConfigBornBySelf",
            "offset": {
              "x": 0,
              "y": 2.1,
              "z": -2.45
            }
          }
        },
        "attackInfo": {
          "attackProperty": {
            "damagePercentage": 0.75,
            "strikeType": "Slash",
            "elementType": "Ice",
            "elementDurability": 25,
            "enBreak": 200
          },
          "hitPattern": {
            "overrideHitImpulse": {
              "hitLevel": "Air",
              "hitImpulseY": 500,
              "hitImpulseX": 300
            }
          },
          "cameraShake": {
            "shakeDir": {
              "x": 0,
              "y": 1,
              "z": 0
            },
            "shakeType": "CustomVector",
            "shakeRange": 0.6,
            "shakeTime": 0.09
          }
        }
      },
      "AE_ComboAttack_04_Enchant": {
        "attackPattern": {
          "$type": "ConfigAttackBox",
          "triggerType": "TriggerNoRepeat",
          "size": {
            "x": 4,
            "y": 5.4,
            "z": 5.7
          },
          "born": {
            "$type": "ConfigBornBySelf",
            "offset": {
              "x": 0,
              "y": 2.1,
              "z": -2.45
            }
          }
        },
        "attackInfo": {
          "attackProperty": {
            "damagePercentage": 0.75,
            "strikeType": "Slash",
            "elementType": "Ice",
            "elementDurability": 25,
            "enBreak": 200
          },
          "attackTag": "EnchantIceBlade",
          "hitPattern": {
            "overrideHitImpulse": {
              "hitLevel": "Air",
              "hitImpulseY": 500,
              "hitImpulseX": 300
            }
          },
          "cameraShake": {
            "shakeDir": {
              "x": 0,
              "y": 1,
              "z": 0
            },
            "shakeType": "CustomVector",
            "shakeRange": 0.6,
            "shakeTime": 0.09
          }
        }
      },
      // //
      // d8888b. d8888b. d88888b  .d8b.  db   dD d888888b d8b   db  d888b
      // 88  `8D 88  `8D 88'     d8' `8b 88 ,8P'   `88'   888o  88 88' Y8b
      // 88oooY' 88oobY' 88ooooo 88ooo88 88,8P      88    88V8o 88 88
      // 88~~~b. 88`8b   88~~~~~ 88~~~88 88`8b      88    88 V8o88 88  ooo
      // 88   8D 88 `88. 88.     88   88 88 `88.   .88.   88  V888 88. ~8~
      // Y8888P' 88   YD Y88888P YP   YP YP   YD Y888888P VP   V8P  Y888P
      "AE_BreakingSlash": {
        "attackPattern": {
          "$type": "ConfigAttackCircle",
          "triggerType": "TriggerNoRepeat",
          "height": 4.0,
          "radius": 6.1,
          "born": {
            "$type": "ConfigBornBySelf",
            "offset": {
              "y": -1.0,
              "z": 0.25
            }
          }
        },
        "attackInfo": {
          "attackProperty": {
            "damagePercentage": 0.9,
            "elementType": "Ice",
            "elementDurability": 50,
            "enBreak": 210
          },
          "hitPattern": {
            "hitImpulseType": "LV6",
            "hitHaltTime": 0.1,
            "hitHaltTimeScale": 0.075
          },
          "forceCameraShake": false,
          "cameraShake": {
            "shakeType": "CustomVector",
            "shakeDir": {
              "x": 0,
              "y": 0,
              "z": 1
            },
            "shakeRange": 2.1,
            "shakeTime": 0.15
          }
        }
      },
      "AE_BreakingSlash_Enchant": {
        "attackPattern": {
          "$type": "ConfigAttackCircle",
          "triggerType": "TriggerNoRepeat",
          "height": 4.0,
          "radius": 6.1,
          "born": {
            "$type": "ConfigBornBySelf",
            "offset": {
              "y": -1.0,
              "z": 0.25
            }
          }
        },
        "attackInfo": {
          "attackProperty": {
            "damagePercentage": 0.9,
            "elementType": "Ice",
            "elementDurability": 50,
            "enBreak": 210
          },
          "attackTag": "EnchantIceBlade",
          "hitPattern": {
            "hitImpulseType": "LV6",
            "hitHaltTime": 0.1,
            "hitHaltTimeScale": 0.075
          },
          "forceCameraShake": false,
          "cameraShake": {
            "shakeType": "CustomVector",
            "shakeDir": {
              "x": 0,
              "y": 0,
              "z": 1
            },
            "shakeRange": 2.1,
            "shakeTime": 0.15
          }
        }
      },
      "AE_BreakingSlash_Improved": {
        "attackPattern": {
          "$type": "ConfigAttackCircle",
          "triggerType": "TriggerNoRepeat",
          "height": 4.0,
          "radius": 7.4,
          "born": {
            "$type": "ConfigBornBySelf",
            "offset": {
              "y": -1.0,
              "z": 0.25
            }
          }
        },
        "attackInfo": {
          "attackProperty": {
            "damagePercentage": 1.0,
            "elementType": "Ice",
            "elementDurability": 50,
            "enBreak": 210
          },
          "hitPattern": {
            "hitImpulseType": "LV6",
            "hitHaltTime": 0.18,
            "hitHaltTimeScale": 0.1
          },
          "forceCameraShake": false,
          "cameraShake": {
            "shakeType": "CustomVector",
            "shakeDir": {
              "x": 0,
              "y": 0,
              "z": 1
            },
            "shakeRange": 2.5,
            "shakeTime": 0.19
          }
        }
      },
      "AE_BreakingSlash_Improved_Enchant": {
        "attackPattern": {
          "$type": "ConfigAttackCircle",
          "triggerType": "TriggerNoRepeat",
          "height": 4.0,
          "radius": 7.4,
          "born": {
            "$type": "ConfigBornBySelf",
            "offset": {
              "y": -1.0,
              "z": 0.25
            }
          }
        },
        "attackInfo": {
          "attackProperty": {
            "damagePercentage": 1.0,
            "elementType": "Ice",
            "elementDurability": 50,
            "enBreak": 210
          },
          "attackTag": "EnchantIceBlade",
          "hitPattern": {
            "hitImpulseType": "LV6",
            "hitHaltTime": 0.18,
            "hitHaltTimeScale": 0.1
          },
          "forceCameraShake": false,
          "cameraShake": {
            "shakeType": "CustomVector",
            "shakeDir": {
              "x": 0,
              "y": 0,
              "z": 1
            },
            "shakeRange": 2.5,
            "shakeTime": 0.19
          }
        }
      }
    }
  },
  "stateLayers": {
    "defaultLayer": {
      "$type": "ConfigNormalStateLayer",
      "stateIDs": {
        "Born": {
          "$type": "ConfigMonsterStateIDInfo",
          "animatorStates": {
            "Born": []
          },
          "resetAnimatorTriggerOnExit": ["DoSkill"]
        },
        "NormalIdle": {
          "$type": "ConfigMonsterStateIDInfo",
          "animatorStates": {
            "Standby": []
          },
          "canDoSkill": true,
          "canSyncMove": true,
          "resetAnimatorTriggerOnEnter": ["DoSkill"]
        },
        "NormalMove": {
          "$type": "ConfigMonsterStateIDInfo",
          "animatorStates": {
            "Walk": []
          },
          "canDoSkill": true,
          "canSteer": true,
          "canSyncMove": true,
          "resetAnimatorTriggerOnEnter": ["DoSkill"]
        },
        "BeHit": {
          "$type": "ConfigMonsterStateIDInfo",
          "animatorStates": {
            "Hit_L": [],
            "Hit_H": []
          },
          "resetAnimatorTriggerOnEnter": ["BeHit"],
          "resetAnimatorTriggerOnExit": ["DoSkill"]
        },
        "Die": {
          "$type": "ConfigMonsterStateIDInfo",
          "animatorStates": {
            "Die": []
          }
        },
        "Disappear": {
          "$type": "ConfigMonsterStateIDInfo",
          "animatorStates": {
            "Disappear": []
          }
        },
        "Alert": {
          "$type": "ConfigMonsterStateIDInfo",
          "animatorStates": {
            "Alert": ["Monster_Invoker_Herald_Ice_Alert"]
          },
          "resetAnimatorTriggerOnExit": ["BeHit", "DoSkill"]
        },
        // //
        // d8888b. db    db .d8888. db   db       .d8b.  d888888b d888888b  .d8b.   .o88b. db   dD
        // 88  `8D 88    88 88'  YP 88   88      d8' `8b `~~88~~' `~~88~~' d8' `8b d8P  Y8 88 ,8P'
        // 88oobY' 88    88 `8bo.   88ooo88      88ooo88    88       88    88ooo88 8P      88,8P
        // 88`8b   88    88   `Y8b. 88~~~88      88~~~88    88       88    88~~~88 8b      88`8b
        // 88 `88. 88b  d88 db   8D 88   88      88   88    88       88    88   88 Y8b  d8 88 `88.
        // 88   YD ~Y8888P' `8888Y' YP   YP      YP   YP    YP       YP    YP   YP  `Y88P' YP   YD
        //
        // 突进攻击 前摇走路
        "RushAttack_BS_1": {
          "$type": "ConfigMonsterStateIDInfo",
          "animatorStates": {
            "RushAttack_BS_1": [
              "Monster_Invoker_Herald_Ice_RushAttack_BS_Enchant_Try",
              "Monster_Invoker_Herald_Ice_RushAttack_Blade"
            ]
          },
          "resetAnimatorTriggerOnEnter": ["RushAttackTrigger"]
        },
        "RushAttack_BS_2": {
          "$type": "ConfigMonsterStateIDInfo",
          "animatorStates": {
            "RushAttack_BS_2": [
              "Monster_Invoker_Herald_Ice_RushAttack_BS",
              "Monster_Invoker_Herald_Ice_RushAttack_Distance_Calc"
            ]
          }
        },
        // 突进攻击 一段攻击
        "RushAttack": {
          "$type": "ConfigMonsterStateIDInfo",
          "animatorStates": {
            "RushAttack": ["Monster_Invoker_Herald_Ice_RushAttack_Attack"]
          }
        },
        // 突进攻击 一段攻击的后摇
        "RushAttack_AS": {
          "$type": "ConfigMonsterStateIDInfo",
          "animatorStates": {
            "RushAttack_AS": []
          },
          "resetAnimatorTriggerOnExit": ["BeHit", "DoSkill"]
        },
        // 突进攻击 二段攻击
        "RushAttack_Improved": {
          "$type": "ConfigMonsterStateIDInfo",
          "animatorStates": {
            "RushAttack_Improved": [
              "Monster_Invoker_Herald_Ice_RushAttack_Improved_Rush", // RushMove
              "Monster_Invoker_Herald_Ice_RushAttack_Improved_Jump" // jump特效
            ]
          },
          "resetAnimatorTriggerOnExit": ["BeHit", "DoSkill"]
        },
        // 突进攻击 二段攻击
        "RushAttack_Improved_AS": {
          "$type": "ConfigMonsterStateIDInfo",
          "animatorStates": {
            "RushAttack_Improved_AS": [
              "Monster_Invoker_Herald_Ice_RushAttack_Improved_Attack"
            ]
          },
          "resetAnimatorTriggerOnExit": ["BeHit", "DoSkill"]
        },

        // //
        // d888888b .88b  d88. d8888b. d8888b.  .d88b.  db    db d88888b
        //   `88'   88'YbdP`88 88  `8D 88  `8D .8P  Y8. 88    88 88'
        //    88    88  88  88 88oodD' 88oobY' 88    88 Y8    8P 88ooooo
        //    88    88  88  88 88~~~   88`8b   88    88 `8b  d8' 88~~~~~
        //   .88.   88  88  88 88      88 `88. `8b  d8'  `8bd8'  88.
        // Y888888P YP  YP  YP 88      88   YD  `Y88P'     YP    Y88888P
        //
        // 转阶段
        "Improved": {
          "$type": "ConfigMonsterStateIDInfo",
          "animatorStates": {
            "Improved_BS": ["Monster_Invoker_Herald_Ice_Improve_Attack_BS"],
            "Improved": ["Monster_Invoker_Herald_Ice_Improve_Attack"],
            "Improved_AS": []
          },
          "addEndure": 0,
          "resetAnimatorTriggerOnExit": ["BeHit", "DoSkill"]
        },

        ////
        //       .o88b.  .d88b.  .88b  d88. d8888b.  .d88b.
        //      d8P  Y8 .8P  Y8. 88'YbdP`88 88  `8D .8P  Y8.
        //      8P      88    88 88  88  88 88oooY' 88    88
        //      8b      88    88 88  88  88 88~~~b. 88    88
        //      Y8b  d8 `8b  d8' 88  88  88 88   8D `8b  d8'
        //       `Y88P'  `Y88P'  YP  YP  YP Y8888P'  `Y88P'
        // 冰刃连斩
        //
        // 连击 BS
        "ComboAttack_BS": {
          "$type": "ConfigMonsterStateIDInfo",
          "animatorStates": {
            "ComboAttack_BS_1": [
              // 因为时间点允许，所以这个Event复用了  (第0帧)
              "Monster_Invoker_Herald_Ice_RushAttack_BS_Enchant_Try",
              // 凝结冰刃的前摇特效
              "Monster_Invoker_Herald_Ice_ComboAttack_Blade"
            ],
            "ComboAttack_BS_2": [
              // 算距离
              "Monster_Invoker_Herald_Ice_ComboAttack_Distance_Calc"
            ]
          },
          "addEndure": 0
        },
        // 一段攻击  (包含 1->2 )    (有Steer)
        "ComboAttack_01": {
          "$type": "ConfigMonsterStateIDInfo",
          "animatorStates": {
            "ComboAttack_01": [
              "Monster_Invoker_Herald_Ice_ComboAttack_01_Attack",
              "Monster_Invoker_Herald_Ice_ComboAttack_01_Rush"
            ],
            "ComboAttack_01_To_02": []
          }
        },
        // BS to 02  (有Steer)
        "ComboAttack_BS_To_02": {
          "$type": "ConfigMonsterStateIDInfo",
          "animatorStates": {
            "ComboAttack_BS_To_02": []
          }
        },
        // 二段攻击   (无Steer)
        "ComboAttack_02": {
          "$type": "ConfigMonsterStateIDInfo",
          "animatorStates": {
            "ComboAttack_02": [
              "Monster_Invoker_Herald_Ice_ComboAttack_02_Attack",
              // 计算距离
              "Monster_Invoker_Herald_Ice_ComboAttack_02_Distance_Calc"
            ]
          }
        },
        // 三段攻击    (有Steer)
        "ComboAttack_03": {
          "$type": "ConfigMonsterStateIDInfo",
          "animatorStates": {
            "ComboAttack_03": [
              "Monster_Invoker_Herald_Ice_ComboAttack_03_Attack"
            ],
            "ComboAttack_03_AS": []
          }
        },
        // 四段攻击
        "ComboAttack_02_To_04": {
          "$type": "ConfigMonsterStateIDInfo",
          "animatorStates": {
            "ComboAttack_02_To_04": [
              "Monster_Invoker_Herald_Ice_ComboAttack_04_Rush"
            ]
          }
        },
        "ComboAttack_04": {
          "$type": "ConfigMonsterStateIDInfo",
          "animatorStates": {
            "ComboAttack_04": [
              "Monster_Invoker_Herald_Ice_ComboAttack_04_Rush",
              "Monster_Invoker_Herald_Ice_ComboAttack_04_Attack"
            ],
            "ComboAttack_04_AS": []
          },
          "resetAnimatorTriggerOnExit": ["BeHit", "DoSkill"]
        },
        ////
        //       .o88b.  .d88b.  d8b   db d88888b  .d88b.  d88888b  .o88b.  .d88b.  db      d8888b.
        //      d8P  Y8 .8P  Y8. 888o  88 88'     .8P  Y8. 88'     d8P  Y8 .8P  Y8. 88      88  `8D
        //      8P      88    88 88V8o 88 88ooooo 88    88 88ooo   8P      88    88 88      88   88
        //      8b      88    88 88 V8o88 88~~~~~ 88    88 88~~~   8b      88    88 88      88   88
        //      Y8b  d8 `8b  d8' 88  V888 88.     `8b  d8' 88      Y8b  d8 `8b  d8' 88booo. 88  .8D
        //       `Y88P'  `Y88P'  VP   V8P Y88888P  `Y88P'  YP       `Y88P'  `Y88P'  Y88888P Y8888D'
        "ConeOfCold": {
          "$type": "ConfigMonsterStateIDInfo",
          "animatorStates": {
            "ConeOfCold_BS": ["Monster_Invoker_Herald_Ice_ConeOfCold_BS"],
            "ConeOfCold": []
          }
        },
        "ConeOfCold_AS": {
          "$type": "ConfigMonsterStateIDInfo",
          "animatorStates": {
            "ConeOfCold_AS": ["Monster_Invoker_Herald_Ice_ConeOfCold_Trigger"]
          },
          "resetAnimatorTriggerOnExit": ["BeHit", "DoSkill"]
        },
        // 强化远程冰锥
        "ConeOfCold_Improved_BS": {
          "$type": "ConfigMonsterStateIDInfo",
          "animatorStates": {
            "ConeOfCold_Improved_BS_1": [
              "Monster_Invoker_Herald_Ice_ConeOfCold_Improved_BS"
            ],
            "ConeOfCold_Improved_BS_2": [
              "Monster_Invoker_Herald_Ice_ConeOfCold_Point_Trigger_01"
            ]
          }
        },
        "ConeOfCold_Improved_01": {
          "$type": "ConfigMonsterStateIDInfo",
          "animatorStates": {
            "ConeOfCold_Improved_01": [
              "Monster_Invoker_Herald_Ice_ConeOfCold_Improved_Trigger_01"
            ],
            "ConeOfCold_Improved_01_AS": [
              "Monster_Invoker_Herald_Ice_ConeOfCold_Point_Trigger_02"
            ]
          }
        },
        "ConeOfCold_Improved_02": {
          "$type": "ConfigMonsterStateIDInfo",
          "animatorStates": {
            "ConeOfCold_Improved_02": [
              "Monster_Invoker_Herald_Ice_ConeOfCold_Improved_Trigger_02"
            ]
          },
          "resetAnimatorTriggerOnExit": ["BeHit", "DoSkill"]
        },
        ////
        //      .d8888. d888888b d88888b d8888b.      d8888b.  .d8b.   .o88b. db   dD
        //      88'  YP `~~88~~' 88'     88  `8D      88  `8D d8' `8b d8P  Y8 88 ,8P'
        //      `8bo.      88    88ooooo 88oodD'      88oooY' 88ooo88 8P      88,8P
        //        `Y8b.    88    88~~~~~ 88~~~        88~~~b. 88~~~88 8b      88`8b
        //      db   8D    88    88.     88           88   8D 88   88 Y8b  d8 88 `88.
        //      `8888Y'    YP    Y88888P 88           Y8888P' YP   YP  `Y88P' YP   YD
        "StepBack": {
          "$type": "ConfigMonsterStateIDInfo",
          "animatorStates": {
            "MoveBack_BS": [],
            "MoveBack": [],
            "MoveBack_AS": []
          },
          "resetAnimatorTriggerOnExit": ["BeHit", "DoSkill"]
        },
        "FastStepBack": {
          "$type": "ConfigMonsterStateIDInfo",
          "animatorStates": {
            "FastMoveBack_PA": [],
            "FastMoveBack_PB": []
          },
          "resetAnimatorTriggerOnExit": ["BeHit", "DoSkill"]
        },
        "StepForward": {
          "$type": "ConfigMonsterStateIDInfo",
          "animatorStates": {
            "MoveForward_BS": [],
            "MoveForward": [],
            "MoveForward_AS": []
          },
          "resetAnimatorTriggerOnExit": ["BeHit", "DoSkill"]
        },
        // //
        // d8888b. d8888b. d88888b  .d8b.  db   dD d888888b d8b   db  d888b       .d8888. db       .d8b.  .d8888. db   db
        // 88  `8D 88  `8D 88'     d8' `8b 88 ,8P'   `88'   888o  88 88' Y8b      88'  YP 88      d8' `8b 88'  YP 88   88
        // 88oooY' 88oobY' 88ooooo 88ooo88 88,8P      88    88V8o 88 88           `8bo.   88      88ooo88 `8bo.   88ooo88
        // 88~~~b. 88`8b   88~~~~~ 88~~~88 88`8b      88    88 V8o88 88  ooo        `Y8b. 88      88~~~88   `Y8b. 88~~~88
        // 88   8D 88 `88. 88.     88   88 88 `88.   .88.   88  V888 88. ~8~      db   8D 88booo. 88   88 db   8D 88   88
        // Y8888P' 88   YD Y88888P YP   YP YP   YD Y888888P VP   V8P  Y888P       `8888Y' Y88888P YP   YP `8888Y' YP   YP
        // //
        "BreakingSlash": {
          "$type": "ConfigMonsterStateIDInfo",
          "animatorStates": {
            // 降神前
            "BreakingSlash_BS": [
              // 尝试附魔
              "Monster_Invoker_Herald_Ice_BreakingSlash_Enchant_Try",
              // 播放警告圈
              "Monster_Invoker_Herald_Ice_BreakingSlash_BS",
              // 刀光
              "Monster_Invoker_Herald_Ice_BreakingSlash_Blade"
            ],
            "BreakingSlash": ["Monster_Invoker_Herald_Ice_BreakingSlash_01"],
            "BreakingSlash_AS": [],
            //
            // 降神后 - 和上方一一对应
            "BreakingSlash_Improved_BS": [
              "Monster_Invoker_Herald_Ice_BreakingSlash_Enchant_Try",
              "Monster_Invoker_Herald_Ice_BreakingSlash_Improved_BS", // 更大的警告圈
              "Monster_Invoker_Herald_Ice_BreakingSlash_Blade"
            ],
            "BreakingSlash_Improved": [
              "Monster_Invoker_Herald_Ice_BreakingSlash_Improved_01"
            ],
            "BreakingSlash_Improved_AS": []
          },
          "resetAnimatorTriggerOnExit": ["BeHit", "DoSkill"]
        }
      }
    }
  },
  "abilities": [
    { "abilityName": "Invoker_Herald_Ice_AnimatorSteer" }, // 各种攻击旋转表现的统一管理
    { "abilityName": "Invoker_Herald_Ice_IceBlade_Manager" }, // 手中冰刃的表现管理
    { "abilityName": "Invoker_Herald_Ice_EnchantIceBlade_Manager" }, // 深渊冰刃的逻辑管理
    { "abilityName": "Invoker_Herald_Ice_ElementState_Manager" }, // 元素盾，以及各种Pose相关的控制
    { "abilityName": "Invoker_Herald_Ice_Distance_Calc" }, // 距离计算，触发用
    { "abilityName": "Invoker_Herald_Ice_ConeOfCold_Trigger" }, // 501技能的深渊冰锥
    { "abilityName": "Invoker_Herald_Ice_ConeOfCold_Improved_Point_1" }, // 502预警圈空Gadget1
    { "abilityName": "Invoker_Herald_Ice_ConeOfCold_Improved_Point_2" }, // 502预警圈空Gadget2
    { "abilityName": "Invoker_Herald_Ice_ConeOfCold_Improved_Trigger_1" }, // 502技能的强化冰锥
    { "abilityName": "Invoker_Herald_Ice_ConeOfCold_Improved_Trigger_2" } // 502技能的强化冰锥
  ],
  "initialPoses": {
    "Default": {
      "initialPoseID": 101
    }
  },
  "aibeta": {
    "enable": true,
    "neurons": {
      "DefaultSetting": ["HIT"],
      "NeverCombat": []
    },
    "sensing": {
      "settings": {
        "DefaultSetting": {
          "viewRange": 30.0,
          "feelRange": 15.0
        },
        "NeverCombat": {
          "enableVision": false,
          "feelRange": 0.0,
          "hearAttractionRange": 0.0
        }
      },
      "templates": {
        "DefaultTemplate": {
          "DefaultPoses": "DefaultSetting"
        },
        "NeverCombatTemplate": {
          "DefaultPoses": "NeverCombat"
        }
      }
    },
    "defendArea": {
      "enable": true,
      "defendRange": 50
    },
    "threat": {
      "clearThreatTargetDistance": 50.0,
      "clearThreatByLostPath": true,
      "clearThreatTimerByLostPath": 10,
      "resistTauntLevel": "Monster_TauntLevel_3"
    },
    "returnToBornTactic": {
      "enable": true,
      "defaultSetting": {
        "speedLevel": 0,
        "fadeoutBeginTime": 1.0,
        "fadeoutEndTime": 2.0
      }
    },
    "wanderTactic": {
      "enable": true,
      "condition": {
        "pose": [201]
      },
      "defaultSetting": {
        "speedLevel": 1,
        "cdMin": 0.0,
        "cdMax": 0.0,
        "distanceFromBorn": 15.0,
        "distanceFromCurrentMin": 7.5,
        "distanceFromCurrentMax": 10.0
      }
    },
    "meleeChargeTactic": {
      "enable": true,
      "condition": {
        "pose": [301, 401, 501, 502]
      },
      "defaultSetting": {
        "speedLevel": 1,
        "turnSpeedOverride": 0.8,
        "stopDistance": 2.1,
        "startDistanceMin": 3.5,
        "startDistanceMax": 99.0,
        "useMeleeSlot": false
      }
    },
    "skillGroupCDConfigs": [
      {
        // 后撤移动
        "skillGroupCDID": 1,
        "skillGroupCDTime": 7
      },
      {
        // 起跳冰锥
        "skillGroupCDID": 2,
        "skillGroupCDTime": 30
      }
    ],
    "skillGCD": 2.1,
    "skills": {
      "101": {
        "name": "OnAlert",
        "stateIDs": ["Alert"],
        "skillType": "OnAlert",
        "skillQueryingTime": 3,
        "faceTarget": true,
        "castCondition": {
          "pose": [101, 201]
        }
      },
      "201": {
        "cd": 7.0,
        "cdUpperRange": 4,
        "priority": 3,
        "ignoreGCD": true,
        "name": "ComboAttack",
        "stateIDs": [
          "ComboAttack_BS",
          "ComboAttack_01",
          "ComboAttack_02",
          "ComboAttack_03",
          "ComboAttack_02_To_04",
          "ComboAttack_04"
        ],
        "combatSkillType": "MeleeAttack",
        "flagSelfInZone": "11",
        "castCondition": {
          "maxTargetAngleXZ": 60,
          "pickRangeMin": 0.0,
          "pickRangeMax": 8.0,
          "pose": [301, 501, 502]
        }
      },
      // 突进攻击
      "301": {
        "cd": 20.0,
        "cdUpperRange": 15,
        "priority": 2,
        "name": "RushAttack",
        "ignoreGCD": true,
        "stateIDs": [
          "RushAttack_BS_1",
          "RushAttack_BS_2",
          "RushAttack",
          "RushAttack_AS",
          "RushAttack_Improved",
          "RushAttack_Improved_AS"
        ],
        "combatSkillType": "MeleeAttack",
        "flagSelfInZone": "11",
        "castCondition": {
          "maxTargetAngleXZ": 90,
          "pickRangeMin": 8,
          "pickRangeMax": 20.0,
          "pose": [301, 501, 502]
        }
      },
      // 破冰斩击
      "401": {
        "cd": 11.5,
        "priority": 1,
        "name": "BreakingSlash",
        "stateIDs": ["BreakingSlash"],
        "combatSkillType": "MeleeAttack",
        "flagSelfInZone": "11",
        "flagTargetInZone": "11",
        "flagSelfOnTemplateCollider": "11",
        "castCondition": {
          "pickRangeMin": 0.0,
          "pickRangeMax": 5.0,
          "pose": [301]
        }
      },
      // 破冰斩击-降神后
      "402": {
        "cd": 14.0,
        "priority": 1,
        "name": "BreakingSlash_Improved",
        "stateIDs": ["BreakingSlash"],
        "combatSkillType": "MeleeAttack",
        "flagSelfInZone": "11",
        "flagTargetInZone": "11",
        "flagSelfOnTemplateCollider": "11",
        "castCondition": {
          "pickRangeMin": 0.0,
          "pickRangeMax": 5.0,
          "pose": [501, 502]
        }
      },
      // 直线冰锥
      "501": {
        "cd": 12.0,
        "cdUpperRange": 6,
        "priority": 3,
        "name": "ConeOfCold",
        "stateIDs": ["ConeOfCold", "ConeOfCold_AS"],
        "combatSkillType": "RangedAttack",
        "flagSelfInZone": "11",
        "flagTargetInZone": "11",
        "flagSelfOnTemplateCollider": "11",
        "triggerGCD": false,
        "castCondition": {
          "maxTargetAngleXZ": 60,
          "pickRangeMin": 6.5,
          "pickRangeMax": 13.5,
          "pose": [301, 501, 502]
        }
      },
      // 冰锥强化版本 - 常规远距离施放
      "511": {
        "cd": 80,
        "cdUpperRange": 20,
        "priority": 1,
        "name": "ConeOfCold_Improved_Priority_1",
        "stateIDs": [
          "ConeOfCold_Improved_BS",
          "ConeOfCold_Improved_01",
          "ConeOfCold_Improved_02"
        ],
        "combatSkillType": "RangedAttack",
        "flagSelfInZone": "11",
        "flagTargetInZone": "11",
        "flagSelfOnTemplateCollider": "11",
        "ignoreGCD": true,
        "castCondition": {
          "pickRangeMin": 8.0,
          "pickRangeMax": 20.0,
          "pose": [501, 502]
        },
        "skillGroupCDID": 2
      },
      "512": {
        "cd": 80,
        "cdUpperRange": 20,
        "priority": 3,
        "name": "ConeOfCold_Improved_Priority_3",
        "stateIDs": [
          "ConeOfCold_Improved_BS",
          "ConeOfCold_Improved_01",
          "ConeOfCold_Improved_02"
        ],
        "combatSkillType": "RangedAttack",
        "flagSelfInZone": "11",
        "flagTargetInZone": "11",
        "flagSelfOnTemplateCollider": "11",
        "ignoreGCD": true,
        "castCondition": {
          "pickRangeMin": 12.0,
          "pickRangeMax": 20.0,
          "pose": [501, 502]
        },
        "skillGroupCDID": 2
      },
      // 冰锥强化版本 - 近距离施放保底
      "513": {
        "cd": 60,
        "cdUpperRange": 20,
        "priority": 6,
        "name": "ConeOfCold_Improved_Priority_6",
        "stateIDs": [
          "ConeOfCold_Improved_BS",
          "ConeOfCold_Improved_01",
          "ConeOfCold_Improved_02"
        ],
        "combatSkillType": "RangedAttack",
        "flagSelfInZone": "11",
        "flagTargetInZone": "11",
        "flagSelfOnTemplateCollider": "11",
        "ignoreGCD": true,
        "castCondition": {
          "pickRangeMin": 5.0,
          "pickRangeMax": 20.0,
          "pose": [501, 502]
        },
        "skillGroupCDID": 2
      },
      // 后撤
      "601": {
        "cd": 36.0,
        "cdUpperRange": 20,
        "initialCD": 20,
        "priority": 3,
        "name": "StepBack",
        "stateIDs": ["StepBack"],
        "triggerGCD": false,
        "flagSelfInZone": "11",
        "castCondition": {
          "pickRangeMin": 0,
          "pickRangeMax": 4.75,
          "pose": [301, 501, 502]
        },
        "skillGroupCDID": 1
      },
      // 姿态调整 - 快速后撤
      "611": {
        "cd": 1.0,
        "initialCD": 8,
        "skillQueryingTime": 0.6,
        "priority": 1,
        "name": "FastStepBack",
        "stateIDs": ["FastStepBack"],
        "ignoreGCD": true,
        "triggerGCD": false,
        "triggerCDOnFail": false,
        "flagSelfInZone": "11",
        "castCondition": {
          "minTargetAngleXZ": 100,
          "pickRangeMin": 0,
          "pickRangeMax": 6,
          "pose": [301, 501, 502]
        },
        "skillGroupCDID": 1
      },
      // 快速后撤 - 填充
      "612": {
        "initialCD": 8,
        "skillQueryingTime": 0.6,
        "priority": 5,
        "name": "FastStepBack_Fill_5",
        "stateIDs": ["FastStepBack"],
        "triggerGCD": false,
        "flagSelfInZone": "11",
        "castCondition": {
          "pickRangeMin": 0,
          "pickRangeMax": 4,
          "pose": [301, 501, 502]
        },
        "skillGroupCDID": 1
      },
      "613": {
        "cd": 30,
        "initialCD": 10,
        "skillQueryingTime": 0.6,
        "priority": 4,
        "name": "FastStepBack_Fill_4",
        "stateIDs": ["FastStepBack"],
        "triggerGCD": false,
        "flagSelfInZone": "11",
        "castCondition": {
          "pickRangeMin": 0,
          "pickRangeMax": 2.5,
          "pose": [301, 501, 502]
        },
        "skillGroupCDID": 1
      },
      // 前移
      "621": {
        "cd": 0,
        "priority": 5,
        "name": "StepForward",
        "stateIDs": ["StepForward"],
        "triggerGCD": false,
        "flagSelfInZone": "11",
        "castCondition": {
          "pickRangeMin": 13,
          "pickRangeMax": 50,
          "pose": [301, 501, 502]
        }
      },
      // 转阶段
      "701": {
        "name": "Improve",
        "stateIDs": ["Improved"],
        "skillQueryingTime": 1,
        "triggerGCD": false,
        "ignoreGCD": true,
        "triggerCDOnFail": false,
        "castCondition": {
          "pose": [401]
        }
      }
    }
  },
  "inputKeys": [
    {
      "keyID": 201, // 冰刃连斩
      "inputKeyCode": 257 // 1
    },
    {
      "keyID": 301, // 突进攻击
      "inputKeyCode": 258 // 2
    },
    {
      "keyID": 401, // 破冰斩击
      "inputKeyCode": 259 // 3
    },

    {
      "keyID": 501, // 深渊冰锥
      "inputKeyCode": 260 // 4
    },
    {
      "keyID": 511, // 深渊冰锥 - 降神
      "inputKeyCode": 261 // 5
    },
    {
      "keyID": 701, // 转阶段
      "inputKeyCode": 262 // 6
    },
    {
      "keyID": 601, // 后退动作
      "inputKeyCode": 263 // 7
    },
    {
      "keyID": 611, // 快速后退
      "inputKeyCode": 264 // 8
    },
    {
      "keyID": 402, // 破冰斩击 - 降神版本
      "inputKeyCode": 265 // 9
    }
  ]
}
